472686884226, 208368, 4242000
473009224174, 138048, 4247000
473558875945, 124266, 4250000
474111343185, 126269, 4251000
474697737559, 265025, 4251000
475222784956, 124266, 4251000
475478476778, 127565, 4250000
475737775997, 138048, 4248000
475997415528, 126975, 4250000
476325090059, 113195, 4252000
476756328027, 111310, 4251000
477223058444, 118495, 4251000
477660628601, 117788, 4251000
478079173704, 131451, 4250000
478450265371, 108011, 4250000
478886857871, 115196, 4253000
479319583183, 111310, 4251000
479763258079, 117788, 4251000
480206860474, 100826, 4251000
480641462141, 116493, 4252000
481087655474, 124973, 4251000
481526984849, 126269, 4250000
481976354013, 102829, 4251000
482425968598, 110603, 4252000
482861891359, 115196, 4251000
483238486463, 126975, 4252000
483699417035, 105420, 4251000
484149493858, 105420, 4250000
484671834170, 104831, 4251000
485123242660, 121086, 4251000
485581097764, 124973, 4250000
486034457764, 122971, 4250000
486493849118, 122971, 4251000
486956910212, 126975, 4250000
487409844013, 115196, 4250000
487876109846, 113195, 4250000
488336200523, 110603, 4251000
488803683700, 111310, 4252000
489273070940, 122382, 4252000
489729764221, 124973, 4251000
490200825471, 119084, 4252000
490659128178, 113195, 4251000
491131967710, 110014, 4251000
491605359689, 122382, 4251000
492070818283, 115904, 4250000
492621674272, 130863, 4247000
493285712657, 240877, 4235000
493845217605, 328749, 4228000
494313824115, 331340, 4231000
494805338177, 321681, 4228000
495277135416, 326157, 4230000
495762269166, 319679, 4230000
496247373853, 306015, 4226000
496723837031, 321681, 4228000
497218419062, 331340, 4230000
497706057809, 320385, 4230000
498154382707, 333342, 4227000
498621255207, 316380, 4230000
499100963957, 322977, 4230000
499596323540, 322270, 4228000
500080888020, 322977, 4228000
500577906299, 320385, 4228000
501070953071, 324861, 4226000
501563976456, 346417, 4223000
502091446560, 324273, 4228000
502565091352, 325568, 4228000
503087958017, 318972, 4227000
503593071247, 322270, 4227000
504076757184, 317676, 4226000
504619239371, 320974, 4226000
505182162705, 317088, 4228000
505670905725, 320974, 4226000
506182670360, 319679, 4225000
506797022287, 322270, 4228000
507312913277, 329455, 4226000
507831087548, 320974, 4226000
508346790932, 315791, 4226000
508866175776, 315085, 4225000
509376684057, 319679, 4226000
509900400724, 326864, 4226000
510403477234, 318972, 4226000
510938660722, 316380, 4226000
511456017546, 318383, 4223000
511985498431, 322977, 4226000
512605737285, 323565, 4226000
