752079357044, 222964, 3881000
752860879333, 124864, 3887000
753510871590, 128755, 3886000
754183131381, 131348, 3887000
754499285131, 120266, 3888000
754803954506, 127458, 3887000
755109552371, 113662, 3887000
755582462527, 115078, 3888000
756059803777, 143848, 3886000
756550291902, 115667, 3888000
757051617215, 114370, 3888000
757423930548, 109771, 3890000
757946931797, 115667, 3890000
758555565391, 124156, 3890000
759044298204, 109182, 3890000
759545342161, 115078, 3890000
760060246901, 114370, 3890000
760573747370, 115667, 3890000
761094273255, 118261, 3890000
761599973359, 115667, 3891000
762093702212, 113662, 3887000
762494173306, 114370, 3888000
763015488827, 123567, 3891000
763543336067, 113662, 3891000
764064401796, 128755, 3890000
764593261119, 123567, 3891000
765112704712, 143139, 3890000
765645160753, 115667, 3890000
766164459138, 108475, 3892000
766699231846, 115078, 3891000
767233801169, 115667, 3890000
767762734138, 113662, 3890000
768303942940, 126751, 3890000
768831047992, 116964, 3891000
769372344815, 126161, 3891000
769904623250, 112366, 3891000
770448027417, 124864, 3891000
770974199136, 116374, 3890000
771523777991, 175800, 3887000
772283669657, 256214, 3871000
772900679240, 354314, 3871000
773438528979, 343230, 3871000
773993712365, 341933, 3870000
774537034604, 349715, 3868000
775088972104, 339339, 3868000
775627540436, 342523, 3870000
776181582833, 348418, 3870000
776732264447, 342523, 3868000
777189363196, 382493, 3867000
777720413925, 353724, 3867000
778281102207, 338042, 3867000
778836790487, 335331, 3867000
779399688716, 338042, 3868000
779948896737, 346531, 3867000
780515136737, 350423, 3868000
781068763663, 341933, 3865000
781636225278, 354314, 3868000
782144678716, 352427, 3868000
782644696684, 341225, 3866000
783216731736, 345235, 3868000
783782935121, 338042, 3867000
784357348923, 336745, 3867000
784922797152, 339929, 3866000
785497175173, 332737, 3868000
786064053089, 341933, 3867000
786639212047, 339929, 3870000
787209274703, 352427, 3867000
787788448869, 353724, 3867000
788360946526, 353724, 3866000
788941419494, 341933, 3867000
789512461005, 343230, 3866000
790098011994, 330850, 3867000
790675372619, 353016, 3866000
791329345586, 343937, 3867000
