20285108642119, 219071, 3875000
20285991586078, 139323, 3883000
20286759302796, 136019, 3882000
20287586468890, 128823, 3883000
20287954125035, 127526, 3882000
20288414125140, 119622, 3882000
20289040200504, 139913, 3882000
20289634202327, 122925, 3883000
20290174347534, 136728, 3883000
20290769240815, 130121, 3885000
20291397289930, 119622, 3881000
20292004136284, 121627, 3883000
20292632780033, 116436, 3885000
20293257548471, 123633, 3883000
20293881515034, 133424, 3883000
20294502221127, 121627, 3883000
20295109350189, 132127, 3885000
20295985963366, 132716, 3883000
20296585556699, 129532, 3885000
20297065321334, 120330, 3885000
20297533040189, 129532, 3885000
20298007273417, 128115, 3885000
20298489416646, 115139, 3885000
20298959970916, 119032, 3885000
20299441899719, 120330, 3886000
20299901287115, 119622, 3885000
20300857692061, 113133, 3885000
20301863658051, 120919, 3885000
20302863388468, 124931, 3885000
20303671892582, 138615, 3887000
20304418156696, 154305, 3882000
20305029885497, 253755, 3872000
20305776624715, 345419, 3863000
20306082910289, 374793, 3860000
20306599005809, 349311, 3862000
20307134241018, 359811, 3863000
20307633853674, 359103, 3863000
20308122931487, 350609, 3862000
20308624331121, 349311, 3863000
20309056648933, 355800, 3861000
20309557524767, 351907, 3861000
20310039209350, 349311, 3862000
20310452684923, 336924, 3861000
20310901697527, 359811, 3861000
20311450710912, 355800, 3860000
20312004611120, 339520, 3862000
20312501217058, 359811, 3861000
20312995003099, 346716, 3860000
20313478869036, 359811, 3862000
20313975486952, 348014, 3861000
20314474979192, 360401, 3862000
20314963013723, 349311, 3862000
20315463545025, 348603, 3861000
20315913749973, 349311, 3860000
20316313705702, 351317, 3861000
20316818537889, 357098, 3861000
20317315210389, 332323, 3860000
20317821386327, 354502, 3862000
20318316897368, 349311, 3860000
20318826521273, 350609, 3860000
20319327586169, 356507, 3862000
20319837756586, 344711, 3861000
20320343050284, 344121, 3861000
20320856700440, 348603, 3860000
20321372549815, 346716, 3860000
20321879371064, 347306, 3860000
20322398804241, 347306, 3860000
20322906428199, 348603, 3861000
20323427958564, 349902, 3860000
20323943511585, 335509, 3861000
20324569498459, 356507, 3862000
