570027055733, 309382, 3851000
570489909639, 238415, 3866000
570966071046, 150404, 3875000
571356039483, 130570, 3875000
571694092035, 121400, 3876000
572050341307, 129373, 3873000
572408121775, 123692, 3876000
572782591826, 129972, 3876000
573083295003, 121400, 3875000
573379528232, 118011, 3877000
573689205055, 110137, 3875000
573975661305, 126583, 3876000
574277910211, 125387, 3876000
574634059847, 110635, 3877000
574917650419, 135055, 3876000
575182379013, 137946, 3877000
575478395992, 122596, 3875000
575782014898, 115719, 3877000
576087710367, 123692, 3876000
576394708231, 120303, 3875000
576700826461, 124290, 3877000
577004408283, 125985, 3877000
577312343440, 114024, 3877000
577620297607, 117513, 3877000
577927982918, 112329, 3878000
578235873178, 111234, 3877000
578549852345, 124888, 3876000
578861787345, 129373, 3877000
579174603439, 129972, 3877000
579488525470, 120902, 3876000
579803249637, 122596, 3877000
580105185366, 113526, 3877000
580384306980, 113526, 3876000
580713746042, 112329, 3877000
581013402657, 116915, 3877000
581341139896, 116317, 3877000
581648503958, 112329, 3877000
581967699687, 105552, 3877000
582287809114, 110137, 3876000
582609722083, 120902, 3876000
582934421146, 123194, 3877000
583259715207, 112329, 3877000
583582535677, 116915, 3876000
583905976822, 120303, 3878000
584240509635, 118011, 3878000
584556287343, 113526, 3877000
584882408176, 111832, 3878000
585209766144, 117513, 3880000
585543501874, 108941, 3877000
585873547238, 119207, 3878000
586208703019, 116915, 3877000
586544566665, 132763, 3878000
586893076092, 122596, 3877000
587207274477, 114024, 3877000
587550276613, 114024, 3877000
587874766925, 124888, 3877000
588208128592, 116317, 3877000
588542273227, 129373, 3878000
588877735414, 116915, 3878000
589214736872, 114024, 3878000
589559200309, 119705, 3876000
589937186976, 116317, 3880000
590355510362, 164060, 3872000
590804555258, 239512, 3862000
591240677445, 315064, 3852000
591571615361, 333802, 3853000
591913691767, 320745, 3851000
592258245569, 316757, 3851000
592601970101, 318452, 3853000
592948536454, 318452, 3852000
593296357444, 320745, 3852000
593642537860, 321242, 3851000
593988267183, 312771, 3853000
594338585776, 317854, 3850000
594686631766, 319050, 3852000
595044799266, 314465, 3851000
595343669631, 315064, 3851000
595695075724, 323535, 3850000
596048180099, 317854, 3852000
596402872234, 312173, 3850000
596757474473, 323037, 3851000
597113855203, 309382, 3848000
597466936765, 312771, 3850000
597823357182, 315064, 3850000
598178975515, 313867, 3848000
598536681504, 307687, 3852000
598894260514, 319549, 3851000
599254231608, 309382, 3851000
599616626243, 309980, 3850000
599976638170, 311076, 3850000
600294675670, 330911, 3848000
600657919941, 312771, 3850000
601018987545, 312173, 3848000
601385453221, 313867, 3850000
601751362493, 315561, 3848000
602114906242, 307089, 3851000
602491280409, 309382, 3850000
602848355981, 304797, 3850000
603215100253, 324034, 3850000
603583845305, 305893, 3851000
603953536555, 322339, 3851000
604319405564, 312173, 3848000
604689843897, 318951, 3850000
605064071033, 317256, 3850000
605436062022, 314964, 3850000
605840554054, 311574, 3850000
606454987283, 311574, 3847000
607006494105, 314964, 3848000
607300612491, 312771, 3851000
607567448584, 319549, 3848000
607835132126, 316658, 3848000
608104329469, 319549, 3848000
608373521969, 314465, 3847000
608643221397, 312771, 3847000
608916746605, 309881, 3848000
609188218011, 315561, 3850000
609459632176, 311574, 3847000
609736987489, 316658, 3848000
610222823114, 342772, 3830000
