448190111251, 305993, 3865000
448722059064, 206620, 3876000
449222203543, 153794, 3885000
449603782449, 123692, 3886000
450029998906, 132264, 3886000
450418447499, 121998, 3886000
450830236823, 124290, 3885000
451198839114, 118609, 3888000
451538835416, 127081, 3886000
451885404114, 118011, 3888000
452228941562, 121400, 3887000
452571556146, 119207, 3886000
452999614843, 114622, 3886000
453305737811, 124888, 3886000
453649956873, 121998, 3886000
453995499322, 101566, 3887000
454343703801, 109539, 3887000
454692799009, 134457, 3888000
455039321352, 122596, 3888000
455393120051, 114024, 3886000
455744603956, 124888, 3885000
456098399633, 120902, 3886000
456447832654, 115719, 3885000
456802173175, 124290, 3886000
457154877914, 115220, 3887000
457520243956, 124888, 3887000
457865104581, 115719, 3887000
458221504113, 119207, 3887000
458577475257, 123194, 3886000
458935407601, 104954, 3888000
459246282601, 136251, 3883000
459606543695, 110635, 3886000
459966689944, 104954, 3888000
460324477288, 113526, 3886000
460684262445, 106150, 3888000
461043378225, 112927, 3887000
461406508746, 117513, 3886000
461771308902, 114024, 3887000
462132008381, 123194, 3887000
462498356975, 121998, 3886000
462865397912, 118011, 3887000
463229341714, 123194, 3885000
463637273641, 100469, 3885000
464241678693, 122596, 3887000
464763215620, 116915, 3887000
465044500464, 116317, 3887000
465304369891, 114024, 3888000
465565251661, 112927, 3887000
465832689318, 120902, 3887000
466095070203, 114622, 3886000
466362800827, 111234, 3886000
466626726035, 125985, 3885000
466892903796, 116317, 3887000
467159124577, 112927, 3888000
467424771088, 119705, 3886000
467693143327, 120902, 3888000
468007810827, 111832, 3886000
468325314004, 164060, 3883000
468684983535, 207218, 3873000
469048556086, 263333, 3871000
469426690045, 315064, 3861000
469693881972, 312173, 3862000
469957275930, 317854, 3860000
470223533535, 310478, 3860000
470487572701, 328619, 3860000
470751376139, 319549, 3860000
471016586972, 332605, 3858000
471284047961, 309980, 3861000
471550794888, 311674, 3861000
471822220513, 306491, 3860000
472089831398, 313867, 3860000
472362964002, 316757, 3860000
472632547909, 311674, 3857000
472972202232, 375763, 3852000
473202926554, 330413, 3857000
473498381606, 311076, 3860000
473785513429, 309980, 3860000
474076558376, 316757, 3858000
474365729418, 319549, 3860000
474682193012, 307089, 3860000
474967508688, 313369, 3860000
475264368220, 318452, 3856000
475556524991, 312173, 3858000
475855903376, 316757, 3860000
476137192178, 313369, 3858000
476406888011, 317854, 3857000
476693048011, 315561, 3858000
476974555302, 305395, 3858000
477263803115, 316159, 3856000
477547927490, 313867, 3861000
477916111292, 313369, 3857000
478170348896, 323535, 3857000
478444856136, 311076, 3856000
478738692333, 320745, 3857000
479019516552, 306491, 3856000
479309087124, 319050, 3858000
479599494989, 303701, 3856000
479889383322, 309980, 3857000
480183007593, 309980, 3857000
480481913531, 310478, 3855000
480769949988, 302006, 3856000
481061841760, 308186, 3857000
481362292333, 317854, 3857000
481655701134, 314465, 3858000
481950834259, 311076, 3857000
482250427124, 320147, 3857000
482546733321, 313867, 3858000
482847402019, 312771, 3856000
483149605352, 319549, 3856000
483461110665, 315561, 3857000
483753242800, 309382, 3857000
484056290717, 310478, 3856000
484357137852, 304797, 3856000
484662656862, 316159, 3857000
484979215976, 312771, 3857000
485282198789, 299713, 3856000
485578540872, 309980, 3856000
485888101445, 303701, 3857000
486196992122, 324732, 3853000
486506197851, 320147, 3853000
486811907227, 311674, 3856000
487132199880, 309382, 3856000
487442497069, 304299, 3857000
487749626288, 332605, 3856000
488248863163, 324133, 3811000
