696259348860, 313867, 3848000
696852178704, 210706, 3870000
697397359172, 130869, 3877000
697828447870, 123493, 3876000
698274155058, 126882, 3876000
698708885318, 122895, 3877000
699134789641, 124589, 3878000
699501480734, 122297, 3877000
699870633182, 115519, 3878000
700254870161, 117214, 3877000
700622615734, 113326, 3878000
701024387244, 128576, 3876000
701352631099, 115519, 3878000
701711617140, 100768, 3878000
702084881462, 115021, 3877000
702456924952, 119506, 3877000
702860523233, 117214, 3877000
703461785785, 112728, 3877000
703995370004, 114423, 3878000
704304790056, 112728, 3877000
704590840212, 112728, 3877000
704856057034, 113825, 3877000
705131623649, 122895, 3878000
705399263909, 117214, 3878000
705676485940, 118908, 3877000
705949598857, 121799, 3877000
706188948440, 150703, 3876000
706464227711, 118409, 3877000
706739190159, 115021, 3877000
707020741409, 113326, 3878000
707297519896, 109838, 3878000
707574309116, 118908, 3880000
707852591356, 116117, 3880000
708131060054, 121799, 3880000
708413975314, 124589, 3876000
708746316877, 113326, 3878000
709010252190, 122297, 3876000
709277975678, 103658, 3878000
709548201043, 118409, 3876000
709822111148, 117214, 3878000
710096430001, 116117, 3880000
710368400469, 124589, 3880000
710639374428, 111034, 3878000
710914537032, 125187, 3876000
711193891459, 116117, 3876000
711463229897, 122895, 3878000
711736907813, 117811, 3877000
712015457813, 113825, 3877000
712292809480, 113825, 3878000
712570931042, 115021, 3877000
712859922291, 120603, 3877000
713138264218, 130869, 3878000
713410160886, 122895, 3880000
713754222656, 150105, 3872000
714006748333, 127979, 3876000
714316123072, 125785, 3877000
714618033801, 124589, 3878000
714913356927, 118409, 3876000
715212992447, 121799, 3876000
715513969895, 120104, 3878000
715816517603, 125187, 3876000
716157425988, 132563, 3875000
716559490207, 178412, 3872000
716963071405, 230541, 3860000
717352774686, 303103, 3851000
717658327602, 313269, 3851000
717969023852, 309382, 3848000
718269437497, 314964, 3852000
718665567289, 314964, 3852000
718959666352, 303701, 3850000
719270518956, 311076, 3851000
719582089946, 312173, 3850000
719898305154, 309881, 3853000
720214343175, 311076, 3851000
720525204476, 309382, 3850000
720837395622, 311076, 3851000
721137821924, 331410, 3848000
721427864111, 320147, 3851000
721747642444, 317256, 3851000
722062852236, 310478, 3850000
722384688851, 308784, 3852000
722701912393, 317256, 3850000
723022967494, 301408, 3851000
723349022443, 309881, 3850000
723669766975, 309881, 3848000
723993029788, 329217, 3850000
724316991193, 304797, 3850000
724644480829, 309881, 3851000
724975762756, 310478, 3848000
725301138954, 306491, 3850000
725628484941, 321242, 3850000
725965410359, 321242, 3850000
726256869734, 326924, 3846000
726581006662, 312771, 3850000
726913098120, 305395, 3850000
727241813901, 307089, 3848000
727581248589, 313867, 3848000
727911323120, 309382, 3850000
728242778743, 310478, 3847000
728579408327, 310478, 3850000
728912788379, 308186, 3848000
729263281296, 314465, 3847000
729594848119, 310478, 3848000
729939705514, 318951, 3847000
730279166556, 309382, 3850000
730616172858, 322937, 3847000
730951215931, 313867, 3846000
731266162336, 308186, 3850000
731601696399, 316658, 3847000
731919281190, 309881, 3850000
732246785305, 307687, 3847000
732575558170, 313867, 3847000
732903423534, 329715, 3848000
733233437024, 317854, 3847000
733566829783, 321841, 3850000
733897940773, 301408, 3847000
734233144159, 322339, 3846000
734565443898, 317854, 3847000
734899318846, 307687, 3846000
735232969263, 321841, 3847000
735568668168, 310478, 3846000
735910815461, 296325, 3848000
736606038793, 780234, 3838000
