1358462785075, 234683, 4063000
1359069995126, 142065, 4072000
1359668899241, 130291, 4071000
1360146875906, 133431, 4070000
1360638632105, 124125, 4071000
1361008823824, 110557, 4072000
1361332282053, 112351, 4073000
1361655677730, 126591, 4071000
1361979967209, 128498, 4072000
1362384068043, 118519, 4071000
1362832229396, 125918, 4073000
1363196580958, 136459, 4072000
1363604122104, 127264, 4072000
1364015148823, 118519, 4072000
1364425036896, 127264, 4072000
1364839216895, 117957, 4071000
1365253274552, 119752, 4073000
1365667055332, 129731, 4071000
1366084523822, 114257, 4072000
1366498850488, 128498, 4075000
1366915795176, 116724, 4072000
1367332724030, 124685, 4071000
1367748522467, 118519, 4075000
1368142460644, 141392, 4073000
1368536837206, 119752, 4073000
1368955681060, 126591, 4075000
1369378442623, 117957, 4071000
1369799744862, 114818, 4073000
1370222726998, 125358, 4073000
1370644226840, 116051, 4075000
1371067232726, 124125, 4073000
1371493304445, 114257, 4073000
1371918611632, 116051, 4072000
1372344720486, 124125, 4071000
1372771657726, 105623, 4073000
1373200561684, 118519, 4073000
1373630768923, 127264, 4072000
1374070772934, 116051, 4075000
1374491254027, 117284, 4075000
1374930427517, 114257, 4072000
1375365352725, 117284, 4075000
1375802197881, 123452, 4072000
1376238461057, 120985, 4073000
1376676038089, 114257, 4072000
1377114717724, 115491, 4073000
1377553284964, 119191, 4072000
1378074410328, 142065, 4070000
1378672000328, 230422, 4056000
1379488577202, 338512, 4051000
1379845318192, 331673, 4050000
1380171682515, 327973, 4048000
1380497229806, 331113, 4050000
1380825074598, 342773, 4047000
1381153744597, 329206, 4047000
1381483822410, 336607, 4047000
1381813750587, 314966, 4048000
1382143961993, 326178, 4048000
1382476030743, 326178, 4050000
1382808697149, 332346, 4047000
1383120472306, 340980, 4048000
1383424457774, 326178, 4047000
1383759380794, 338512, 4047000
1384097155117, 332906, 4050000
1384437597669, 329879, 4048000
1384774852669, 337840, 4046000
1385109476679, 336607, 4047000
1385445746471, 328645, 4048000
1385781919023, 324272, 4048000
1386125033502, 331673, 4047000
1386459215480, 340980, 4048000
1386799391834, 340307, 4048000
1387139681626, 328645, 4050000
1387481295897, 332346, 4046000
1387823083658, 329206, 4046000
1388141641106, 340307, 4047000
1388467239751, 339074, 4046000
1388808365376, 327412, 4048000
1389154660480, 338512, 4046000
1389502705584, 331673, 4047000
1389851483188, 338512, 4048000
1390201370584, 344680, 4047000
1390552215063, 330440, 4047000
1390904022667, 332346, 4045000
1391256692458, 326740, 4047000
1391617350426, 333579, 4046000
1391965102979, 331673, 4046000
1392320907823, 336046, 4047000
1392676466468, 339747, 4046000
1393035334645, 326178, 4047000
1393394630322, 331673, 4048000
1393754881885, 330440, 4046000
1394115728447, 332346, 4046000
1394487383759, 332906, 4046000
1394845633915, 329206, 4048000
1395209914592, 331113, 4046000
1395576264644, 332346, 4046000
1395942611259, 337840, 4046000
1396320377770, 331113, 4047000
1396679165112, 339074, 4046000
1397047589018, 329879, 4046000
1397463122560, 337279, 4046000
1398109131622, 329206, 4037000
