331275361297, 620365, 3927000
331325745717, 612606, 3927000
331370209050, 580703, 3927000
331416846237, 585553, 3922000
331462968216, 572296, 3922000
331533125820, 405564, 3922000
331590193477, 568093, 3922000
331683262383, 382070, 3927000
331730103373, 280435, 3927000
331799191653, 541580, 3927000
331840600404, 496421, 3927000
331876481237, 528970, 3927000
331936294831, 491572, 3948000
331979717382, 596331, 3948000
332011822070, 313524, 3948000
332061905248, 313524, 3948000
332118546653, 462687, 3948000
332165202695, 307488, 3938000
332201824831, 290566, 3938000
332244330352, 472387, 3938000
332284355768, 470555, 3938000
332324527643, 457298, 3938000
332364738997, 472387, 3938000
332405798685, 452556, 3937000
332446747174, 206932, 3937000
332494665924, 280435, 3937000
332551086706, 475405, 3937000
332613600247, 457298, 3937000
332672318425, 228056, 3956000
332750957070, 277957, 3956000
332823972279, 467537, 3956000
332888644622, 366441, 3956000
332927095247, 282807, 3941000
332971764987, 287010, 3941000
333028932122, 451909, 3941000
333090913581, 466352, 3941000
333153289726, 459777, 3941000
333194721810, 283345, 3941000
333263344570, 478961, 3941000
333330274675, 395973, 3941000
333394879362, 458483, 3941000
333444307226, 283992, 3951000
333484656497, 292399, 3951000
333524062591, 448892, 3951000
333575251237, 277417, 3951000
333622284727, 303285, 3951000
333679359518, 288195, 3956000
333745696862, 466352, 3956000
333796257903, 299081, 3956000
333853702539, 223206, 3956000
333930895664, 285178, 3957000
334004573737, 451909, 3957000
334064102122, 434450, 3957000
334124445455, 293046, 3957000
334196600768, 452556, 3956000
334240683372, 289381, 3956000
334290194518, 238294, 3956000
334355966237, 474219, 3956000
334402632435, 296602, 3940000
334470879622, 300267, 3940000
334536801341, 451909, 3940000
334594671810, 438653, 3940000
334647361341, 283345, 3940000
334690457956, 279142, 3943000
334740575560, 276771, 3943000
334790867591, 275586, 3943000
334841386445, 273214, 3943000
334892213164, 427229, 3943000
334951209831, 215446, 3961000
335024750247, 202728, 3961000
335107132069, 271382, 3961000
335168144881, 463334, 3958000
335232884101, 543412, 3958000
335284478736, 279142, 3958000
335409993892, 287656, 3960000
335532975142, 300267, 3960000
335662943580, 296602, 3958000
335792846080, 292399, 3958000
335922894517, 291860, 3961000
336053825715, 287010, 3961000
336184344413, 280974, 3958000
336259184829, 269550, 3958000
336324355819, 438114, 3958000
336383768944, 304470, 3958000
336441495923, 282160, 3956000
336498170975, 283992, 3956000
336556322642, 551819, 3956000
336591670351, 448244, 3956000
336672494673, 436281, 3957000
336792793215, 285825, 3957000
336909420298, 290566, 3960000
336964614882, 451909, 3960000
337017046808, 280435, 3960000
337063303944, 319451, 3960000
337126979569, 276771, 3960000
337202413371, 271921, 3947000
337259834881, 204560, 3947000
337332850298, 423025, 3947000
337400563111, 273214, 3946000
337444035402, 467537, 3946000
337495341965, 441671, 3946000
337542460350, 309319, 3946000
337594037329, 471740, 3946000
337653638684, 280435, 3942000
337720380766, 274939, 3942000
337779208734, 267179, 3942000
337838650922, 283992, 3942000
337898329776, 285178, 3942000
337958264672, 288842, 3942000
338021147746, 279789, 3942000
338079171130, 276771, 3942000
338139893630, 277957, 3942000
338200786131, 278604, 3941000
338259870193, 288842, 3941000
338321432381, 280435, 3941000
338381136027, 308026, 3941000
338434997016, 277957, 3953000
338505294985, 280974, 3953000
338566159568, 453095, 3953000
338700555298, 297249, 3956000
338833961339, 302638, 3956000
338964315193, 296064, 3958000
339094696287, 287656, 3958000
339225379880, 282807, 3957000
339355899099, 287656, 3957000
339486748839, 287656, 3948000
339617514099, 294231, 3948000
339741003631, 282807, 3958000
339821544620, 288842, 3958000
339944556443, 290566, 3960000
340025719672, 300805, 3960000
340113963839, 278604, 3960000
340202208527, 270196, 3958000
340289817172, 288195, 3958000
340378222378, 289381, 3958000
340466660140, 288842, 3941000
340555394932, 273753, 3941000
340643953578, 291213, 3960000
340732702015, 274400, 3960000
340821918369, 286363, 3960000
340911341755, 290028, 3953000
341036264255, 293584, 3953000
341074079567, 277957, 3953000
341143559098, 284638, 3953000
341234992328, 448892, 3952000
341294839515, 432617, 3952000
341358511286, 290566, 3952000
341439893213, 284638, 3956000
341514642848, 290028, 3956000
341599273785, 282160, 3956000
341662066338, 284638, 3941000
341742691026, 286363, 3941000
341818750088, 209949, 3941000
341885529984, 259311, 3941000
341924413838, 454927, 3941000
341999195452, 293046, 3941000
342074396755, 290566, 3941000
342137680400, 279789, 3941000
342209489202, 430246, 3947000
342279147431, 291213, 3947000
342338311337, 292399, 3947000
342397535452, 294231, 3940000
342539589879, 299620, 3940000
342640317536, 302638, 3940000
342673798994, 451909, 3940000
342712563630, 444688, 3940000
342751208057, 201542, 3940000
342792365036, 245515, 3940000
342837700035, 205746, 3940000
342890288526, 205207, 3940000
342933565869, 460316, 3960000
342972972483, 469369, 3960000
343012975347, 450723, 3960000
343053213681, 479608, 3960000
343093347275, 459131, 3960000
343137851701, 456759, 3960000
343174333212, 446520, 3941000
343213754670, 457945, 3941000
343259412899, 447059, 3941000
343314024879, 336911, 3941000
343350926441, 205746, 3941000
343390481441, 205207, 3941000
343429727587, 200896, 3958000
343469427378, 204560, 3958000
343511012431, 202728, 3958000
343550898316, 214153, 3958000
343590967171, 193136, 3958000
343631288993, 205207, 3958000
343671115868, 202728, 3940000
343711276702, 209410, 3940000
343751419254, 210596, 3940000
343792506337, 438653, 3940000
343835190764, 329151, 3940000
343875513264, 280435, 3940000
343915536649, 273753, 3940000
343971030816, 454927, 3940000
344031171650, 447059, 3940000
344091283108, 432617, 3940000
344149053576, 483811, 3938000
344211722379, 440485, 3938000
344277889826, 287010, 3938000
344338782639, 435635, 3938000
344400823056, 448244, 3942000
344459059670, 476590, 3942000
344522407952, 435635, 3942000
344583810972, 450723, 3942000
344634768212, 285178, 3942000
344684885243, 283345, 3953000
344740482066, 442856, 3953000
344799887118, 267718, 3953000
344864175504, 434450, 3953000
344916431285, 273214, 3940000
344965456441, 442317, 3940000
345014859878, 560872, 3940000
345074139358, 282807, 3940000
345136562535, 280435, 3940000
345193671649, 444688, 3937000
345240351025, 271382, 3937000
345290758941, 271921, 3937000
345358971128, 205207, 3937000
345425048524, 448892, 3957000
345486758732, 297787, 3957000
345546526076, 202189, 3957000
345612111126, 436820, 3957000
345678351492, 205207, 3956000
345738893627, 447059, 3956000
345799074044, 280974, 3956000
345863592326, 442317, 3956000
345912458159, 267718, 3941000
345965843680, 283345, 3941000
346023569878, 264700, 3941000
346091762274, 281621, 3941000
346146747117, 274400, 3938000
346192140711, 315894, 3938000
346255443940, 279789, 3938000
346297127482, 487367, 3938000
346355860867, 198524, 3938000
346409926231, 285178, 3955000
346472645711, 464519, 3955000
346525954877, 271921, 3955000
346584050242, 285825, 3955000
346627132794, 453741, 3955000
346686461961, 285178, 3953000
346741494722, 291860, 3953000
346799538627, 507845, 3953000
346883226076, 300805, 3953000
347014153628, 291213, 3957000
347144640763, 296602, 3957000
347275291544, 283992, 3957000
347405931492, 303285, 3957000
347536447950, 291860, 3957000
347664389565, 295417, 3958000
347792231596, 294877, 3958000
347911030503, 302098, 3958000
347966087742, 456113, 3958000
348019880710, 270736, 3958000
348083477586, 288195, 3958000
348159520085, 286363, 3957000
348226339042, 445335, 3957000
348295832585, 465166, 3957000
348379130553, 261144, 3957000
348444228366, 548155, 3941000
348492189096, 273753, 3941000
348543269304, 290566, 3941000
348622147794, 267179, 3941000
348684673887, 439838, 3955000
348809482637, 283345, 3955000
348931585762, 298434, 3957000
349052573158, 292399, 3957000
349111633679, 447059, 3957000
349165296231, 267179, 3952000
349224881283, 295417, 3952000
349292110293, 385088, 3952000
349356750449, 289381, 3952000
349405943626, 291213, 3940000
349472975137, 211781, 3940000
349544192377, 528970, 3940000
349594211387, 272568, 3940000
349643894981, 290566, 3940000
349711956700, 279142, 3948000
349777056022, 277417, 3948000
349834260606, 494589, 3948000
349901636700, 274400, 3947000
349962723470, 276771, 3947000
350033365241, 285825, 3947000
350103458679, 267718, 3947000
350164647064, 268365, 3955000
350234637429, 287010, 3955000
350309327324, 280435, 3955000
350365173626, 278604, 3955000
350438257116, 280974, 3956000
350518483991, 282807, 3956000
350597022116, 288195, 3956000
350662435710, 280435, 3945000
350726659460, 271921, 3945000
350788559668, 287010, 3945000
350856264249, 279142, 3945000
350931721334, 278604, 3956000
351005220396, 280974, 3956000
351093616386, 456759, 3956000
351153243470, 320097, 3940000
351213298782, 318912, 3940000
351299985292, 455465, 3940000
351449899250, 313524, 3955000
351578167219, 323115, 3955000
351691958782, 343593, 3948000
351827016959, 379052, 3948000
351956671646, 388105, 3946000
352000472063, 545137, 3946000
352065951490, 406212, 3946000
352141309407, 438114, 3946000
352213307949, 436281, 3936000
352283872636, 446520, 3936000
352353789042, 504289, 3936000
352422632428, 471740, 3930000
352494016074, 527138, 3930000
352578310917, 686001, 3930000
352743504667, 516253, 3913000
352871032324, 512049, 3913000
352970256647, 501271, 3931000
353001038105, 410415, 3931000
353042063469, 481440, 3931000
353080325657, 421193, 3931000
353121811542, 654746, 3931000
353159944719, 411600, 3915000
353201241647, 642675, 3915000
353241108313, 423564, 3915000
353283104719, 682983, 3915000
353323093209, 672745, 3915000
353381321126, 670913, 3915000
353419352167, 406751, 3928000
353463970342, 666710, 3928000
353501531750, 416990, 3928000
353548812114, 680613, 3928000
353584311854, 687187, 3928000
353621663937, 492865, 3928000
353664775083, 660781, 3916000
353700425240, 431432, 3916000
353742118989, 421193, 3916000
353792142167, 547615, 3916000
353823647166, 657117, 3916000
353859558416, 420654, 3916000
353902063573, 426042, 3913000
353942297687, 654746, 3913000
353983991750, 498254, 3913000
354023088781, 551172, 3913000
354060153521, 492218, 3913000
354121180656, 658302, 3913000
354183562843, 661968, 3928000
354232259562, 532526, 3928000
354286495968, 449538, 3928000
354347136593, 670374, 3928000
354406914979, 650542, 3912000
354464395135, 675224, 3912000
354512315812, 486829, 3912000
354566974718, 528970, 3912000
354612127114, 531988, 3912000
354662446437, 494050, 3912000
354717524666, 492865, 3912000
354765213416, 696887, 3912000
354820270448, 497068, 3912000
354885821697, 660135, 3912000
354944955656, 662506, 3911000
355001181906, 401900, 3911000
355066513937, 657117, 3911000
355122353416, 658302, 3911000
355179817895, 661968, 3926000
355242183208, 656471, 3926000
355295967531, 492218, 3926000
355352504823, 656471, 3926000
355406585603, 478422, 3928000
355448970187, 502457, 3928000
355505696906, 489847, 3928000
355579387009, 489847, 3928000
355624224614, 554190, 3928000
355687545812, 500086, 3925000
355751640031, 500086, 3925000
355802670135, 521102, 3925000
355855330760, 661320, 3925000
355913850447, 491032, 3928000
355968260082, 497606, 3928000
356025171489, 656471, 3928000
356071684613, 493403, 3928000
356123585498, 534359, 3928000
356173581593, 537377, 3925000
356223903624, 535544, 3925000
356274429353, 693222, 3925000
356320954561, 489847, 3925000
356373601280, 533173, 3925000
356424681176, 661320, 3926000
356471411384, 500086, 3926000
356524885499, 666710, 3926000
356571964718, 527138, 3926000
356635624196, 553651, 3926000
356701592895, 491032, 3915000
356754680655, 534359, 3915000
356816610394, 497068, 3915000
356874468467, 496421, 3915000
356940567634, 519917, 3918000
357007554978, 501811, 3918000
357071414978, 504827, 3918000
357127547269, 675762, 3918000
357254574978, 512049, 3926000
357384845707, 503642, 3926000
357515871280, 512049, 3932000
357646650655, 503104, 3931000
357775135030, 501811, 3931000
357903375082, 505475, 3930000
358033544978, 521102, 3930000
358161781020, 497606, 3930000
358279834665, 506014, 3930000
358344354873, 665524, 3930000
358395836748, 669189, 3913000
358445715446, 665524, 3913000
358495524353, 663692, 3913000
358558754613, 488015, 3913000
358618396436, 497068, 3913000
358678584299, 500624, 3923000
358738610809, 492865, 3923000
358798914664, 488661, 3923000
358859589977, 492865, 3923000
358920878727, 491032, 3912000
358980255758, 493403, 3912000
359041858571, 498793, 3912000
359101049665, 496421, 3912000
359164356644, 531341, 3913000
359230107269, 504827, 3913000
359311384665, 494589, 3913000
359449344195, 501271, 3921000
359572819769, 504827, 3921000
359629460966, 675224, 3921000
359701725498, 494050, 3911000
359761592790, 411600, 3911000
359844071331, 491572, 3911000
359912376435, 493403, 3923000
359994935237, 494589, 3923000
360062015810, 770283, 3923000
360126062893, 504289, 3923000
360196819404, 492865, 3926000
360257327633, 489847, 3926000
360345482893, 495882, 3926000
360415404560, 500624, 3927000
360485807789, 494050, 3927000
360578481122, 492218, 3927000
360637877685, 423564, 3927000
360705888935, 504827, 3925000
360766893779, 655285, 3925000
360834515133, 507845, 3925000
360892659768, 495236, 3925000
360980891383, 488661, 3916000
361061656904, 488015, 3916000
361123582060, 473573, 3916000
361199932164, 491572, 3908000
361277918466, 498793, 3908000
361332247058, 417636, 3908000
361375305966, 684170, 3908000
361442564716, 491572, 3920000
361493093570, 643321, 3920000
361536453101, 702815, 3920000
361604054507, 424857, 3920000
361671513778, 489200, 3923000
361728019819, 492218, 3923000
361792675757, 474758, 3923000
361853669820, 534359, 3923000
361914855392, 653560, 3915000
361979463257, 493403, 3915000
362047982423, 508492, 3915000
362123615340, 491572, 3915000
362186969767, 499439, 3926000
362258731903, 499439, 3926000
362306796642, 482626, 3926000
362354511122, 662506, 3926000
362439985444, 503642, 3923000
362503171226, 508492, 3923000
362539443830, 681152, 3923000
362599055184, 488661, 3923000
362633482684, 691391, 3923000
362670682320, 679427, 3906000
362710186539, 673931, 3906000
362742582059, 592128, 3906000
362781200809, 657117, 3906000
362813429090, 678780, 3906000
362857450392, 679966, 3906000
362893475028, 446520, 3906000
362938327319, 670913, 3908000
362979787788, 669727, 3908000
363012471799, 504827, 3908000
363058280705, 668002, 3908000
363114050028, 675762, 3908000
363159315600, 581242, 3907000
363200500184, 492865, 3907000
363240712528, 517546, 3907000
363281798934, 597516, 3907000
363339076017, 655932, 3907000
363397004611, 660781, 3910000
363456422215, 421193, 3910000
363503851174, 665524, 3910000
363544960444, 503642, 3910000
363603552736, 515713, 3910000
363641510080, 413972, 3910000
363682483361, 413433, 3917000
363722663153, 422378, 3917000
363762773205, 411600, 3917000
363802939247, 500086, 3917000
363841522528, 423564, 3917000
363882938465, 433263, 3917000
363921593360, 412786, 3912000
363962770859, 439299, 3912000
364002093100, 413433, 3912000
364044032319, 681798, 3912000
364094841589, 494589, 3912000
364149008047, 663692, 3910000
364209844454, 682445, 3910000
364276576121, 505475, 3910000
364337650079, 662506, 3910000
364398688620, 651081, 3911000
364459987162, 666171, 3911000
364506654818, 630604, 3911000
364565918673, 503642, 3911000
364614267527, 671559, 3911000
364665376693, 500624, 3911000
364713152996, 490385, 3911000
364754559141, 662506, 3911000
364813346850, 501271, 3911000
364862090340, 510325, 3911000
364932761694, 504289, 3908000
364972621746, 477130, 3908000
365028321745, 499439, 3908000
365083909610, 666171, 3908000
365142030027, 661320, 3908000
365190698256, 656471, 3913000
365252588725, 655932, 3913000
365300861329, 505475, 3913000
365351723569, 496421, 3913000
365402661121, 540934, 3907000
365464864298, 497606, 3907000
365506000860, 668541, 3907000
365572576329, 493403, 3907000
365628042318, 490385, 3907000
365672759819, 535006, 3922000
365735792683, 489200, 3922000
365776707579, 687834, 3922000
365823200808, 537377, 3922000
365873884298, 544598, 3922000
365924792787, 650542, 3921000
365971828308, 489200, 3921000
366025123152, 657764, 3921000
366072634037, 531341, 3921000
366136287995, 494589, 3921000
366201999246, 500624, 3921000
366254935756, 710036, 3921000
366314833464, 492218, 3921000
366376985131, 481979, 3921000
366435033100, 483164, 3921000
366499197526, 489847, 3921000
366559322577, 489847, 3921000
366617256276, 657117, 3921000
366679744192, 457298, 3923000
366749682890, 442856, 3923000
366824785859, 664985, 3923000
366889392474, 557854, 3923000
366949028776, 625861, 3910000
367007329922, 491032, 3910000
367055515182, 657117, 3910000
367105265963, 659488, 3910000
367155179245, 661968, 3906000
367205433411, 661968, 3906000
367255695599, 663692, 3906000
367305949245, 659488, 3906000
367389409348, 515066, 3916000
367453852265, 747974, 3916000
367503163724, 504827, 3916000
367553700182, 505475, 3916000
367601217474, 490385, 3916000
367659261640, 488661, 3923000
367746219765, 512049, 3923000
367832091797, 495236, 3923000
367897011901, 740214, 3908000
367932867370, 519270, 3908000
367998428880, 495236, 3908000
368069732682, 498254, 3908000
368132060078, 501271, 3908000
368191390755, 493403, 3911000
368272846172, 494589, 3911000
368343057578, 433802, 3911000
368410883880, 681798, 3922000
368481938411, 486829, 3922000
368541721745, 502457, 3922000
368624263099, 490385, 3922000
368684517838, 503642, 3923000
368741880234, 481979, 3923000
368802597474, 504289, 3923000
368875997942, 494050, 3923000
368950600912, 494050, 3906000
369017442265, 495236, 3906000
369081687370, 493403, 3906000
369142616276, 483164, 3906000
369214457940, 416990, 3907000
369308401691, 477130, 3907000
369396888150, 504827, 3923000
369485190442, 506014, 3923000
369549413254, 662506, 3923000
369626058358, 497068, 3923000
369687629452, 684170, 3922000
369734708827, 478961, 3922000
369803175233, 504827, 3922000
369867301691, 498793, 3922000
369950328723, 484351, 3925000
370039650649, 504827, 3925000
370084559035, 494050, 3925000
370154172942, 495236, 3906000
370221720390, 687834, 3906000
370261701327, 677595, 3906000
370317620025, 494589, 3906000
370407637577, 498793, 3922000
370465397681, 648064, 3922000
370529950493, 501271, 3922000
370598948566, 495882, 3922000
370667717889, 493403, 3923000
370737726066, 489200, 3923000
370807983306, 492218, 3923000
370855533931, 540394, 3923000
370944845493, 490385, 3922000
371084554764, 509032, 3922000
371218105024, 521749, 3925000
371318282993, 787097, 3925000
