484042226649, 299370, 4186000
484578388784, 198932, 4198000
485100299618, 119618, 4205000
485561752847, 120156, 4205000
485964050761, 115954, 4206000
486349834772, 117786, 4206000
486766031074, 121989, 4207000
487097900501, 114768, 4206000
487426781543, 112398, 4207000
487758261855, 108733, 4206000
488093758210, 115416, 4207000
488425377741, 115416, 4207000
488788254719, 122636, 4206000
489113478522, 109381, 4207000
489425754719, 118325, 4207000
489761115709, 111212, 4208000
490098538104, 128563, 4207000
490435878573, 104531, 4208000
490775500292, 115416, 4208000
491113484251, 114122, 4208000
491452973521, 115416, 4206000
491793333312, 109381, 4207000
492134011385, 109919, 4206000
492476843572, 120803, 4208000
492819726489, 121343, 4208000
493163667583, 113583, 4207000
493508993364, 114768, 4207000
493854687791, 112398, 4206000
494177238988, 125545, 4205000
494514433520, 114768, 4207000
494865501540, 111212, 4207000
495217724821, 107548, 4208000
495569935342, 111212, 4207000
495925831436, 117139, 4205000
496279607061, 114768, 4207000
496633312112, 111751, 4206000
497000386123, 109919, 4206000
497349953206, 105178, 4207000
497992054300, 125545, 4207000
498496704664, 105178, 4208000
498768606226, 109919, 4208000
499020882684, 117786, 4207000
499274146955, 112936, 4206000
499528394142, 121989, 4206000
499782495809, 115954, 4208000
500038170028, 120156, 4206000
500295623361, 111751, 4206000
500553583049, 113583, 4207000
500810790289, 108733, 4207000
501069430184, 112936, 4206000
501331191018, 114768, 4206000
501595285080, 109381, 4206000
501851353777, 110566, 4206000
502112390131, 108733, 4208000
502373310808, 111212, 4208000
502635119194, 107548, 4207000
502896876173, 120156, 4207000
503212726694, 115416, 4206000
503462756121, 103992, 4207000
503714335287, 111751, 4207000
504046518881, 155611, 4202000
504382750859, 190527, 4198000
504729188984, 241069, 4190000
505066370547, 302387, 4185000
505322316641, 304112, 4183000
505577426067, 312517, 4182000
505833972370, 316720, 4183000
506094313151, 311332, 4182000
506353881536, 306590, 4182000
506612461120, 317366, 4183000
506871375025, 302925, 4181000
507132005754, 306590, 4183000
507391873619, 307128, 4180000
507654487733, 314995, 4182000
507916714243, 295167, 4182000
508179642212, 307128, 4182000
508443132785, 302387, 4178000
508708575858, 314349, 4181000
508975150025, 307775, 4181000
509204613254, 328143, 4181000
509471288306, 317366, 4182000
509739858722, 304112, 4181000
510009605492, 299908, 4181000
510279647784, 302925, 4181000
510549907367, 314995, 4183000
510820741795, 292688, 4183000
511094966586, 309500, 4181000
511367623096, 317366, 4181000
511649052732, 295705, 4180000
511914327524, 307775, 4181000
512188964345, 313163, 4177000
512463967367, 316181, 4181000
512739761220, 313163, 4181000
513016440387, 304758, 4180000
513293627888, 308314, 4181000
513574398877, 318013, 4180000
513853258929, 301740, 4180000
514122084711, 310793, 4180000
514375698512, 305943, 4180000
514657736272, 305943, 4182000
514941804970, 312517, 4181000
515225314501, 311978, 4181000
515509509344, 302925, 4181000
515794947782, 306590, 4178000
516083139918, 302925, 4180000
516382637366, 307128, 4181000
516656239605, 304758, 4180000
516944389813, 314995, 4180000
517233877522, 302925, 4181000
517523213354, 319198, 4178000
517814619656, 310793, 4178000
518111545646, 318013, 4180000
518398292312, 310793, 4180000
518689986427, 305943, 4178000
518984040073, 315535, 4178000
519279165593, 302387, 4177000
519574733146, 320383, 4180000
519939413770, 314349, 4177000
520236576270, 313163, 4181000
520534039499, 308960, 4177000
520831836166, 314349, 4180000
521131791322, 307775, 4178000
521432113041, 304758, 4180000
521732100280, 313810, 4177000
522033596634, 306590, 4177000
522335096218, 313163, 4176000
522638027310, 306590, 4178000
522951557519, 299908, 4177000
523247324342, 320922, 4177000
523551678977, 308314, 4177000
524048451216, 314995, 4162000
