260462748091, 316935, 4185000
260913519960, 234710, 4197000
261426267732, 156689, 4205000
261782604437, 121235, 4210000
262140978864, 120049, 4208000
262480269645, 121881, 4207000
262821681260, 125437, 4210000
263193656416, 126084, 4210000
263484072666, 116385, 4208000
263773721624, 118217, 4211000
264064329488, 111643, 4208000
264369841051, 122420, 4210000
264653385113, 113475, 4210000
265012170270, 112829, 4207000
265287368082, 114660, 4207000
265582539280, 124791, 4210000
265882920894, 121881, 4208000
266165413810, 124791, 4207000
266441414071, 113475, 4210000
266740812456, 118863, 4208000
267050698967, 115847, 4210000
267340698134, 111643, 4208000
267640665009, 117032, 4210000
267941976154, 116385, 4210000
268244254800, 109273, 4211000
268547766205, 124252, 4211000
268852245633, 115847, 4208000
269156946465, 115200, 4210000
269461862872, 126084, 4208000
269767521934, 121881, 4208000
270074368601, 112829, 4210000
270391915268, 112829, 4210000
270691730789, 112829, 4210000
270999512974, 116385, 4210000
271268782662, 124791, 4207000
271584043340, 117032, 4210000
271894571569, 118863, 4211000
272252782038, 100867, 4210000
272581693392, 120049, 4211000
272909601777, 124252, 4211000
273243351308, 126084, 4210000
273598919589, 117032, 4210000
273960967974, 118217, 4210000
274332922453, 112829, 4210000
274701817297, 121235, 4211000
275045434849, 118863, 4211000
275423150057, 115200, 4211000
275759996151, 105070, 4210000
276098138859, 123605, 4211000
276453694171, 106255, 4210000
276796962712, 117678, 4210000
277231471775, 118217, 4210000
277563211098, 115847, 4211000
277903657140, 123067, 4211000
278244905890, 113475, 4208000
278584539692, 112182, 4210000
278921167242, 116385, 4210000
279260607920, 104423, 4211000
279611240524, 128455, 4211000
279955823284, 112829, 4208000
280291903597, 130825, 4207000
280703396618, 145265, 4205000
281121742764, 193329, 4196000
281577395419, 288701, 4190000
281935413179, 316397, 4186000
282278938700, 316397, 4187000
282631963336, 307990, 4187000
282948281512, 325987, 4181000
283300986096, 308529, 4186000
283646534846, 308529, 4186000
284006466096, 309177, 4188000
284403840678, 321138, 4186000
284758114741, 312194, 4187000
285122592345, 309715, 4187000
285490635939, 312194, 4186000
285838536772, 315750, 4185000
286190849949, 311008, 4186000
286558373386, 309177, 4185000
286933270625, 306159, 4186000
287291470573, 309715, 4186000
287647114740, 315212, 4186000
288018579792, 306805, 4185000
288377196302, 314564, 4186000
288751965105, 308529, 4186000
289110577501, 312732, 4185000
289549539374, 306805, 4186000
289915986874, 311008, 4185000
290582094374, 310362, 4186000
291091603802, 307990, 4182000
291359435259, 319414, 4182000
291619117499, 311008, 4185000
291875027343, 305512, 4185000
292157497186, 300770, 4185000
292424174738, 318767, 4187000
292723300780, 309177, 4183000
292983850103, 308529, 4185000
293251762446, 305512, 4183000
293522142603, 305512, 4183000
293799662289, 298939, 4182000
294065252186, 318767, 4182000
294367158071, 309177, 4183000
294650543173, 310362, 4183000
294923654893, 322324, 4185000
295253225206, 311547, 4185000
295658499059, 318767, 4183000
295976344580, 306805, 4183000
296246047237, 315212, 4183000
296508547080, 311008, 4185000
296773455310, 311008, 4183000
297046428695, 306805, 4186000
297308662965, 313918, 4185000
297574590257, 311008, 4183000
297850705934, 305512, 4183000
298102569111, 315750, 4185000
298353491351, 298939, 4183000
298636150309, 314564, 4185000
298900372392, 311547, 4182000
299171540049, 320599, 4182000
299443946923, 314564, 4183000
299713143538, 304327, 4182000
299982840568, 308529, 4183000
300272413016, 306159, 4183000
