530871624807, 289670, 4186000
531406518453, 199579, 4197000
531864136630, 125545, 4200000
532232842724, 118971, 4202000
532602325535, 125006, 4202000
532972189754, 120803, 4202000
533346009650, 130394, 4201000
533742958712, 108194, 4202000
534105781368, 101513, 4201000
534419088035, 121989, 4203000
534732998764, 115416, 4203000
535048425013, 102160, 4202000
535403986263, 105716, 4203000
535716633972, 109919, 4202000
536044735065, 110566, 4205000
536319967565, 125006, 4202000
536637793294, 117786, 4203000
536956201315, 120803, 4203000
537278745534, 109381, 4205000
537597940012, 114122, 4202000
537920789440, 116601, 4205000
538242441940, 106363, 4202000
538564472929, 113583, 4202000
538887673814, 121989, 4203000
539211457565, 114768, 4203000
539535905012, 103992, 4203000
539860862461, 110566, 4202000
540188019647, 112936, 4203000
540515172668, 101513, 4203000
540842150793, 111212, 4202000
541152240012, 129748, 4202000
541462289126, 112936, 4202000
541791042095, 111212, 4203000
542122567980, 113583, 4203000
542453378136, 115954, 4203000
542784352095, 114768, 4203000
543117081104, 117786, 4203000
543449848031, 109919, 4203000
543783822198, 109919, 4203000
544119510687, 114122, 4203000
544455547719, 114768, 4203000
544792947146, 121343, 4203000
545132307719, 109381, 4202000
545471580739, 114122, 4203000
545811896624, 109381, 4205000
546154532405, 118325, 4205000
546494833811, 107548, 4203000
546836296780, 124360, 4205000
547179282769, 117139, 4205000
547523046311, 108194, 4203000
547867174957, 104531, 4205000
548212160790, 119618, 4205000
548557936258, 119618, 4202000
548903551571, 102160, 4202000
549253591623, 109381, 4202000
549603002196, 110566, 4203000
549951323863, 112936, 4203000
550302567821, 123174, 4202000
550695566205, 100328, 4202000
551132053133, 169513, 4195000
551594828549, 247642, 4191000
552050798445, 306590, 4182000
552606447924, 314995, 4181000
553124297924, 310793, 4181000
553419062610, 305297, 4180000
553679715579, 308314, 4178000
553934708548, 310146, 4181000
554183441621, 319198, 4178000
554438558808, 310793, 4181000
554691427455, 297538, 4180000
554945856881, 314995, 4180000
555202647819, 305943, 4177000
555459142870, 313810, 4180000
555716005110, 307128, 4178000
555975829170, 318013, 4178000
556199292661, 314349, 4176000
556457043495, 308314, 4176000
556715937714, 316720, 4180000
556976394016, 308960, 4176000
557237377297, 306590, 4178000
557501448183, 313810, 4177000
557815944745, 313163, 4177000
558070726047, 318013, 4180000
558320787818, 311978, 4177000
558570801723, 313810, 4177000
558821683546, 298723, 4177000
559073484223, 307775, 4176000
559325083390, 307128, 4177000
559579696566, 304112, 4177000
559834722244, 310793, 4177000
560089913077, 307775, 4176000
560348608181, 311332, 4177000
560605756410, 307128, 4177000
560863942348, 307128, 4177000
561112873286, 303573, 4176000
561343327816, 304758, 4175000
561603134431, 299908, 4178000
561863846514, 309500, 4177000
562125340785, 316181, 4177000
562387600211, 318013, 4177000
562651788285, 304758, 4175000
562915264639, 313163, 4177000
563179428909, 304758, 4177000
563445279587, 311332, 4176000
563711560785, 302387, 4177000
563978985263, 307128, 4177000
564247301252, 304758, 4176000
564516294013, 313163, 4177000
564785879690, 313810, 4177000
565055741096, 314349, 4176000
565326570523, 320383, 4176000
565598659742, 317366, 4177000
565870940784, 307128, 4176000
566147348492, 308314, 4176000
566422331929, 310793, 4177000
566698964949, 313810, 4175000
566974586564, 304758, 4175000
567251299377, 314995, 4178000
567528368439, 301094, 4175000
567806476147, 307128, 4176000
568086057032, 304758, 4176000
568443628751, 305943, 4170000
568746916772, 302387, 4176000
569052754427, 315535, 4177000
569360984740, 316720, 4176000
569661886146, 309500, 4176000
569961660574, 307128, 4176000
570259440260, 313810, 4176000
570546635104, 311978, 4177000
571145737604, 807373, 4158000
