255077796546, 471386, 4235000
255136801858, 277892, 4235000
255196070608, 333951, 4195000
255353937795, 347496, 4195000
255488798524, 348746, 4200000
255576195868, 285916, 4200000
255660676077, 272995, 4200000
255716659514, 185469, 4218000
255793702951, 183594, 4218000
255845869774, 197765, 4218000
255906477795, 201516, 4218000
255962624462, 414078, 4206000
256003698316, 197765, 4206000
256063415243, 399282, 4206000
256111876129, 425853, 4206000
256154267326, 191618, 4206000
256211392275, 190367, 4201000
256275868212, 190992, 4201000
256335106389, 190367, 4201000
256412144462, 192242, 4201000
256465407951, 198390, 4210000
256521464566, 188491, 4210000
256585887430, 514524, 4210000
256630718577, 197765, 4210000
256713076649, 199015, 4218000
256812946701, 430750, 4218000
256895101233, 181094, 4218000
256970796806, 284665, 4220000
257025706857, 191618, 4220000
257104490764, 189117, 4220000
257183594149, 278518, 4221000
257253757118, 419704, 4221000
257318436753, 275392, 4221000
257382298524, 184219, 4221000
257458974930, 186721, 4221000
257541984983, 187971, 4221000
257618942847, 192868, 4221000
257695712587, 281019, 4206000
257758884513, 261846, 4206000
257808779305, 192242, 4206000
257866159514, 258825, 4206000
257958433575, 199015, 4220000
258053293419, 218084, 4220000
258131338315, 201516, 4220000
258199445242, 326552, 4217000
258309123158, 314882, 4217000
258462057899, 325406, 4222000
258615839200, 328428, 4222000
258769129044, 323531, 4221000
258922718888, 330303, 4225000
259075703784, 398136, 4225000
259230283576, 306234, 4222000
259362963888, 317383, 4222000
259517143471, 322280, 4222000
259671855867, 313632, 4223000
259826746231, 313632, 4223000
259982221076, 314882, 4225000
260054330138, 186095, 4225000
260143084982, 259449, 4225000
260234539304, 181094, 4218000
260326968523, 187345, 4218000
260403753940, 189742, 4218000
260485613783, 244028, 4220000
260563124252, 183594, 4220000
260641157950, 178072, 4220000
260706323106, 182344, 4203000
260786458262, 187971, 4203000
260863787845, 183594, 4203000
260927357168, 251426, 4203000
260995969303, 173695, 4216000
261084817272, 254448, 4216000
261156306595, 182969, 4216000
261234855501, 179322, 4218000
261324580033, 262471, 4218000
261407625866, 415329, 4218000
261476589095, 404909, 4201000
261545310293, 179948, 4201000
261598612793, 181094, 4201000
261678098209, 252052, 4201000
261747776855, 335826, 4218000
261826378418, 180572, 4218000
261905719616, 184219, 4218000
261985722845, 182969, 4222000
262065329408, 176821, 4222000
262144987376, 184219, 4222000
262224623731, 173175, 4221000
262304787168, 178072, 4221000
262384924564, 183594, 4221000
262465052168, 182969, 4203000
262545360397, 184845, 4203000
262638642845, 183594, 4203000
262721415710, 190367, 4202000
262802141647, 181718, 4202000
262880537898, 264347, 4202000
262979645501, 182969, 4221000
263060655762, 184219, 4221000
263141430239, 182344, 4221000
263222742896, 181718, 4202000
263291238938, 253302, 4202000
263366833105, 269244, 4202000
263445007636, 194118, 4202000
263527032896, 184219, 4222000
263608799354, 187345, 4222000
263690847845, 192242, 4222000
263787735240, 193492, 4223000
263871810813, 177447, 4223000
263928210865, 187345, 4223000
264002481230, 263096, 4202000
264075503313, 311236, 4202000
264136648729, 262471, 4202000
264223546855, 253823, 4201000
264295290657, 253823, 4201000
264356958209, 252052, 4201000
264440000656, 243403, 4217000
264541010969, 184845, 4217000
264627199563, 182969, 4217000
264710086699, 182344, 4201000
264792778209, 189742, 4201000
264884978052, 201516, 4201000
264979397427, 182969, 4203000
265062863782, 182969, 4203000
265146522375, 184219, 4203000
265230515449, 184845, 4203000
265314548938, 184845, 4203000
265466551438, 341348, 4206000
265605772167, 334576, 4206000
265745505916, 260595, 4220000
265885341749, 266848, 4220000
266025846541, 261846, 4218000
266171295396, 285916, 4218000
266317054562, 330303, 4207000
266459817687, 322280, 4207000
266601457635, 328428, 4217000
266743965135, 327803, 4217000
266885705135, 343224, 4217000
267028916697, 337702, 4220000
267171222531, 256949, 4220000
267314735447, 324782, 4213000
267457264822, 318009, 4213000
267601698937, 336452, 4218000
267745790656, 348121, 4220000
267889352426, 327803, 4220000
268033439197, 351247, 4216000
268177759770, 338326, 4216000
268323921020, 263096, 4207000
268469401175, 328428, 4203000
268614618467, 327803, 4203000
268760275811, 345099, 4220000
268906953467, 342599, 4220000
269054780290, 334576, 4218000
269200897061, 346975, 4218000
269348417894, 353123, 4217000
269494832373, 272370, 4220000
269643375655, 339577, 4220000
269790625290, 342599, 4217000
269938458623, 345099, 4217000
270086965498, 351872, 4218000
270236580498, 345725, 4213000
270385873571, 322906, 4213000
270543198884, 258825, 4215000
270717001279, 342599, 4215000
270867300081, 304984, 4218000
271018664975, 321030, 4218000
271169701643, 337702, 4218000
271325673206, 343224, 4217000
271499359039, 340202, 4216000
271655671227, 266848, 4216000
271830110081, 346975, 4217000
271951135237, 260075, 4217000
272109177008, 326552, 4216000
272261401539, 340202, 4213000
272413747268, 342599, 4213000
272568013414, 343849, 4220000
272720822581, 325406, 4220000
272875903310, 277892, 4207000
273029953778, 311756, 4220000
273183563570, 318529, 4220000
273337990810, 333325, 4218000
273494489508, 329679, 4208000
273650103570, 327803, 4208000
273804628049, 337702, 4217000
273961167163, 269869, 4217000
274116653882, 328428, 4217000
274273170080, 325928, 4210000
274429103934, 321030, 4210000
274552270132, 420851, 4217000
274635893621, 253302, 4217000
274733017111, 246425, 4215000
274841600132, 248925, 4215000
274904634871, 261846, 4215000
274995500288, 277892, 4197000
275081774299, 189742, 4197000
275186102267, 280393, 4197000
275342344872, 298211, 4210000
275525205601, 470762, 4206000
275689001277, 353123, 4206000
275856470027, 367293, 4202000
276023475861, 393759, 4198000
276167825809, 422102, 4198000
276335957162, 520151, 4191000
276498897214, 542970, 4176000
276660813725, 531196, 4176000
276821493569, 518275, 4190000
276983394923, 532446, 4190000
277157605235, 463363, 4183000
277260079454, 459716, 4187000
277413860027, 539844, 4187000
277600079871, 525048, 4186000
277763875652, 529320, 4190000
277928306120, 528695, 4190000
278117102058, 520151, 4186000
278278805287, 462217, 4187000
278403854610, 619347, 4187000
278491474402, 382715, 4187000
278597072995, 475763, 4171000
278708289766, 476388, 4171000
278833095704, 621847, 4185000
278946059453, 470762, 4185000
279057644557, 468364, 4173000
279147777838, 471386, 4173000
279244322942, 462843, 4173000
279358397838, 462217, 4166000
279471778828, 406680, 4166000
279565725286, 383340, 4181000
279674128359, 491809, 4181000
279768257213, 454194, 4176000
279835774244, 466489, 4176000
279957947890, 446170, 4176000
280065790755, 485036, 4167000
280225073463, 522547, 4167000
280417916484, 495456, 4185000
280588555754, 523173, 4185000
280759083359, 525673, 4173000
280929157942, 486807, 4173000
281106722265, 477013, 4186000
281281771380, 502854, 4187000
281478247212, 525673, 4187000
282031807994, 594026, 4163000
282193541275, 465239, 4163000
282271735650, 448671, 4181000
282354089087, 465864, 4181000
282435114921, 391259, 4181000
282510242629, 464613, 4180000
282593086014, 446170, 4180000
282652614400, 380214, 4180000
282733207369, 456070, 4180000
282792902629, 391884, 4171000
282873159191, 460967, 4171000
282933374921, 369169, 4171000
283013800702, 478785, 4178000
283074552525, 384486, 4178000
283154737160, 488057, 4178000
283215729400, 393759, 4178000
283273890233, 597777, 4165000
283324895910, 596527, 4165000
283417315024, 477638, 4165000
283507144504, 471386, 4165000
283596306014, 471386, 4176000
283663686483, 465864, 4176000
283796065077, 469615, 4173000
283908316326, 467740, 4173000
283998519816, 474513, 4173000
284088757471, 473262, 4181000
284179341117, 466489, 4181000
284270072524, 466489, 4171000
284360883826, 478785, 4171000
284451794139, 456590, 4171000
284542847993, 468990, 4182000
284634275805, 515149, 4182000
284725692263, 478785, 4182000
284763598878, 389487, 4182000
284862110388, 470240, 4163000
284926213409, 384486, 4163000
284981703461, 384486, 4163000
285042817472, 383861, 4167000
285101519399, 384486, 4167000
285162795909, 382715, 4167000
285221634295, 387612, 4167000
285282954920, 393135, 4162000
285341975336, 391259, 4162000
285432799659, 475763, 4162000
285526066742, 472637, 4182000
285615728357, 378963, 4182000
285697654398, 384486, 4182000
285774859972, 396260, 4165000
285838825596, 627994, 4165000
285907937836, 486182, 4165000
285951772836, 384486, 4165000
286014297315, 443670, 4165000
286104479347, 477013, 4171000
286196369867, 390113, 4171000
286278067471, 386986, 4168000
286356342055, 386362, 4168000
286434356378, 392509, 4168000
286498325596, 383340, 4168000
286573948513, 485036, 4162000
286627488305, 391259, 4162000
286707728512, 385112, 4162000
286786364137, 385112, 4165000
286865085908, 393135, 4165000
286936492523, 619347, 4165000
287007745856, 396886, 4165000
287085990752, 486807, 4185000
287164197002, 390737, 4185000
287227476012, 455444, 4185000
287296253304, 386986, 4181000
287376832835, 395635, 4181000
287455591481, 386362, 4181000
287534407887, 388862, 4165000
287613241117, 396260, 4165000
287689266689, 461592, 4165000
287748809033, 393135, 4165000
287835052523, 462217, 4177000
287907730387, 388237, 4177000
287995533825, 398136, 4177000
288081460075, 386362, 4165000
288160647158, 373442, 4165000
288239750699, 386986, 4165000
288319747418, 383861, 4180000
288399395699, 401158, 4180000
288459597314, 462843, 4180000
288554852366, 537969, 4177000
288637940804, 397510, 4177000
288757978460, 521922, 4177000
288889452210, 534947, 4180000
289030912315, 472637, 4175000
289161739294, 528174, 4175000
289290685596, 534321, 4182000
289359799395, 473262, 4182000
289479207001, 541720, 4182000
289611104293, 549743, 4181000
289743037574, 539219, 4181000
289875403511, 518900, 4171000
290007791115, 533071, 4171000
290147609761, 473887, 4180000
290283679084, 469615, 4165000
290417034084, 536093, 4165000
290572508355, 542970, 4182000
290744486324, 548493, 4182000
290901114605, 526298, 4183000
291034039240, 550263, 4165000
291105843719, 386362, 4165000
291187775855, 392509, 4165000
291278036584, 386362, 4165000
291369135646, 386362, 4178000
291492805959, 523173, 4178000
291628461584, 545366, 4180000
291764323355, 538593, 4180000
291900715699, 533696, 4178000
292052538406, 544741, 4181000
292212741427, 529320, 4181000
292349627468, 470240, 4175000
292486929812, 512753, 4175000
292624866687, 549117, 4181000
292763217990, 555890, 4181000
292901149761, 538593, 4178000
293063280646, 533696, 4177000
293225324708, 536717, 4177000
293363048354, 526298, 4181000
293437208718, 394385, 4181000
293529652885, 465864, 4181000
293613892417, 613198, 4182000
293772095646, 510877, 4180000
293879219187, 479410, 4180000
293964138719, 476388, 4180000
294049162520, 480035, 4170000
294134888771, 470240, 4170000
294220128667, 481910, 4170000
294305714396, 486182, 4171000
294340928823, 387612, 4171000
294422509135, 473262, 4171000
294485767885, 398136, 4171000
294570410593, 479410, 4177000
294633462259, 610073, 4177000
294675599759, 377713, 4177000
294754710645, 483786, 4177000
294815011218, 385736, 4166000
294873362312, 632891, 4166000
294915874707, 384486, 4166000
294970601426, 387612, 4166000
295034034707, 615595, 4166000
295173965905, 704371, 4171000
