798356108587, 235579, 3965000
798975993431, 127362, 3976000
799497397650, 132876, 3975000
800025081504, 117477, 3976000
800484287129, 124240, 3978000
800859059993, 132876, 3977000
801208521660, 133501, 3976000
801558124732, 126113, 3977000
801908333742, 119246, 3977000
802404208847, 122367, 3978000
802855740461, 116853, 3980000
803326229940, 132876, 3976000
803756473794, 122367, 3977000
804199032647, 119246, 3981000
804643396971, 132876, 3978000
805083667127, 122992, 3980000
805528440981, 113106, 3978000
805971589367, 130379, 3978000
806416997127, 120494, 3980000
806865736397, 113731, 3978000
807308813428, 129131, 3978000
807758015928, 122992, 3978000
808341121032, 133501, 3980000
808799309782, 120494, 3978000
809246499988, 128611, 3977000
809701790667, 119246, 3980000
810180284313, 125489, 3980000
810913749156, 119246, 3980000
811394495771, 130379, 3978000
811734426031, 130379, 3980000
812075588791, 121118, 3978000
812417600509, 118101, 3978000
812756736499, 111857, 3978000
813103083999, 119870, 3978000
813444424520, 123616, 3980000
813786009624, 131004, 3977000
814132839468, 118621, 3981000
814482359778, 131628, 3978000
814830786134, 133501, 3980000
815175545977, 131004, 3980000
815525226654, 116853, 3980000
815879632852, 110609, 3977000
816226306289, 131628, 3980000
816568884987, 126113, 3978000
816925112800, 131004, 3980000
817267257799, 137247, 3980000
817654402382, 131004, 3978000
818068408892, 179285, 3972000
818535250559, 249730, 3962000
818968184517, 336928, 3950000
819326602851, 336928, 3946000
819677114986, 332661, 3947000
820028545610, 329540, 3946000
820385454517, 330789, 3947000
820742243944, 336303, 3948000
821101570246, 341922, 3946000
821465740558, 335679, 3947000
821816082954, 333182, 3946000
822176563110, 340050, 3947000
822537887901, 342547, 3945000
822898186755, 335679, 3947000
823208698005, 353680, 3945000
823573711130, 333182, 3946000
823938423161, 343692, 3947000
824302724620, 321528, 3946000
824667715088, 326418, 3946000
825034022223, 325794, 3946000
825397731233, 335055, 3946000
825766802171, 333182, 3945000
826136874983, 339425, 3946000
826502112432, 341922, 3946000
826874064463, 320903, 3943000
827248992952, 336928, 3945000
827618870920, 320279, 3945000
827993313681, 336303, 3946000
828314320191, 354825, 3942000
828691147066, 326418, 3945000
829069281232, 338177, 3946000
829447817118, 328292, 3945000
829823590920, 344315, 3943000
830204930918, 338801, 3946000
830586372065, 337553, 3945000
830964243679, 356698, 3943000
831346597638, 338801, 3945000
831731678263, 332661, 3942000
832114187690, 333182, 3943000
832501238627, 319655, 3945000
832887730501, 340050, 3943000
833273238731, 344315, 3945000
833661789824, 335055, 3945000
834052871231, 332038, 3943000
834444965710, 343171, 3942000
834837397897, 332038, 3943000
835229950501, 332038, 3943000
835630164719, 338801, 3943000
836015479823, 332038, 3943000
836412153261, 333806, 3945000
836804607584, 341922, 3945000
837202908313, 334431, 3943000
837615991698, 333182, 3926000
