537323609000, 302173, 3958000
537872791656, 128507, 3985000
538270385302, 134750, 3985000
538663183219, 122992, 3986000
539062623479, 117372, 3983000
539463690457, 116124, 3986000
539764286916, 121118, 3986000
540029243113, 117372, 3986000
540294670249, 129755, 3985000
540561222853, 114875, 3985000
540827628582, 126010, 3988000
541124828009, 116749, 3987000
541510950926, 134125, 3985000
541894435039, 187193, 3975000
542194000717, 122992, 3983000
542531682957, 110609, 3987000
542872024779, 121743, 3987000
543209574779, 103221, 3986000
543555704571, 109360, 3987000
543892000092, 112482, 3987000
544234696758, 114875, 3988000
544578113529, 111234, 3988000
544922921810, 110609, 3988000
545264932122, 109360, 3987000
545611983945, 126010, 3988000
545959344361, 107488, 3987000
546309389413, 108736, 3987000
546656580663, 108112, 3988000
547008216080, 103742, 3986000
547308745142, 132876, 3986000
547659271652, 113106, 3987000
548011727694, 121118, 3988000
548366246183, 109985, 3987000
548717442798, 116749, 3986000
549073746965, 121743, 3987000
549437349308, 108736, 3988000
549788869254, 108736, 3990000
550144955818, 124240, 3988000
550506059516, 121118, 3990000
550867828838, 113731, 3987000
551226811599, 116124, 3987000
551598693370, 115500, 3988000
551955849932, 105614, 3988000
552318010297, 121743, 3988000
552685306442, 124240, 3990000
553059858837, 114875, 3990000
553415541754, 103742, 3988000
553786081546, 105614, 3988000
554160650453, 103221, 3988000
554531766650, 121743, 3990000
554909591858, 115500, 3987000
555287102795, 125385, 3988000
555649262118, 114251, 3988000
556024907326, 117372, 3987000
556409936128, 121743, 3987000
556819330451, 139016, 3986000
557321626129, 210710, 3977000
557824129825, 293537, 3963000
558223161648, 333702, 3956000
558606336544, 335575, 3957000
558987865710, 327563, 3956000
559374173002, 342443, 3957000
559759381075, 326939, 3955000
560143887117, 326314, 3956000
560532662429, 325690, 3957000
560921101700, 336200, 3953000
561306409980, 338072, 3957000
561695545866, 328811, 3956000
562077883574, 337449, 3953000
562424563783, 351704, 3955000
562816448418, 326939, 3953000
563212400396, 327563, 3953000
563605107688, 325690, 3955000
564004188886, 325066, 3955000
564398996229, 328811, 3953000
564794501854, 323192, 3953000
565195809667, 336824, 3955000
565597701593, 326314, 3953000
565993771958, 323192, 3953000
566397318989, 324442, 3953000
566812125968, 336200, 3951000
567172282531, 342963, 3951000
567560588260, 326939, 3952000
567966874562, 333702, 3953000
568371746905, 330060, 3952000
568790346957, 338072, 3952000
569188619196, 328811, 3953000
569598320758, 328188, 3952000
570009990237, 335575, 3953000
570419159821, 340570, 3952000
570832412008, 335575, 3953000
571247394820, 329436, 3952000
571659717320, 321424, 3951000
572075968779, 330685, 3952000
572493850966, 313932, 3952000
572908277945, 331309, 3952000
573327937788, 328811, 3953000
573746145236, 327563, 3952000
574180230913, 315805, 3951000
574591692372, 330060, 3950000
575013181382, 325066, 3952000
575437227319, 334951, 3952000
575862231642, 329436, 3951000
576284969662, 329436, 3951000
577405816537, 320175, 3938000
