31201960139861, 1958400
31232396060006, 300000
31262943040775, 883200
31323284689138, 1267200
31354082816365, 300000
31384668346718, 883200
31414938116342, 1267200
31445202914248, 1958400
31476111532569, 300000
31506946551463, 883200
31537229202805, 1267200
31567433750815, 1958400
31598066329345, 300000
31628753185063, 883200
31659028303540, 1267200
31689256384102, 1958400
31720022221018, 300000
31750903430485, 883200
31781161662869, 1267200
31811371185046, 1958400
31841808011387, 300000
31872537559866, 883200
31902820625896, 1267200
31933061783540, 1958400
31963576062747, 300000
31994266178934, 883200
32024525721527, 1267200
32054696044171, 1958400
32085455426763, 300000
32117037161803, 883200
32147343835230, 1267200
32177583176416, 1958400
32208373522132, 300000
32239185379934, 883200
32269476859401, 1267200
32299659721942, 1958400
32330146800628, 300000
32360797605616, 883200
32391095746595, 1267200
32421362261844, 1958400
32452232091363, 300000
32483114851664, 883200
32513329342746, 1267200
32543529463516, 1958400
32574337330275, 300000
32605197929950, 883200
32635462686763, 1267200
32665672239980, 1958400
32696482943197, 300000
32727391758550, 883200
32757701299216, 1267200
32787916475870, 1958400
32818847472630, 300000
32849737838399, 883200
32880032598387, 1267200
32910235530928, 1958400
32941167341437, 300000
32971947162727, 883200
33002212224123, 1267200
33032358843173, 1958400
33063015800296, 300000
33093726058879, 883200
33124047241627, 1267200
33154215753335, 1958400
33185491186240, 300000
33216645703520, 883200
33246934325695, 1267200
33277106105944, 1958400
33307686668693, 300000
33338365566650, 883200
33368605217055, 1267200
33398749071522, 1958400
33429372770678, 300000
33460238788583, 883200
33490562768207, 883200
33520860516321, 1958400
33551642196309, 300000
33582201073224, 883200
33612496310712, 1267200
33642735961325, 1958400
33673179439856, 300000
33703944430938, 883200
33734261232801, 1267200
33764466717165, 1958400
