795531716271, 272504, 3856000
796055283875, 209610, 3865000
796541414709, 128576, 3873000
796937197625, 122297, 3873000
797304926531, 116716, 3872000
797684877208, 125187, 3873000
798061863406, 117811, 3875000
798423874916, 108741, 3873000
798748733509, 117214, 3873000
799068970853, 121201, 3875000
799391297260, 120603, 3875000
799712781218, 119506, 3875000
800094316947, 121201, 3873000
800401257571, 113326, 3873000
800714316634, 114423, 3875000
801046388300, 121799, 3872000
801324942936, 125785, 3875000
801650676842, 120603, 3873000
801979141946, 128576, 3873000
802311059134, 112131, 3875000
802640215436, 121201, 3872000
802971849551, 113326, 3873000
803302328039, 117811, 3873000
803633236372, 113326, 3875000
803980523977, 115519, 3875000
804303696737, 117214, 3875000
804636086268, 113326, 3875000
804981170435, 122895, 3873000
805311169341, 113825, 3873000
805701218923, 121201, 3866000
806060791320, 111034, 3873000
806336492934, 131367, 3873000
806677398402, 113326, 3872000
807019975850, 105951, 3872000
807357869808, 116716, 3875000
807697743142, 107047, 3873000
808042023611, 108143, 3876000
808382744391, 117214, 3872000
808725669808, 113326, 3872000
809072004704, 123493, 3875000
809416390381, 99671, 3875000
809761594756, 118908, 3876000
810109466786, 113326, 3873000
810456215953, 114423, 3875000
810802396527, 115021, 3876000
811176957567, 121201, 3875000
811508060379, 113326, 3873000
811860963818, 115519, 3875000
812209858869, 128576, 3873000
812562227932, 99073, 3873000
812913248869, 116117, 3872000
813269285379, 103658, 3875000
813622194598, 125785, 3876000
813979456524, 112728, 3873000
814335044962, 130271, 3873000
814693404598, 112131, 3875000
815053409598, 126882, 3873000
815471746525, 147813, 3870000
815947847670, 197749, 3865000
816423164440, 269114, 3856000
816806335378, 315561, 3846000
817169041419, 312173, 3847000
817537190846, 313269, 3850000
817899923450, 298618, 3850000
818263341107, 323535, 3847000
818627415325, 320147, 3847000
818991189387, 314465, 3846000
819357901991, 309382, 3847000
819732744648, 313867, 3847000
820088550949, 309881, 3847000
820457413085, 309881, 3848000
820851555429, 309382, 3847000
821167293658, 327522, 3845000
821523457563, 323535, 3846000
821893623136, 317256, 3846000
822267385740, 318452, 3846000
822640766574, 314964, 3846000
823012427772, 312771, 3843000
823425462563, 349051, 3840000
823793582719, 314465, 3845000
824187034229, 312173, 3846000
824580742719, 318951, 3845000
825000895010, 308784, 3845000
825636537458, 321242, 3845000
826171744854, 309881, 3845000
826473671468, 318452, 3845000
826773176051, 312173, 3843000
827060575426, 319549, 3845000
827351794384, 321242, 3846000
827639642873, 322339, 3846000
827937685217, 313269, 3843000
828303460634, 312771, 3846000
828598542509, 334300, 3843000
828897520842, 318951, 3845000
829195631624, 314465, 3845000
829491737508, 322339, 3842000
829787866258, 307687, 3843000
830086355164, 317854, 3843000
830388519904, 324034, 3845000
830746901987, 315561, 3845000
831037218706, 317256, 3845000
831315697456, 302505, 3843000
831614026779, 314964, 3846000
831901633443, 324632, 3843000
832188205007, 309881, 3845000
832475399903, 312771, 3845000
832768462194, 314465, 3845000
833063163653, 314465, 3843000
833352012611, 324034, 3843000
833650497872, 302505, 3842000
833947474642, 323535, 3843000
834245587507, 314465, 3843000
834543073965, 312173, 3843000
834848368808, 317854, 3843000
835134336621, 324632, 3842000
835744180892, 443641, 3833000
