600528489487, 220965, 4241000
601125233029, 135719, 4251000
601604761102, 129549, 4252000
602085041727, 122147, 4252000
602579939226, 126073, 4251000
602996018706, 121811, 4252000
603318544018, 123044, 4251000
603642522560, 126745, 4253000
603969838184, 116314, 4250000
604368298497, 102743, 4253000
604818816570, 115641, 4252000
605187989903, 126745, 4252000
605591454018, 110706, 4252000
605999109588, 121249, 4252000
606407817142, 113174, 4255000
606816862663, 100274, 4253000
607227455423, 99714, 4252000
607650254434, 114407, 4252000
608052893757, 120016, 4253000
608465728079, 117548, 4252000
608890427610, 120016, 4253000
609294500474, 112612, 4251000
609709488964, 107678, 4251000
610112384225, 117548, 4250000
610495793651, 100836, 4251000
610913984797, 111940, 4253000
611333489796, 123044, 4253000
611753672713, 116314, 4252000
612174365890, 121249, 4253000
612596573598, 111940, 4252000
613019606827, 109473, 4252000
613443551150, 117548, 4253000
613871024587, 104537, 4255000
614297646670, 112612, 4252000
614726480108, 110706, 4252000
615154930056, 111379, 4252000
615583819379, 112612, 4252000
616015655056, 111940, 4252000
616446378544, 113847, 4255000
616878006825, 112612, 4253000
617311210628, 117548, 4252000
617744652190, 111379, 4252000
618178605731, 119343, 4255000
618614167711, 123044, 4253000
619068579637, 111379, 4253000
619779520678, 121249, 4251000
620217870991, 147048, 4248000
620628687345, 209860, 4241000
621124538804, 278168, 4218000
621379744324, 332905, 4227000
621701994897, 325502, 4228000
622024388595, 318772, 4231000
622348020834, 316305, 4228000
622672566980, 318772, 4227000
622997386198, 321240, 4230000
623324449063, 312604, 4228000
623653057501, 328643, 4227000
623983911719, 321913, 4227000
624313257239, 320679, 4228000
624652278958, 322474, 4228000
624977052760, 316978, 4227000
625242601458, 324942, 4223000
625705145885, 315071, 4228000
626043768333, 327970, 4228000
626385380624, 320679, 4230000
626717164791, 315744, 4227000
627055773124, 318212, 4228000
627397105676, 315744, 4228000
627738298488, 307108, 4228000
628086603644, 310809, 4228000
628425752655, 325502, 4226000
628769863904, 318772, 4226000
629107988019, 321240, 4227000
629448737134, 324942, 4226000
629787335987, 308902, 4227000
630114692394, 310809, 4225000
630499318122, 321913, 4228000
630839327862, 316305, 4228000
631191482550, 316978, 4227000
631533670571, 323147, 4227000
631877838435, 302172, 4230000
632222818017, 313276, 4227000
632568626403, 324380, 4227000
632919273851, 321240, 4227000
633266710674, 315744, 4227000
633615684632, 315071, 4226000
633968793850, 326175, 4227000
634320428122, 313837, 4228000
634672798382, 311369, 4227000
635026333485, 314510, 4226000
635388560048, 318772, 4227000
635736395777, 315744, 4226000
636093087756, 324942, 4226000
636457681037, 316978, 4227000
636807781402, 314510, 4226000
637165314683, 317539, 4226000
637525173745, 312042, 4226000
637885775568, 318212, 4225000
638247725828, 315071, 4226000
638611470203, 324380, 4226000
638975950724, 306434, 4227000
639342151141, 323147, 4226000
639708126921, 322474, 4226000
640377449004, 406822, 4218000
