773018028597, 712498, 4133000
773211576618, 507022, 4140000
773275593805, 485453, 4140000
773393145941, 610073, 4140000
773491789795, 306546, 4158000
773685993909, 364584, 4160000
773779599899, 471282, 4160000
773871255524, 329991, 4160000
773981559743, 310923, 4163000
774070166253, 293626, 4163000
774180069847, 276955, 4163000
774298626253, 267056, 4181000
774411755784, 273204, 4181000
774515691357, 260284, 4173000
774640422660, 259033, 4173000
774823324586, 320092, 4185000
775048933232, 376254, 4172000
775207593284, 267056, 4187000
775330527191, 259658, 4187000
775429674846, 362083, 4187000
775550512347, 358333, 4176000
775737628388, 322593, 4178000
775913047190, 358333, 4178000
776089758075, 288000, 4185000
776201809950, 444087, 4171000
776380738179, 320718, 4171000
776551078752, 329991, 4187000
776725189169, 327491, 4188000
776897608179, 338639, 4188000
777071141356, 281227, 4175000
777244955991, 274454, 4188000
777417597502, 303525, 4188000
777591295106, 324469, 4188000
777764661877, 316445, 4188000
777939037345, 258408, 4188000
778006578960, 189950, 4172000
778110206356, 426894, 4172000
778293862189, 267056, 4188000
778469411564, 336763, 4187000
778645273647, 333117, 4187000
779340735783, 336763, 4186000
779429577292, 267681, 4186000
779520170887, 286853, 4187000
779610810522, 273204, 4187000
779701100730, 270807, 4187000
779791245574, 283728, 4186000
779882160887, 278831, 4186000
779972937970, 265805, 4186000
780063963126, 292376, 4186000
780155436824, 272578, 4186000
780193725991, 192451, 4186000
780251646095, 187449, 4185000
780310967710, 187449, 4185000
780371202084, 183177, 4185000
780431703751, 186824, 4185000
780520689480, 266431, 4171000
780583174063, 191200, 4171000
780642487032, 175780, 4171000
780701837189, 196723, 4171000
780762083074, 194327, 4178000
780827441511, 199224, 4178000
780881681564, 189325, 4178000
780943329272, 189950, 4178000
781002338907, 187449, 4187000
781062295366, 180052, 4187000
781122724376, 199224, 4187000
781183497448, 194327, 4187000
781242268281, 189950, 4166000
781303891042, 188700, 4166000
781362956511, 188700, 4166000
781423063594, 190576, 4166000
781483343906, 187449, 4171000
781543140833, 191200, 4171000
781603940781, 193701, 4171000
781666576510, 202870, 4171000
781739395520, 186303, 4172000
781815371615, 416995, 4172000
781885813385, 272058, 4172000
781976770729, 188075, 4167000
782058332083, 267056, 4167000
782116025417, 457111, 4167000
782163420521, 188075, 4167000
782225486614, 192451, 4168000
782306844479, 281852, 4168000
782377325885, 197973, 4168000
782456743229, 346037, 4168000
782536105052, 196097, 4177000
782597684323, 328741, 4177000
782648414479, 262784, 4177000
782697196614, 405846, 4177000
782771208334, 193076, 4182000
782877672708, 265181, 4182000
782937610260, 453360, 4182000
783012452031, 193701, 4182000
783094652708, 192451, 4182000
783158276458, 197348, 4182000
783225836771, 188075, 4167000
783309791197, 196097, 4167000
783389913437, 189325, 4167000
783521435781, 323843, 4181000
783665488593, 340515, 4181000
783809502915, 275079, 4187000
783957377082, 273204, 4188000
784125520520, 352810, 4188000
784227666301, 191200, 4172000
784308413488, 191826, 4172000
784378518384, 260284, 4172000
784439362759, 269557, 4172000
784495338489, 198599, 4173000
784579013384, 264035, 4173000
784636446926, 191200, 4173000
784720835364, 184427, 4167000
784837650676, 335513, 4167000
784965775936, 344162, 4167000
785108089634, 267681, 4183000
785260808333, 341766, 4186000
785407560467, 337389, 4186000
785560716353, 354686, 4181000
785690594843, 331866, 4181000
785820422239, 341766, 4185000
785951009166, 348539, 4185000
786082018437, 347287, 4183000
786213217082, 267056, 4183000
786344450676, 333742, 4183000
786476222705, 326344, 4170000
786608534946, 333742, 4170000
786740663019, 355936, 4187000
786873268644, 352810, 4187000
787005494738, 318946, 4185000
787137989842, 327491, 4185000
787272085519, 273204, 4183000
787405354321, 277579, 4183000
787555439321, 348539, 4183000
787712936665, 342390, 4183000
787847971977, 329991, 4183000
787982981144, 336139, 4175000
788118393904, 310298, 4175000
788253874321, 354686, 4182000
788389198852, 284352, 4182000
788524995883, 333117, 4186000
788660589477, 345412, 4186000
788797502081, 331242, 4182000
788934255675, 326344, 4182000
789070245414, 333117, 4185000
789207018122, 318946, 4185000
789302885883, 264035, 4183000
789374517966, 323843, 4183000
789458841768, 263409, 4183000
789533615570, 188700, 4182000
789624521507, 187449, 4182000
789695079789, 264035, 4182000
789757911195, 262159, 4170000
789845862809, 186824, 4170000
789929481611, 190576, 4170000
790014371247, 196723, 4183000
790099178382, 284978, 4183000
790183943539, 218292, 4183000
790268604059, 281227, 4181000
790353611455, 197973, 4181000
790438791194, 373753, 4181000
790524180518, 196097, 4183000
790618363434, 196723, 4183000
790712237445, 188075, 4183000
790798094424, 197348, 4170000
790883268695, 251635, 4170000
790975050413, 283728, 4170000
791055115309, 275704, 4166000
791135363434, 276955, 4166000
791215252913, 275079, 4166000
791295745049, 258408, 4166000
791375776455, 254135, 4166000
791489952340, 191826, 4167000
791564826299, 192451, 4167000
791640205049, 260284, 4167000
791724017547, 277579, 4183000
791784167132, 196097, 4183000
791863526715, 306546, 4183000
791924108017, 189325, 4183000
792004996402, 275079, 4180000
792065707444, 194327, 4180000
792124140673, 426269, 4180000
792191623069, 267056, 4180000
792254566767, 196097, 4163000
792334517288, 305296, 4163000
792421416246, 275704, 4163000
792482625100, 189950, 4163000
792566249840, 260908, 4181000
792651226559, 192451, 4181000
792730133330, 207872, 4181000
792792320048, 193701, 4188000
792855778017, 191200, 4188000
792912172444, 193076, 4188000
792973847079, 197973, 4188000
793069829318, 209123, 4182000
793146436506, 218292, 4182000
793299679631, 390426, 4162000
793456324214, 338639, 4162000
793597357756, 365210, 4175000
793734292183, 371983, 4172000
793894699892, 407097, 4172000
794013874006, 431167, 4163000
794110147392, 456486, 4163000
794192816871, 621847, 4163000
794243259527, 397199, 4163000
794303254162, 385528, 4137000
794363719839, 391050, 4137000
794422422443, 402200, 4137000
794495527026, 616220, 4136000
794564584787, 457737, 4136000
794654331453, 394801, 4136000
794737853276, 494726, 4136000
794805210568, 392926, 4136000
794882727026, 402200, 4136000
794967162391, 397199, 4136000
795051484526, 398449, 4140000
795106344787, 392301, 4140000
795162982756, 400950, 4140000
795225002339, 401574, 4140000
795283572287, 390426, 4138000
795353651349, 395427, 4138000
795414037443, 396677, 4138000
795474131297, 389800, 4138000
795534206349, 392301, 4137000
795594160620, 404075, 4137000
795684158068, 474408, 4137000
795776600411, 401574, 4155000
795855972755, 392301, 4155000
795935089422, 391050, 4155000
796014288172, 397823, 4136000
796095832807, 400324, 4136000
796179008588, 384277, 4136000
796258362859, 392301, 4138000
796338304213, 392301, 4138000
796394388953, 394801, 4138000
796466043588, 393551, 4138000
796548979578, 384277, 4152000
796608912703, 392926, 4152000
796688347755, 391676, 4152000
796767675151, 394801, 4137000
796847232859, 402824, 4137000
796931845098, 400950, 4137000
797010154213, 478681, 4153000
797106159265, 397823, 4153000
797190764213, 394177, 4153000
797275440984, 400324, 4147000
797354289213, 391050, 4147000
797514082077, 558287, 4155000
797667277025, 544741, 4155000
797796729108, 488579, 4153000
797848749785, 405221, 4153000
797930646192, 384277, 4153000
798012269994, 405221, 4136000
798099465983, 383027, 4136000
798180884265, 410848, 4136000
798251238015, 474929, 4136000
798308762389, 394177, 4133000
798389446035, 490455, 4133000
798450183484, 447838, 4133000
798542448223, 397199, 4150000
798643952806, 467010, 4150000
798799183952, 557036, 4153000
798932967702, 565060, 4153000
799066661608, 544116, 4148000
799200213380, 553285, 4148000
799334644213, 480556, 4153000
799468541608, 529841, 4153000
799604620618, 532967, 4143000
799739435514, 572457, 4143000
799874844316, 515670, 4153000
800010556556, 554536, 4153000
800146824212, 498998, 4138000
800282731712, 550889, 4150000
800417945826, 478055, 4150000
800556517909, 521818, 4152000
800694297753, 524943, 4152000
800830880097, 537239, 4155000
800978965826, 563809, 4155000
801139544107, 505250, 4152000
801277991190, 508898, 4151000
801416091711, 506397, 4151000
801554887753, 482952, 4150000
801693154316, 512649, 4150000
801831754941, 518171, 4155000
801970502754, 502125, 4155000
802110078743, 518796, 4151000
802249136919, 510773, 4151000
802389024731, 494726, 4152000
802528739627, 483578, 4145000
802668847960, 490975, 4145000
802808979940, 507022, 4153000
802949409054, 502125, 4153000
803096179627, 568186, 4153000
803169914939, 467531, 4153000
803231318742, 394801, 4153000
803324405669, 388029, 4146000
803409687492, 403450, 4146000
803494894471, 399074, 4146000
803577334992, 392926, 4138000
803672060669, 410848, 4138000
803757697023, 463259, 4138000
803837093794, 473783, 4151000
803914672856, 630495, 4151000
803989923793, 634767, 4151000
804064846086, 469407, 4131000
804152402961, 451484, 4131000
804212098065, 393551, 4131000
804293714523, 475554, 4148000
804354037492, 399074, 4148000
804434920565, 482432, 4148000
804495869940, 396052, 4148000
804575263846, 478681, 4136000
804636292075, 407722, 4136000
804697042335, 399074, 4136000
804750639575, 407097, 4136000
804815112750, 394177, 4156000
804870738325, 395427, 4156000
804931171033, 384903, 4156000
804990779418, 398449, 4156000
805050814575, 396052, 4137000
805111092127, 402824, 4137000
805171145252, 393551, 4137000
805230857491, 396052, 4137000
805291974939, 391676, 4131000
805351571814, 391050, 4131000
805411149991, 396052, 4131000
805472348481, 383027, 4131000
805531430877, 404075, 4133000
805592638064, 400324, 4133000
805651717283, 403450, 4133000
805711725772, 401574, 4133000
805773953220, 403450, 4133000
805844181606, 399074, 4133000
805901892700, 406471, 4133000
805963057856, 465759, 4133000
806022930147, 404075, 4133000
806083141814, 405846, 4138000
806142428377, 397199, 4138000
806203276814, 391676, 4138000
806287674522, 459508, 4148000
806343311814, 617471, 4148000
806396660616, 628620, 4148000
806466926397, 465759, 4148000
806524570668, 607051, 4148000
806594142595, 481181, 4135000
806679620928, 395427, 4135000
806757408688, 391676, 4135000
806838205459, 504000, 4131000
806909952959, 390426, 4131000
806966306970, 391676, 4131000
807048410928, 401574, 4133000
807102817647, 394177, 4133000
807165035824, 395427, 4133000
807233694262, 391676, 4133000
807317408845, 440440, 4146000
807395701969, 404700, 4146000
807474398480, 388029, 4146000
807553454782, 392926, 4145000
807632770146, 396677, 4145000
807697295719, 403450, 4145000
807778353115, 397199, 4145000
807857708479, 401574, 4141000
807913014001, 400950, 4141000
807976872959, 399074, 4141000
808050177334, 481806, 4136000
808129846188, 467010, 4136000
808172907698, 395427, 4136000
808262658480, 404075, 4136000
808318585302, 404075, 4132000
808388550667, 421267, 4132000
808445130980, 396677, 4132000
808507394417, 394801, 4132000
808576539261, 397199, 4143000
808659890354, 404075, 4143000
808744778896, 406471, 4143000
808825230094, 396052, 4145000
808905952177, 395427, 4145000
808967430771, 398449, 4145000
809055105354, 400324, 4132000
809142670615, 397199, 4132000
809228862542, 396052, 4132000
809328032229, 640290, 4147000
809406662646, 388654, 4147000
809488200771, 396677, 4147000
809569751552, 406471, 4146000
809651578219, 400950, 4146000
809733065667, 392926, 4146000
809799574625, 467531, 4145000
809881454469, 474929, 4145000
809932916448, 401574, 4145000
810032976499, 477430, 4150000
810129960874, 632267, 4150000
810209592853, 470032, 4150000
810268018687, 466385, 4150000
810353707645, 408973, 4130000
810442375927, 481806, 4130000
810543540718, 394177, 4132000
810625879781, 402200, 4132000
810708406395, 621847, 4132000
810831277073, 504000, 4145000
810966081187, 521818, 4145000
811106963322, 547138, 4150000
811247197645, 485453, 4150000
811399780353, 500249, 4147000
811537640093, 503375, 4147000
811675296864, 531716, 4146000
811811438270, 526819, 4150000
811948536707, 486078, 4150000
812087172489, 515045, 4147000
812225077437, 512649, 4147000
812363011499, 473158, 4147000
812516335978, 513795, 4147000
812692563216, 490975, 4148000
812854772176, 502749, 4148000
813098267384, 525569, 4126000
