15081106676478, 313056, 3913000
15081563328353, 141924, 3930000
15082029542571, 140085, 3931000
15082365810019, 168643, 3931000
15082656547623, 139436, 3931000
15082945590488, 131540, 3930000
15083265622311, 114448, 3932000
15083617835227, 123643, 3933000
15083976700071, 124832, 3931000
15084334529497, 121154, 3932000
15084694927206, 124184, 3933000
15085168716320, 138788, 3931000
15085535570018, 137597, 3930000
15085898105799, 140627, 3931000
15086266008664, 124184, 3932000
15086632634236, 115637, 3931000
15086996350798, 124184, 3932000
15087368022569, 119965, 3931000
15087747752361, 115097, 3933000
15088113573298, 128510, 3931000
15088485957986, 127213, 3931000
15088856822829, 131540, 3932000
15089232644495, 134568, 3932000
15089608819703, 112609, 3931000
15089988948037, 132729, 3933000
15090367313193, 114448, 3931000
15090750765381, 124184, 3933000
15091134240797, 132189, 3928000
15091514700589, 123643, 3931000
15091896104285, 146792, 3930000
15092277233973, 128510, 3932000
15092666053244, 134568, 3931000
15093055032307, 127213, 3933000
15093448322515, 121804, 3930000
15093831838974, 134568, 3930000
15094217576525, 139436, 3931000
15094611843556, 140627, 3931000
15095014146421, 126671, 3932000
15095407374285, 130349, 3931000
15095809966732, 125481, 3928000
15096196062045, 132189, 3932000
15096645984754, 152850, 3925000
15096988688243, 121804, 3931000
15097381515274, 125481, 3931000
15097778459805, 131540, 3930000
15098176959075, 118775, 3931000
15098577304596, 118775, 3931000
15098978069752, 130890, 3930000
15099379745742, 127213, 3930000
15099797599647, 136407, 3931000
15100209948501, 129051, 3930000
15100766397095, 158367, 3926000
15101317060637, 247827, 3915000
15101821740585, 362384, 3908000
15102232356731, 338045, 3906000
15102640918814, 330689, 3905000
15103056263657, 336855, 3906000
15103472735220, 342264, 3905000
15103902862459, 344752, 3905000
15104307106886, 353297, 3906000
15104725234542, 346591, 3905000
15105148913552, 335557, 3905000
15105570297511, 323442, 3902000
15106001667875, 338694, 3905000
15106357893031, 351458, 3903000
15106788877458, 344752, 3903000
15107212437562, 330148, 3902000
15107637826310, 345941, 3902000
15108065386468, 344752, 3905000
15108492259749, 336855, 3903000
15108919721675, 330148, 3902000
15109355141467, 349619, 3903000
15109789294696, 338694, 3902000
15110450458290, 330148, 3905000
15111162643706, 367901, 3902000
15111596070060, 345941, 3902000
15112047573237, 344752, 3902000
15112496574539, 342913, 3901000
15112967213653, 344752, 3903000
15113424479747, 337396, 3902000
15113885498965, 358166, 3903000
15114351013289, 328851, 3901000
15114813392559, 335016, 3902000
15115295239226, 335557, 3902000
15115755270735, 347132, 3901000
15116262000840, 353297, 3901000
15116716685266, 344102, 3901000
15117183734173, 338694, 3901000
15117644693444, 341074, 3903000
15118123774222, 335016, 3901000
15118589325317, 348971, 3902000
15119065201516, 339235, 3900000
15119535482453, 338045, 3901000
15120009048494, 339884, 3900000
15120882734223, 346591, 3893000
