747622591984, 622545, 3716000
747666998661, 687302, 3716000
747708603590, 552808, 3716000
747748681110, 756389, 3716000
747797014435, 760071, 3716000
747841908568, 515449, 3695000
747900311401, 726502, 3695000
747947150800, 577281, 3695000
747994723767, 473866, 3695000
748046444915, 459789, 3695000
748097091581, 401097, 3723000
748154060383, 395032, 3723000
748211395331, 346736, 3723000
748263247779, 487944, 3723000
748309247102, 466502, 3722000
748355707154, 601754, 3722000
748393670435, 480580, 3722000
748438950071, 440297, 3722000
748485716269, 431093, 3722000
748533430019, 489135, 3722000
748579532206, 434125, 3708000
748627546946, 474516, 3708000
748677345696, 451883, 3708000
748725568821, 511767, 3708000
748764399810, 550967, 3708000
748804898352, 461630, 3708000
748853576269, 424378, 3720000
748902643508, 461630, 3720000
748958445643, 368069, 3720000
749014439706, 342405, 3720000
749073175279, 368069, 3731000
749134642414, 375433, 3731000
749193877415, 349119, 3731000
749245735696, 457948, 3731000
749294862935, 486103, 3731000
749337141373, 425570, 3717000
749389571216, 483070, 3717000
749441474498, 381496, 3717000
749498992883, 410951, 3717000
749553845644, 373592, 3717000
749615066008, 349119, 3732000
749675266737, 364388, 3732000
749735108456, 369910, 3732000
749795687414, 365037, 3732000
749842355071, 517940, 3722000
749883252362, 504512, 3722000
749931874550, 514257, 3722000
749980569602, 560713, 3722000
750029250018, 466502, 3722000
750074700019, 561363, 3715000
750115696373, 237799, 3715000
750172712623, 505053, 3715000
750222139238, 532017, 3715000
750272020123, 523462, 3715000
750323277102, 463471, 3716000
750371218717, 422537, 3716000
750430605488, 350310, 3716000
750494955331, 357132, 3716000
750559477570, 350310, 3716000
750624790383, 365037, 3732000
750690185851, 357132, 3732000
750774887986, 272126, 3732000
750839370382, 378465, 3728000
750921469862, 301472, 3728000
750982369914, 513608, 3728000
751041717362, 351610, 3728000
751105648559, 473866, 3727000
751149958663, 247653, 3727000
751197724497, 497689, 3727000
751254510122, 387019, 3727000
751315065486, 339914, 3728000
751386340278, 317932, 3728000
751450487153, 393734, 3728000
751512818247, 478740, 3728000
751556800643, 519781, 3728000
751598713090, 483070, 3710000
751650220956, 400555, 3710000
751710575851, 503212, 3710000
751762789862, 409110, 3710000
751813360695, 489785, 3710000
751871532830, 399256, 3710000
751925672778, 570567, 3710000
751973007362, 533858, 3710000
752021124757, 385178, 3710000
752061911893, 553349, 3710000
752127013403, 392542, 3723000
752178139601, 516748, 3723000
752225625590, 528876, 3723000
752269892986, 228702, 3723000
752333848507, 480038, 3718000
752384034445, 391893, 3718000
752443097830, 361355, 3718000
752487894861, 453724, 3718000
752530497726, 422537, 3718000
752580976997, 588218, 3707000
752626033507, 411492, 3707000
752678872309, 462280, 3707000
752726181632, 406620, 3707000
752779561840, 465961, 3707000
752837046528, 414524, 3718000
752908423194, 298331, 3718000
752991026372, 338723, 3718000
753045228715, 568726, 3718000
753084814132, 507543, 3700000
753123223351, 525844, 3700000
753160690643, 700188, 3700000
753198040694, 490435, 3700000
753239571319, 537539, 3700000
753288628611, 514257, 3700000
753335654338, 489785, 3702000
753374749392, 542954, 3702000
753420756007, 509926, 3702000
753480960017, 379765, 3702000
753525446371, 485561, 3702000
753565634965, 498339, 3702000
753605357152, 521621, 3711000
753645535069, 486752, 3711000
753685816423, 492817, 3711000
753726042777, 507543, 3711000
753772539184, 369368, 3711000
753830500538, 385828, 3717000
753877693246, 484911, 3717000
753930368767, 448852, 3717000
753982550069, 399906, 3717000
754036078558, 527685, 3717000
754098259652, 351610, 3730000
754181788767, 341755, 3730000
754267744860, 313708, 3730000
754350451371, 268985, 3737000
754433144236, 256207, 3737000
754530431632, 305695, 3737000
754619364027, 331360, 3743000
754672114965, 383337, 3743000
754724716579, 365687, 3743000
754775887725, 523462, 3743000
754818669704, 452533, 3743000
754862443819, 495307, 3718000
754903226006, 497689, 3718000
754944685017, 493466, 3718000
754987190850, 503212, 3718000
755037106006, 495307, 3718000
755087011787, 368069, 3720000
755146863037, 360706, 3720000
755206984443, 375433, 3720000
755276729496, 261731, 3720000
755366005225, 267145, 3742000
755486354808, 265304, 3742000
755572688038, 280681, 3742000
755670763402, 281872, 3742000
755771575017, 278190, 3742000
755862852360, 377924, 3745000
755920937464, 520972, 3745000
755977580796, 556490, 3745000
756036422411, 511767, 3745000
756101813401, 566885, 3722000
756150804912, 456757, 3722000
756205795901, 373592, 3722000
756270384495, 371751, 3722000
756341907360, 357673, 3730000
756425013714, 385178, 3730000
756493230953, 508085, 3730000
756544518714, 528335, 3730000
756581761578, 241480, 3711000
756629285797, 511767, 3711000
756669059703, 420047, 3711000
756721303662, 506894, 3711000
756769578609, 385178, 3711000
756815002255, 588218, 3711000
756851331474, 473866, 3711000
756887139963, 548477, 3711000
756925119807, 638355, 3711000
756961338662, 504512, 3711000
756997320172, 524653, 3711000
757034725641, 493466, 3711000
757071807308, 537539, 3711000
757121919443, 366877, 3717000
757164294391, 483720, 3717000
757202306943, 543604, 3717000
757253203401, 408460, 3717000
757296090536, 486752, 3717000
757334404755, 482421, 3711000
757371919391, 534399, 3711000
757424040537, 393192, 3711000
757476539130, 476357, 3711000
757521848870, 399906, 3711000
757572035172, 371751, 3711000
757618962880, 410951, 3725000
757672295797, 387019, 3725000
757749233869, 301472, 3725000
757829319598, 258590, 3740000
757910689391, 286095, 3740000
758003349964, 338723, 3740000
758072515016, 506353, 3740000
758130939235, 376624, 3728000
758182423349, 355832, 3728000
758235763609, 371751, 3728000
758298745432, 372942, 3728000
758374147724, 282521, 3738000
758439821942, 546636, 3738000
758491062880, 522162, 3738000
758547331420, 397415, 3738000
758612590015, 525303, 3731000
758664259338, 565586, 3731000
758719225796, 486103, 3731000
758770636630, 549127, 3731000
758823062515, 374242, 3731000
758867034702, 488593, 3715000
758915424650, 382146, 3715000
758970664703, 368069, 3715000
759022886629, 459247, 3715000
759065779650, 475707, 3715000
759119443764, 451234, 3718000
759166170275, 491626, 3718000
759214901942, 353450, 3718000
759271108921, 378465, 3718000
759326663087, 417015, 3727000
759385611942, 409651, 3727000
759446019285, 384637, 3727000
759488208191, 505053, 3727000
759528791629, 573599, 3727000
759569691889, 480038, 3727000
759613408713, 417665, 3706000
759667132202, 505053, 3706000
759716347619, 359514, 3706000
759776089181, 360164, 3706000
759836332931, 502671, 3727000
759896209858, 379765, 3727000
759939180223, 484262, 3727000
759980574911, 495307, 3727000
760025133608, 509384, 3727000
760070162880, 484262, 3727000
760124430015, 565586, 3711000
760174785848, 497689, 3711000
760224080483, 354641, 3711000
760284327827, 402288, 3711000
760346424233, 525303, 3718000
760407834650, 414524, 3718000
760470274338, 390160, 3718000
760521712046, 533858, 3718000
760558051889, 505703, 3718000
760593615483, 490976, 3700000
760635291785, 418856, 3700000
760676244025, 531367, 3700000
760716515066, 554649, 3700000
760756891316, 447011, 3700000
760798205379, 423729, 3700000
760846909910, 366877, 3715000
760898527150, 406620, 3715000
760954476369, 371101, 3715000
761017283660, 291077, 3715000
761093974962, 280031, 3738000
761147068712, 481879, 3738000
761190825013, 528876, 3738000
761244949857, 463471, 3738000
761306094962, 363846, 3738000
761374599232, 385178, 3737000
761427465066, 494116, 3737000
761480300535, 374242, 3737000
761529797461, 382796, 3737000
761573266212, 554649, 3737000
761628765743, 461088, 3723000
761673279493, 465961, 3723000
761717512513, 500830, 3723000
761763472930, 360706, 3723000
761813828139, 363196, 3723000
761866846264, 512416, 3721000
761913318451, 371751, 3721000
761964338712, 378465, 3721000
762018642878, 513066, 3721000
762069333972, 489135, 3721000
762120490483, 418206, 3726000
762171146785, 435966, 3726000
762223253399, 457948, 3726000
762276011993, 383337, 3726000
762339155117, 410951, 3736000
762416697566, 374242, 3736000
762475977045, 406620, 3736000
762530975066, 409110, 3736000
762584383712, 420697, 3736000
762625320639, 550317, 3715000
762666768243, 520322, 3715000
762715250743, 386478, 3715000
762774313972, 487294, 3715000
762816671628, 495957, 3715000
762864769545, 372942, 3715000
762924168972, 501371, 3715000
762981956993, 445711, 3715000
763047450222, 409110, 3715000
763088427722, 239639, 3711000
763135547930, 558331, 3711000
763178053242, 541113, 3711000
763231548816, 452533, 3711000
763279132096, 531367, 3711000
763325555222, 601754, 3711000
763374594284, 364388, 3705000
763431467305, 388860, 3705000
763485417566, 491626, 3705000
763534791784, 357673, 3705000
763597605794, 390701, 3725000
763643398972, 502021, 3725000
763705429857, 505703, 3725000
763765142566, 375433, 3725000
763818691939, 497148, 3725000
763868014857, 520322, 3720000
763917442460, 498989, 3720000
763963538034, 568076, 3720000
764022924388, 424378, 3720000
764086130481, 355291, 3730000
764156461106, 368718, 3730000
764221270378, 352800, 3730000
764290704076, 386478, 3730000
764346432044, 397415, 3716000
764394911523, 610309, 3716000
764461126003, 369910, 3716000
764505645586, 455565, 3716000
764545286627, 476357, 3716000
764583070742, 537539, 3716000
764624574440, 509384, 3721000
764662139232, 541113, 3721000
764719140741, 435316, 3721000
764773458763, 576632, 3721000
764838511887, 427411, 3727000
764881231888, 535698, 3727000
764931819857, 391351, 3727000
764974276471, 487294, 3727000
765013468138, 519781, 3727000
765075250742, 380955, 3727000
765145886783, 281872, 3733000
765214565586, 503212, 3733000
765258481471, 377924, 3733000
765310411055, 546636, 3733000
765359803606, 401097, 3706000
765402925950, 537539, 3706000
765456296992, 492276, 3706000
765493836836, 504512, 3706000
765531518294, 671383, 3706000
765568935637, 505053, 3706000
765607938398, 448202, 3707000
765660322617, 524653, 3707000
765703811419, 462280, 3707000
765745568033, 448202, 3707000
765786022565, 500180, 3707000
765825974596, 499530, 3707000
765866214752, 503862, 3712000
765906426054, 513066, 3712000
765946391054, 490435, 3712000
765987124491, 505703, 3712000
766033638502, 379115, 3712000
766087993866, 389510, 3725000
766145770377, 396873, 3725000
766186788919, 520972, 3725000
766240254909, 489135, 3725000
766283542617, 524653, 3725000
766336069752, 383337, 3725000
766391231471, 376624, 3720000
766445053083, 469643, 3720000
766507864126, 354641, 3720000
766577480741, 513066, 3720000
766630960168, 396223, 3723000
766687250012, 447011, 3723000
766749020845, 413983, 3723000
766819180689, 311218, 3723000
766889557928, 304504, 3740000
766973405845, 276349, 3740000
767070682356, 376624, 3740000
767125665428, 351610, 3720000
767175708189, 516099, 3720000
767216678918, 542412, 3720000
767264155064, 362005, 3720000
767325359022, 582695, 3720000
767382146679, 376624, 3721000
767448720220, 495307, 3721000
767489991574, 250036, 3721000
767536988605, 547286, 3721000
767579009647, 490976, 3721000
767628982511, 501371, 3710000
767681250585, 498339, 3710000
767730437356, 550317, 3710000
767787604907, 399906, 3710000
767846377199, 478198, 3712000
767893516053, 495957, 3712000
767948124074, 481879, 3712000
768005119387, 464121, 3712000
768064970584, 369368, 3712000
768123408762, 423079, 3725000
768183849907, 406620, 3725000
768230325168, 500830, 3725000
768284751730, 507543, 3725000
768322139178, 560063, 3725000
768375010741, 624927, 3725000
768413741887, 495307, 3725000
768453921887, 539922, 3725000
768503998397, 403588, 3725000
768568366938, 359514, 3725000
768623301470, 522812, 3720000
768676082355, 491626, 3720000
768715095116, 527144, 3720000
768753523710, 549127, 3720000
768809755844, 382146, 3720000
768859862511, 376083, 3715000
768927986365, 421347, 3715000
769005620011, 263572, 3715000
769044462042, 505053, 3715000
769083955218, 502021, 3715000
769123095844, 541763, 3712000
769180638605, 380955, 3712000
769224527042, 503212, 3712000
769264070584, 542412, 3712000
769321963032, 410951, 3712000
769366360896, 505703, 3708000
769406311156, 490976, 3708000
769453584282, 369368, 3708000
769502581938, 379115, 3708000
769552113865, 372942, 3708000
769596357823, 242780, 3708000
769656689281, 353450, 3712000
769726100427, 407270, 3712000
769799799385, 320423, 3712000
769856480427, 424920, 3727000
769910679386, 405970, 3727000
769961837875, 397415, 3727000
770013242302, 404129, 3727000
770055217563, 531367, 3727000
770095704698, 495307, 3727000
770136662719, 490976, 3707000
770183988917, 374242, 3707000
770232284907, 546636, 3707000
770291938657, 404779, 3707000
770335798344, 520972, 3707000
770375151886, 582154, 3711000
770417132510, 569917, 3711000
770479493552, 443870, 3711000
770545726208, 395032, 3711000
770587868812, 506894, 3711000
770636470219, 522812, 3708000
770684168969, 405429, 3708000
770747609698, 413983, 3708000
770819212823, 484911, 3708000
770892302823, 304504, 3736000
770947148031, 497689, 3736000
770996411365, 377274, 3736000
771058408656, 456757, 3736000
771121368448, 426219, 3707000
771173320011, 527685, 3707000
771224966365, 475707, 3707000
771273066521, 503212, 3707000
771323865584, 405970, 3707000
771390159698, 492276, 3723000
771441545427, 522162, 3723000
771485044542, 577822, 3723000
771535789646, 377924, 3723000
771587885010, 498339, 3723000
771645022457, 368069, 3723000
771705938811, 430443, 3723000
771763013968, 513608, 3723000
771847869437, 429252, 3723000
771916452197, 316741, 3730000
771964410114, 501371, 3730000
772002175687, 494657, 3730000
772065667510, 382796, 3730000
772122656520, 550317, 3721000
772175364905, 604137, 3721000
772214548395, 453075, 3721000
772254993968, 550967, 3721000
772311418083, 438997, 3721000
772354345843, 497689, 3711000
772392550687, 540571, 3711000
772445338291, 409651, 3711000
772507226207, 382796, 3711000
772596410791, 289777, 3711000
772684277041, 280681, 3738000
772744800218, 506894, 3738000
772783637041, 554649, 3738000
772841118291, 453724, 3738000
772893949906, 404129, 3728000
772942986104, 548477, 3728000
772984513030, 575440, 3728000
773042809281, 464770, 3728000
773101584854, 435316, 3728000
773148549384, 513066, 3712000
773198692561, 448202, 3712000
773249349436, 469643, 3712000
773299131676, 380955, 3712000
773339388395, 552158, 3712000
773380874020, 485561, 3713000
773430299697, 443870, 3713000
773475116885, 489785, 3713000
773515613603, 575440, 3713000
773556345061, 508085, 3713000
773603571155, 372942, 3721000
773662792926, 522812, 3721000
773701859958, 721520, 3721000
773741175062, 502671, 3721000
773780517927, 511225, 3721000
773826084749, 487294, 3721000
773873575270, 372942, 3701000
773928006468, 513608, 3701000
773980827510, 555190, 3701000
774033530218, 467152, 3701000
774093488760, 508734, 3701000
774137364749, 533858, 3708000
774177318499, 561363, 3708000
774219518967, 519131, 3708000
774265647040, 388319, 3708000
774320217247, 498989, 3708000
774360245426, 513608, 3710000
774401057301, 659147, 3710000
774446443550, 544253, 3710000
774502726259, 437806, 3710000
774583384019, 280031, 3710000
774669029383, 300172, 3737000
774753895530, 265954, 3737000
774842031780, 278840, 3737000
774940123082, 290427, 3737000
775031114280, 276349, 3737000
775106587613, 475707, 3737000
775148608810, 491626, 3715000
775189669592, 467152, 3715000
775238639800, 420697, 3715000
775293610113, 391893, 3715000
775355273967, 371101, 3731000
775432034801, 291618, 3731000
775525050009, 286745, 3731000
775594685009, 377924, 3731000
775634284436, 496498, 3715000
775671876103, 529526, 3715000
775729132664, 395574, 3715000
775781758030, 381496, 3715000
775823081259, 397415, 3715000
775875598446, 566235, 3706000
775913819332, 546636, 3706000
775978590217, 427411, 3706000
776030632978, 442138, 3706000
776078908133, 498989, 3706000
776127233602, 522162, 3707000
776172908967, 395574, 3707000
776217483706, 473325, 3707000
776269542091, 409651, 3707000
776327230165, 402288, 3707000
776401578498, 328327, 3737000
776488930529, 276349, 3737000
776566625581, 353991, 3737000
776622507248, 382146, 3717000
776666829852, 496498, 3717000
776706879071, 495307, 3717000
776746323654, 485561, 3717000
776786002613, 505053, 3717000
776848175894, 402938, 3717000
776887150372, 511767, 3710000
776930597037, 566235, 3710000
776964960425, 528335, 3710000
777005480008, 427411, 3710000
777056074695, 405970, 3710000
777110941623, 365687, 3723000
777182383654, 295300, 3723000
777234127091, 235958, 3723000
777314327820, 497148, 3723000
777353501414, 494116, 3723000
777392585581, 720978, 3708000
777444063549, 440838, 3708000
777486830841, 498339, 3708000
777534511206, 360164, 3708000
777592678133, 362005, 3708000
777679722820, 375433, 3728000
777777747612, 279382, 3728000
777860699227, 506353, 3728000
777901567716, 498989, 3716000
777966267091, 486103, 3716000
778015341414, 508085, 3716000
778063895008, 363196, 3716000
778119823132, 496498, 3707000
778159910268, 487944, 3707000
778200711675, 225021, 3707000
778253594174, 487294, 3707000
778313989799, 335691, 3707000
778401181935, 300822, 3732000
778485832403, 273317, 3732000
778551415060, 381496, 3732000
778606158132, 369910, 3732000
778665863341, 396873, 3717000
778724754851, 463471, 3717000
778774668758, 385178, 3717000
778837464330, 387669, 3717000
778898208549, 448202, 3725000
778940586570, 487944, 3725000
778982694956, 506894, 3725000
779029958705, 444520, 3725000
779101084279, 382146, 3725000
779163935008, 358323, 3722000
779211272977, 539922, 3722000
779263183966, 396223, 3722000
779311031154, 546636, 3722000
779369358288, 372942, 3725000
779434905164, 353991, 3725000
779508159225, 316091, 3725000
779581249903, 259890, 3725000
779644392923, 415824, 3726000
779696405580, 479388, 3726000
779735834590, 489785, 3726000
779774632507, 496498, 3726000
779814161309, 463471, 3726000
779855444225, 478740, 3726000
779894176673, 500180, 3710000
779933207403, 553349, 3710000
779990630580, 374242, 3710000
780032969955, 489785, 3710000
780070535945, 513066, 3710000
780108163131, 503212, 3710000
780146137715, 728343, 3705000
780185476621, 532558, 3705000
780224828444, 497689, 3705000
780264210684, 514257, 3705000
780315081048, 494116, 3705000
780355240996, 530717, 3705000
780395051205, 552158, 3712000
780443057611, 248844, 3712000
780504936882, 529526, 3712000
780545208965, 557031, 3712000
780585853392, 516099, 3712000
780633280944, 395574, 3706000
780703804642, 324645, 3706000
780798903652, 274508, 3706000
780846576725, 486103, 3706000
780893626569, 387669, 3710000
780955581100, 601104, 3710000
781012302559, 500180, 3710000
781058265423, 425570, 3710000
781107099121, 511225, 3710000
781163976361, 540571, 3706000
781213285163, 374783, 3706000
781274001152, 371101, 3706000
781341884486, 353991, 3706000
781395384694, 432934, 3723000
781450505684, 429252, 3723000
781503970788, 399256, 3723000
781544868600, 536239, 3723000
781587400788, 584536, 3723000
781634089121, 469643, 3703000
781690698236, 484262, 3703000
781747559538, 365687, 3703000
781824066309, 286095, 3703000
781912235528, 256207, 3737000
782003532298, 284362, 3737000
782101606048, 305695, 3737000
782197925004, 297790, 3735000
782287250162, 335042, 3735000
782372547245, 280031, 3737000
782462321360, 266604, 3737000
782562213339, 275158, 3737000
782661549433, 273967, 3738000
782760832871, 280031, 3738000
782831748600, 480038, 3738000
782884578027, 399906, 3710000
782939550839, 405970, 3710000
782990427089, 393734, 3710000
783036376568, 500830, 3710000
783076423808, 497689, 3710000
783113546568, 484262, 3710000
783151697506, 501371, 3708000
783188498599, 487944, 3708000
783241037506, 468343, 3708000
783282179798, 508085, 3708000
783319386047, 547286, 3708000
783357104276, 487944, 3708000
783394470526, 530176, 3710000
783432741100, 502021, 3710000
783470995006, 545445, 3710000
783530258443, 575982, 3710000
783578780109, 559522, 3710000
783630915735, 558872, 3718000
783697111099, 453724, 3718000
783743726047, 357673, 3718000
783807045370, 395574, 3718000
783866810839, 368069, 3718000
783939970370, 267794, 3727000
784019221099, 264763, 3727000
784101040683, 300822, 3727000
784183382193, 302013, 3736000
784266154172, 366877, 3736000
784313935006, 377274, 3736000
784368655578, 418856, 3736000
784416917662, 379765, 3712000
784471943808, 457406, 3712000
784520504120, 490976, 3712000
784572353912, 402288, 3712000
784626252245, 397415, 3720000
784683836360, 377274, 3720000
784728040786, 445711, 3720000
784785869171, 399256, 3720000
784873454536, 389510, 3728000
784927381619, 495957, 3728000
784966924692, 497689, 3728000
785009780838, 399906, 3728000
785063208807, 525303, 3728000
785115692453, 535698, 3728000
785177506202, 443329, 3711000
785246928494, 500830, 3711000
785294369901, 485561, 3711000
785343754276, 363846, 3711000
785411316411, 547935, 3723000
785456755525, 492817, 3723000
785511200474, 530176, 3723000
785558704327, 495957, 3723000
785612990630, 429252, 3723000
785666728338, 374242, 3715000
785727987140, 384637, 3715000
785798565681, 458598, 3715000
785845893494, 355291, 3715000
785915054640, 372942, 3723000
785975360005, 365687, 3723000
786027393338, 668351, 3723000
786069780681, 490435, 3723000
786114792036, 589518, 3723000
786151309588, 487944, 3702000
786187758286, 556490, 3702000
786225916411, 483720, 3702000
786268213963, 547286, 3702000
786311453026, 401097, 3702000
786366410786, 544795, 3702000
786418447192, 401747, 3716000
786479047296, 380305, 3716000
786568664223, 302013, 3716000
786665886775, 314250, 3732000
786781064640, 284904, 3732000
786846405838, 390701, 3732000
786897990004, 236608, 3725000
786950945109, 234117, 3725000
787004020838, 226212, 3725000
787079197452, 294759, 3725000
787162964901, 292268, 3732000
787255595369, 264113, 3732000
787296258546, 493466, 3732000
787336207765, 500830, 3732000
787376478337, 500180, 3732000
787416462138, 509384, 3707000
787463232035, 384637, 3707000
787518506201, 423079, 3707000
787570387764, 409110, 3707000
787622755733, 391351, 3707000
787675265264, 384637, 3717000
787737407920, 388319, 3717000
787806018806, 449394, 3717000
787846570472, 508734, 3717000
787892216306, 539272, 3706000
787936243181, 494657, 3706000
787989338076, 438456, 3706000
788054090629, 380305, 3706000
788094660420, 550317, 3706000
788143815993, 529526, 3706000
788207239378, 511225, 3706000
788265736358, 402288, 3706000
788321660525, 366877, 3706000
788377770576, 419506, 3723000
788436743858, 413333, 3723000
788495340212, 572950, 3723000
788538666305, 504512, 3723000
788578665264, 490435, 3723000
788623764795, 653732, 3723000
788668362451, 428602, 3707000
788716102868, 482421, 3707000
788766247920, 397415, 3707000
788819813597, 444520, 3707000
788873008337, 520322, 3707000
788924171774, 393192, 3711000
788981379743, 385178, 3711000
789048267139, 490976, 3711000
789099577243, 385828, 3711000
789161884639, 395032, 3721000
789214692035, 543604, 3721000
789264988389, 378465, 3721000
789329985680, 476357, 3721000
789375503389, 552158, 3721000
789411955056, 557031, 3707000
789450502244, 394382, 3707000
789492654952, 556490, 3707000
789542361618, 388319, 3707000
789585919378, 473325, 3707000
789624722035, 509384, 3707000
789663341827, 549127, 3712000
789715658649, 595581, 3712000
789755175056, 541113, 3712000
789813026097, 510575, 3712000
789866933753, 474516, 3712000
789919178180, 390160, 3720000
789973364170, 430443, 3720000
790024947971, 402938, 3720000
790078412347, 450043, 3720000
790128963544, 582154, 3720000
790179860627, 391351, 3708000
790232377295, 465311, 3708000
790306925523, 284362, 3708000
790371025159, 540571, 3708000
790431442138, 498339, 3725000
790483433961, 360706, 3725000
790539328961, 365037, 3725000
790595391773, 542412, 3725000
790637856357, 492276, 3710000
790680265836, 476357, 3710000
790722126930, 506894, 3710000
790772446409, 500830, 3710000
790831636513, 447011, 3710000
790902083545, 448202, 3725000
790956247294, 422537, 3725000
791011675628, 438997, 3725000
791067738648, 485561, 3725000
791112268805, 546094, 3725000
791172675263, 513066, 3716000
791232411201, 413333, 3716000
791292003701, 415174, 3716000
791343755419, 402938, 3716000
791406420575, 330818, 3717000
791462771669, 539922, 3717000
791517674638, 383987, 3717000
791576983232, 414524, 3717000
791635833127, 400555, 3721000
791697556461, 440838, 3721000
791739389742, 496498, 3721000
791780785628, 484262, 3721000
791824382919, 501371, 3721000
791867775627, 500180, 3721000
791922472607, 467152, 3715000
791975774742, 366877, 3715000
792032920107, 446361, 3715000
792077822086, 487944, 3715000
792132415888, 401747, 3715000
792199670679, 496498, 3705000
792249347190, 544253, 3705000
792289259690, 624278, 3705000
792331809847, 267794, 3705000
792392772867, 405970, 3721000
792432485471, 499530, 3721000
792472496253, 494657, 3721000
792509212554, 560713, 3721000
792546676721, 500830, 3721000
792583845367, 501371, 3721000
792624070418, 448852, 3721000
792669939323, 447011, 3712000
792717473439, 484911, 3712000
792762972450, 401747, 3712000
792812259012, 379115, 3712000
792856141512, 503212, 3712000
792895442345, 494657, 3710000
792935364116, 512416, 3710000
792975184325, 544795, 3710000
793014654429, 544795, 3710000
793072589325, 527144, 3710000
793123325366, 381496, 3710000
793174055887, 375433, 3713000
793228333908, 416365, 3713000
793279851616, 573599, 3713000
793331115992, 399906, 3713000
793385015002, 421888, 3723000
793456313335, 502671, 3723000
793512340419, 522812, 3723000
793551241148, 537539, 3723000
793590289221, 635973, 3723000
793645966460, 580313, 3720000
793686545887, 489135, 3720000
793725675106, 512416, 3720000
793765081408, 490435, 3720000
793805395418, 479388, 3720000
793847328387, 499530, 3720000
793892494481, 395574, 3715000
793943621304, 383987, 3715000
794001570314, 407811, 3715000
794057984897, 530176, 3715000
794104137970, 390160, 3715000
794162383335, 716106, 3722000
794202410210, 728884, 3722000
794243955731, 555190, 3722000
794308442658, 495307, 3722000
794367686095, 503862, 3722000
794421384221, 415174, 3721000
794487220678, 382146, 3721000
794547241616, 446361, 3721000
794589202553, 502671, 3721000
794639582762, 543604, 3721000
794685394376, 509384, 3702000
794732092918, 401747, 3702000
794787168647, 387669, 3702000
794854699897, 483720, 3702000
794892984585, 561363, 3702000
794933026043, 553999, 3707000
794973041356, 528335, 3707000
795036145678, 368069, 3707000
795079211876, 575982, 3707000
795116350418, 490435, 3707000
795154070054, 498339, 3705000
795192001616, 513066, 3705000
795233533386, 411492, 3705000
795276165104, 507543, 3705000
795315326043, 524003, 3705000
795354543647, 546094, 3705000
795412204428, 456757, 3713000
795456119584, 500180, 3713000
795495593699, 538080, 3713000
795535394376, 503862, 3713000
795575448386, 242130, 3713000
795648720625, 435966, 3722000
795687674792, 599913, 3722000
795726939896, 500180, 3722000
795766145521, 546094, 3722000
795805156303, 511225, 3722000
795851984480, 431742, 3722000
795911698282, 294109, 3710000
795983850105, 284904, 3710000
796068367813, 298331, 3710000
796157897605, 271476, 3737000
796217463490, 493466, 3737000
796265294324, 562554, 3737000
796306633907, 494116, 3737000
796354814167, 386478, 3737000
796415696823, 475707, 3717000
796457189532, 494657, 3717000
796502615105, 412142, 3717000
796555462865, 370559, 3717000
796611396876, 402288, 3717000
796664704688, 510575, 3713000
796714696251, 490976, 3713000
796773670469, 398714, 3713000
796827000625, 360164, 3713000
796887830209, 464121, 3713000
796955988750, 349119, 3716000
797009921354, 496498, 3716000
797052522449, 524003, 3716000
797103996146, 508734, 3716000
797147090365, 528335, 3716000
797196450625, 375433, 3701000
797267370729, 374783, 3701000
797317043490, 508734, 3701000
797367570625, 370559, 3701000
797437899115, 495307, 3721000
797482505157, 504512, 3721000
797518997031, 541763, 3721000
797555719375, 519781, 3721000
797592907188, 527685, 3721000
797635035678, 605328, 3721000
797678415729, 507543, 3707000
797720988543, 461630, 3707000
797763163334, 498989, 3707000
797800545522, 530176, 3707000
797854204062, 422537, 3707000
797906136144, 410951, 3712000
797943813594, 516748, 3712000
797981757760, 675715, 3712000
798025096250, 474516, 3712000
798067419322, 459789, 3712000
798114208333, 504512, 3712000
798154654635, 505703, 3706000
798194057812, 508734, 3706000
798234142916, 506894, 3706000
798274863125, 585186, 3706000
798314800468, 590059, 3706000
798355858802, 522812, 3706000
798396163854, 509926, 3706000
798436586979, 510575, 3708000
798484046458, 406620, 3708000
798532654896, 384637, 3708000
798592601510, 485561, 3708000
798637897916, 560713, 3708000
798680134896, 515449, 3706000
798722092187, 469643, 3706000
798768867551, 704410, 3706000
798817279999, 396873, 3706000
798873955729, 394382, 3706000
798934190989, 359514, 3718000
799005466302, 282521, 3718000
799090444323, 291077, 3718000
799164433385, 369910, 3725000
799207456041, 524003, 3725000
799268243749, 415174, 3725000
799317526458, 521621, 3725000
799365991041, 508085, 3725000
799414577031, 366228, 3717000
799498847499, 268444, 3717000
799599123645, 270285, 3717000
799685498645, 268985, 3731000
799769793228, 305154, 3731000
799856203906, 272667, 3731000
799960348177, 299631, 3738000
800016018593, 359514, 3738000
800094288593, 276349, 3738000
800167682812, 513608, 3708000
800205550364, 494116, 3708000
800243941250, 500180, 3708000
800295284479, 418856, 3708000
800360293958, 365037, 3708000
800405420729, 502671, 3708000
800444049843, 494657, 3708000
800483096249, 555190, 3708000
800539809945, 423079, 3708000
800583605832, 556490, 3708000
800640569218, 377924, 3708000
800683274478, 554649, 3707000
800741434061, 368069, 3707000
800784008853, 495957, 3707000
800822727134, 517290, 3707000
800861306666, 544253, 3707000
800921108280, 365037, 3715000
800965587134, 516099, 3715000
801005850728, 497148, 3715000
801045969790, 553349, 3715000
801094249322, 270826, 3715000
801155093697, 511767, 3706000
801195599478, 506353, 3706000
801236157603, 505703, 3706000
801282523384, 375433, 3706000
801340884791, 420047, 3706000
801395253853, 413983, 3706000
801441010468, 485561, 3713000
801488104842, 466502, 3713000
801530141301, 535049, 3713000
801569515727, 514257, 3713000
801611764426, 438456, 3713000
801658842863, 424378, 3712000
801708254842, 403588, 3712000
801764143332, 388319, 3712000
801835675415, 379115, 3712000
801932531978, 274508, 3735000
802023114895, 301472, 3735000
802111064322, 272667, 3735000
802205929165, 336883, 3737000
802264615155, 508734, 3737000
802305195988, 525844, 3737000
802345896821, 564394, 3737000
802387712082, 537539, 3737000
802434280207, 450043, 3715000
802480834374, 486752, 3715000
802523142395, 524003, 3715000
802577162394, 419506, 3715000
802623487394, 247653, 3715000
802688185884, 390160, 3720000
802740501041, 438997, 3720000
802789060831, 473325, 3720000
802841679218, 440838, 3720000
802883795936, 508085, 3720000
802921102186, 695314, 3697000
802958333331, 503212, 3697000
802996279269, 513608, 3697000
803039546300, 433475, 3697000
803090093541, 429252, 3697000
803159613017, 508734, 3708000
803226435571, 386478, 3708000
803285684112, 396223, 3708000
803339302862, 566885, 3708000
803383743227, 539272, 3708000
803441987654, 349769, 3720000
803488801664, 503212, 3720000
803528977341, 472675, 3720000
803573973487, 673224, 3720000
803626453018, 412683, 3720000
803682523279, 494116, 3710000
803753437081, 272126, 3710000
803815422185, 501371, 3710000
803887808591, 289777, 3710000
803943460154, 369368, 3720000
803998698174, 517290, 3720000
804054255414, 376083, 3720000
804110571040, 443870, 3720000
804165639164, 395574, 3723000
804222242915, 405429, 3723000
804286916820, 397415, 3723000
804342357029, 388319, 3723000
804394610779, 398065, 3723000
804443743123, 393734, 3711000
804501690206, 390160, 3711000
804561475883, 505703, 3711000
804603788748, 475166, 3711000
804652307133, 459247, 3711000
804702354789, 429901, 3715000
804751788852, 434775, 3715000
804802142446, 428060, 3715000
804856414737, 508734, 3715000
804905904685, 383337, 3715000
804965620987, 429252, 3721000
805023037602, 419506, 3721000
805067116977, 494657, 3721000
805125611716, 495957, 3721000
805165421508, 547935, 3706000
805204486091, 508085, 3706000
805243415935, 555190, 3706000
805299955830, 366877, 3706000
805337702706, 498989, 3706000
805380660050, 244513, 3706000
805429158903, 447553, 3715000
805485713435, 343596, 3715000
805556856872, 295300, 3715000
805618082601, 336883, 3715000
805704971300, 272126, 3733000
805785415725, 270285, 3733000
805860875987, 500180, 3733000
805916476142, 395032, 3720000
805970846612, 395032, 3720000
806021909632, 462929, 3720000
806076687340, 399906, 3720000
806130954112, 421347, 3720000
806186421924, 429252, 3718000
806241278903, 403588, 3718000
806296071299, 448852, 3718000
806337081194, 518481, 3718000
806376512132, 548477, 3718000
806417031715, 508085, 3710000
806463284424, 471484, 3710000
806507805101, 457406, 3710000
806556997757, 424378, 3710000
806613145570, 369368, 3710000
806674209632, 398065, 3731000
806746736872, 277541, 3731000
806815003799, 509926, 3731000
806863637705, 366228, 3731000
806921604424, 382146, 3713000
806964689892, 527685, 3713000
807013841090, 373592, 3713000
807077314736, 428602, 3713000
807137061455, 398065, 3713000
807196340413, 435316, 3718000
807238659423, 548477, 3718000
807279886090, 502671, 3718000
807320527914, 533208, 3718000
807362108486, 544795, 3718000
807413288070, 509384, 3718000
807453391768, 509384, 3707000
807490766091, 517290, 3707000
807549706038, 379115, 3707000
807587337861, 612150, 3707000
807627301350, 529526, 3707000
807674745101, 504512, 3708000
807714610309, 510575, 3708000
807754114997, 500830, 3708000
807793418382, 560063, 3708000
807850867653, 568076, 3708000
807889451715, 522812, 3708000
807928272236, 531367, 3690000
807966373121, 507543, 3690000
808006148851, 450693, 3690000
808052589476, 432284, 3690000
808098313121, 429252, 3690000
808157799892, 355832, 3690000
808218634996, 382796, 3720000
808274020309, 541763, 3720000
808314352080, 544253, 3720000
808373849318, 506353, 3720000
808428820465, 431093, 3713000
808480742027, 425570, 3713000
808532285621, 500180, 3713000
808596789944, 372942, 3713000
808643958590, 445711, 3713000
808694160881, 396873, 3707000
808745637860, 777180, 3707000
