394214453672, 548806, 3961000
394256788047, 899448, 3961000
394302433516, 803575, 3961000
394357408620, 583795, 3885000
394409612943, 650564, 3885000
394463623203, 701817, 3885000
394514991641, 653560, 3885000
394565097370, 528476, 3885000
394607941901, 476152, 3905000
394650981641, 515101, 3905000
394692669506, 577375, 3905000
394735671485, 419228, 3905000
394781619245, 454645, 3905000
394829404037, 548806, 3911000
394872249141, 449402, 3911000
394918730443, 390124, 3911000
394968373360, 379103, 3911000
395019377839, 453468, 3911000
395066170391, 609369, 3911000
395109203203, 396544, 3911000
395150962631, 444159, 3911000
395189733412, 439558, 3911000
395232362162, 461065, 3911000
395271808568, 450044, 3911000
395311855183, 464489, 3911000
395355537110, 202872, 3910000
395407115183, 383169, 3910000
395461212422, 339512, 3910000
395516796224, 301100, 3910000
395570529037, 459353, 3910000
395612885808, 408742, 3910000
395656518568, 404034, 3910000
395702512266, 422117, 3910000
395748343203, 406388, 3910000
395793237630, 386058, 3910000
395839805703, 407564, 3905000
395884416849, 404034, 3905000
395929580391, 473798, 3905000
395976155026, 422117, 3905000
396022306589, 398256, 3905000
396069464141, 406923, 3905000
396114568933, 431961, 3912000
396159177839, 438381, 3912000
396205535026, 399968, 3912000
396250348724, 397720, 3912000
396296027943, 412166, 3912000
396342891693, 396544, 3913000
396392652318, 387234, 3913000
396441344870, 385416, 3913000
396498205443, 417409, 3913000
396551639297, 341867, 3913000
396605492162, 375037, 3916000
396659372630, 376107, 3916000
396719451901, 358131, 3916000
396778388984, 361019, 3916000
396833095183, 353529, 3921000
396880422110, 450579, 3921000
396925015964, 520344, 3921000
396965690807, 429072, 3921000
397006147109, 401787, 3921000
397046466120, 599417, 3921000
397087770182, 502368, 3896000
397131435912, 429072, 3896000
397171330026, 444159, 3896000
397212428776, 642432, 3896000
397255880287, 532007, 3896000
397301199610, 431427, 3896000
397345268984, 453468, 3898000
397386952370, 442447, 3898000
397437191432, 311051, 3898000
397480483933, 420940, 3898000
397522600287, 444159, 3898000
397565837422, 434851, 3898000
397611768099, 391301, 3911000
397658411849, 479042, 3911000
397701662839, 425006, 3911000
397747390651, 364551, 3911000
397790637735, 504079, 3911000
397833802578, 458177, 3906000
397877302109, 393548, 3906000
397923119401, 444159, 3906000
397967336328, 442447, 3906000
398015931849, 327850, 3906000
398060781276, 590108, 3906000
398102866016, 430784, 3915000
398147959818, 391836, 3915000
398193581589, 393013, 3915000
398239116901, 445978, 3915000
398284358359, 497124, 3915000
398333014401, 411095, 3907000
398372868412, 459353, 3907000
398414280547, 427895, 3907000
398454575026, 389482, 3907000
398496209922, 458177, 3907000
398536110807, 527299, 3907000
398583886745, 311586, 3918000
398628429765, 196452, 3918000
398676249714, 451757, 3918000
398716480495, 418051, 3918000
398764416484, 342402, 3918000
398811623203, 432603, 3918000
398856161641, 484927, 3913000
398896548151, 541851, 3913000
398936946588, 562823, 3913000
398977121328, 442982, 3913000
399029770182, 442982, 3913000
399072208620, 432603, 3913000
399116412422, 481395, 3915000
399167370182, 608727, 3915000
399211209505, 366904, 3915000
399254614922, 430249, 3915000
399296889818, 552872, 3915000
399338432942, 443624, 3898000
399383455287, 404034, 3898000
399427074088, 501190, 3898000
399476598359, 312762, 3898000
399524137474, 437204, 3898000
399574568672, 440093, 3898000
399616758463, 504079, 3911000
399658402265, 441270, 3911000
399700762943, 447690, 3911000
399744311016, 451757, 3911000
399788936536, 456357, 3911000
399835569557, 561645, 3910000
399875231276, 532007, 3910000
399915570078, 456999, 3910000
399955577838, 473263, 3910000
399995889036, 434851, 3910000
400036514609, 447048, 3910000
400078247213, 396544, 3910000
400119337005, 437204, 3911000
400161199662, 396544, 3911000
400203036432, 457534, 3911000
400258439401, 538427, 3911000
400298596953, 447690, 3911000
400344449141, 325602, 3915000
400384511641, 437204, 3915000
400428714140, 331381, 3915000
400478470599, 338336, 3915000
400527734140, 355777, 3915000
400575424713, 413343, 3915000
400622433828, 402857, 3912000
400666975547, 384345, 3912000
400719879713, 359308, 3912000
400774714922, 369794, 3912000
400836225286, 383703, 3926000
400891227058, 355242, 3926000
400943952891, 349998, 3926000
400997412213, 350533, 3926000
401049589921, 381992, 3926000
401114574349, 310408, 3923000
401170973151, 328492, 3923000
401223522266, 330845, 3923000
401277223151, 343043, 3923000
401334924609, 340154, 3918000
401399731015, 376748, 3918000
401441837943, 416232, 3918000
401486027838, 475618, 3918000
401525975807, 497659, 3918000
401566804296, 438916, 3918000
401606647212, 592997, 3912000
401654245650, 341867, 3912000
401698303306, 443624, 3912000
401740688046, 390658, 3912000
401780959348, 490704, 3912000
401826992577, 416874, 3912000
401877615181, 366904, 3916000
401928250650, 390658, 3916000
401974952160, 433138, 3916000
402019899504, 400610, 3916000
402063129348, 447048, 3916000
402105798931, 470374, 3911000
402146593202, 503544, 3911000
402187360337, 488993, 3911000
402233158619, 350533, 3911000
402276072369, 506968, 3911000
402318192577, 492417, 3911000
402367268827, 346467, 3910000
402413154400, 418051, 3910000
402456421952, 455288, 3910000
402500874817, 453468, 3910000
402545313983, 432603, 3910000
402587941431, 445978, 3910000
402638969973, 409277, 3910000
402703023202, 379103, 3910000
402776637264, 300029, 3910000
402844129140, 369152, 3927000
402905574348, 312227, 3927000
402974947004, 298210, 3927000
403050901379, 230800, 3927000
403128635389, 280769, 3935000
403182352265, 437846, 3935000
403227709296, 482573, 3935000
403269378931, 438381, 3935000
403309526639, 411095, 3935000
403350618723, 445336, 3910000
403391651223, 417409, 3910000
403432747681, 440093, 3910000
403476094400, 500548, 3910000
403519225181, 494235, 3910000
403568422420, 484284, 3910000
403618898670, 384881, 3917000
403673631431, 369152, 3917000
403730716223, 318540, 3917000
403787207525, 416232, 3917000
403842979244, 329026, 3923000
403900525025, 376107, 3923000
403962961692, 319182, 3923000
404020078411, 320359, 3923000
404084045233, 324426, 3922000
404139950754, 344756, 3922000
404199518199, 330203, 3922000
404253552368, 324961, 3922000
404312494503, 323248, 3922000
404369482159, 333092, 3923000
404426587732, 323783, 3923000
404488158774, 387234, 3923000
404542748566, 420940, 3923000
404607603461, 313939, 3920000
404669617732, 434851, 3920000
404711031587, 430249, 3920000
404753432576, 470374, 3920000
404795166847, 434851, 3920000
404841143826, 482573, 3908000
404885389711, 396544, 3908000
404942052055, 356418, 3908000
404994224087, 363908, 3908000
405049726430, 356418, 3908000
405101084816, 351176, 3908000
405156624607, 327314, 3908000
405210923774, 386058, 3908000
405261713618, 484284, 3908000
405303357472, 458177, 3908000
405349612628, 548270, 3905000
405391227472, 434315, 3905000
405432935337, 444802, 3905000
405477522524, 513389, 3905000
405521645128, 432603, 3905000
405563239399, 456357, 3905000
405607258045, 419763, 3911000
405650272733, 400610, 3911000
405694253566, 488351, 3911000
405744124659, 382527, 3911000
405795457472, 405211, 3911000
405853923618, 405211, 3911000
405900395545, 509858, 3911000
405946729711, 365728, 3911000
405995183826, 380814, 3911000
406041666691, 363373, 3911000
406090104712, 397079, 3913000
406137703201, 369794, 3913000
406187466899, 367975, 3913000
406237445649, 370328, 3913000
406286228513, 378461, 3913000
406338622524, 427895, 3918000
406391302524, 375572, 3918000
406439385805, 388947, 3918000
406489198565, 383169, 3918000
406537887055, 451114, 3918000
406586396065, 375037, 3913000
406635084347, 393013, 3913000
406682191951, 431961, 3913000
406724108149, 419228, 3913000
406766173722, 486638, 3913000
406809921115, 433138, 3913000
406851396482, 429072, 3908000
406893602992, 463419, 3908000
406937541117, 447690, 3908000
406979634085, 435492, 3908000
407023610648, 438381, 3908000
407066994137, 484927, 3908000
407113185388, 420298, 3897000
407155635752, 553514, 3897000
407196284815, 519809, 3897000
407244349867, 338336, 3897000
407294187211, 193028, 3897000
407346166638, 464489, 3901000
407390041482, 468663, 3901000
407433679711, 180831, 3901000
407491535909, 394189, 3901000
407532261429, 436027, 3901000
407576048200, 463954, 3901000
407617333617, 513923, 3908000
407660947732, 430784, 3908000
407707041169, 420298, 3908000
407749306793, 565177, 3908000
407792000440, 402857, 3908000
407839093460, 394189, 3913000
407885392835, 419763, 3913000
407931417940, 379638, 3913000
407977521169, 390124, 3913000
408025545856, 549448, 3913000
408075700023, 393548, 3913000
408125561429, 358131, 3917000
408183330231, 320894, 3917000
408231316117, 442447, 3917000
408279294085, 444159, 3917000
408319270700, 486104, 3917000
408359321898, 448867, 3907000
408399291064, 408100, 3907000
408443557992, 192386, 3907000
408496449242, 399968, 3907000
408551032419, 422652, 3907000
408622492054, 242463, 3933000
408695485387, 273814, 3933000
408765595492, 262151, 3933000
408842966638, 264505, 3933000
408913177263, 365728, 3933000
408985495335, 291897, 3933000
409060587055, 297033, 3933000
409124397419, 327850, 3933000
409165750700, 442982, 3933000
409207330335, 477864, 3933000
409249427002, 617500, 3933000
409293712575, 464489, 3933000
409336192679, 517454, 3906000
409378047210, 521520, 3906000
409420973459, 431961, 3906000
409464735178, 452291, 3906000
409507195178, 447690, 3906000
409552883147, 205227, 3906000
409607465230, 592463, 3893000
409650405960, 453468, 3893000
409693810647, 460423, 3893000
409737559970, 395367, 3893000
409779767053, 507610, 3893000
409825527001, 400610, 3893000
409867172678, 442447, 3907000
409908419136, 617500, 3907000
409949542261, 440093, 3907000
409991269085, 489528, 3907000
410032598772, 431961, 3907000
410076173928, 513389, 3907000
410118393616, 422652, 3907000
410162733772, 396544, 3907000
410207921793, 406923, 3907000
410253174553, 398791, 3907000
410298200595, 404034, 3907000
410343572105, 394189, 3908000
410389113199, 423294, 3908000
410433764918, 462243, 3908000
410478783615, 458177, 3908000
410520247210, 523233, 3908000
410561619866, 195275, 3908000
410611208824, 445978, 3911000
410651563616, 199341, 3911000
410705446584, 425006, 3911000
410747899553, 427895, 3911000
410788931272, 439558, 3911000
410829204501, 604125, 3911000
410872590231, 392478, 3903000
410914594189, 434315, 3903000
410955975647, 502368, 3903000
410998921480, 555868, 3903000
411042822730, 384345, 3903000
411087838407, 391836, 3912000
411136641793, 380814, 3912000
411187794605, 405853, 3912000
411236715022, 373859, 3912000
411287532782, 399433, 3912000
411335943980, 367975, 3917000
411387764032, 367439, 3917000
411439756636, 381992, 3917000
411493501532, 375572, 3917000
411545291064, 309873, 3917000
411601421637, 366263, 3920000
411660269241, 422117, 3920000
411701983408, 197094, 3920000
411748433824, 452291, 3920000
411791845178, 468020, 3920000
411832989293, 459888, 3920000
411876289136, 393548, 3912000
411918088772, 438916, 3912000
411958969449, 622102, 3912000
412000606689, 444159, 3912000
412045781530, 427360, 3912000
412095895490, 433138, 3922000
412140279396, 524409, 3922000
412185642156, 396544, 3922000
412231724500, 548806, 3922000
412276660177, 397720, 3922000
412323559240, 451757, 3922000
412370295594, 405211, 3910000
412417658771, 404034, 3910000
412461035230, 449402, 3910000
412501510959, 419228, 3910000
412546385229, 436027, 3910000
412587397938, 503544, 3906000
412632855125, 400610, 3906000
412676727677, 442982, 3906000
412721728094, 333092, 3906000
412768764187, 432603, 3906000
412817831323, 321537, 3906000
412863690490, 420940, 3908000
412906232573, 508681, 3908000
412947606531, 538962, 3908000
412989967104, 440735, 3908000
413033747313, 426183, 3908000
413076261792, 509858, 3908000
413124995490, 332557, 3906000
413171290542, 421475, 3906000
413219535958, 423829, 3906000
413260889084, 448226, 3906000
413304870802, 423294, 3906000
413359653250, 453468, 3915000
413409015594, 375572, 3915000
413457846219, 365728, 3915000
413507304187, 371506, 3915000
413557732573, 305165, 3915000
413608861531, 514565, 3917000
413664169709, 384881, 3917000
413707517364, 611080, 3917000
413748880594, 553514, 3917000
413790557209, 431427, 3917000
413834019969, 441270, 3917000
413875673771, 476152, 3905000
413919336687, 469197, 3905000
413961193094, 605838, 3905000
414007081792, 465667, 3905000
414051329240, 398256, 3905000
414096076740, 420940, 3903000
414137606479, 509323, 3903000
414179635020, 490704, 3903000
414222699969, 438916, 3903000
414264129396, 434851, 3903000
414305450333, 429072, 3903000
414349016791, 540674, 3898000
414394143042, 460423, 3898000
414443925073, 388412, 3898000
414493824656, 370328, 3898000
414542003563, 384345, 3898000
414590661584, 380279, 3913000
414639061270, 381992, 3913000
414684343664, 436027, 3913000
414728381218, 430249, 3913000
414772355749, 396544, 3913000
414814487572, 436669, 3913000
414856215593, 524409, 3907000
414897267884, 441270, 3907000
414937922207, 446513, 3907000
414983818041, 434851, 3907000
415027601374, 383703, 3907000
415074339395, 411631, 3907000
415118857364, 572667, 3908000
415162922937, 389482, 3908000
415212180489, 350533, 3908000
415258010436, 399968, 3908000
415308876999, 411095, 3908000
415357226218, 405853, 3908000
415401777781, 391301, 3908000
415445879291, 405211, 3908000
415492020333, 395902, 3908000
415535082676, 390124, 3908000
415577202624, 503544, 3908000
415626669082, 333092, 3908000
415673725020, 462777, 3908000
415716622780, 482573, 3908000
415758001009, 533719, 3908000
415799643770, 478507, 3908000
415840598093, 472087, 3905000
415882775437, 429072, 3905000
415931579447, 381992, 3905000
415973472572, 199341, 3905000
416029388040, 368617, 3905000
416088049134, 324426, 3920000
416135237155, 456357, 3920000
416176670124, 506968, 3920000
416218040280, 524409, 3920000
416260838197, 543028, 3920000
416303145593, 433673, 3920000
416344846895, 444159, 3910000
416386938197, 497659, 3910000
416434845697, 445336, 3910000
416479078978, 428537, 3910000
416521184343, 395902, 3910000
416562299083, 469197, 3910000
416603859760, 461601, 3901000
416647654759, 400610, 3901000
416689987624, 611615, 3901000
416731281218, 434851, 3901000
416772726635, 439558, 3901000
416816884030, 494770, 3901000
416858739030, 545382, 3905000
416901255489, 434315, 3905000
416945851530, 455822, 3905000
416989939186, 465667, 3905000
417036838666, 390658, 3905000
417087247051, 409919, 3908000
417133394291, 197094, 3908000
417186958353, 403499, 3908000
417237156947, 400610, 3908000
417279810228, 595352, 3908000
417322196320, 433138, 3908000
417365367988, 473263, 3901000
417409584706, 609903, 3901000
417451476009, 504614, 3901000
417493128144, 458712, 3901000
417537846946, 400610, 3901000
417584644759, 394189, 3901000
417629122831, 515101, 3910000
417676043352, 377283, 3910000
417730921686, 311586, 3910000
417779881008, 367439, 3910000
417827948665, 517989, 3910000
417878880956, 387234, 3911000
417928517467, 373859, 3911000
417979282206, 416232, 3911000
418030610019, 344220, 3911000
418088122883, 325602, 3915000
418150280801, 484927, 3915000
418196247311, 447690, 3915000
418237526998, 455822, 3915000
418281604655, 426183, 3915000
418323937415, 476794, 3915000
418368128717, 437204, 3908000
418411346373, 413985, 3908000
418453459863, 431961, 3908000
418496432675, 430249, 3908000
418537658040, 536608, 3908000
418580391790, 526229, 3908000
418627322519, 469732, 3898000
418674868300, 329668, 3898000
418722482155, 440093, 3898000
418767376113, 431961, 3898000
418809451946, 566247, 3898000
418853789029, 447690, 3896000
418897594498, 495948, 3896000
418940110436, 494770, 3896000
418983644811, 386058, 3896000
419028264446, 465132, 3896000
419075377779, 662869, 3896000
419133468405, 598240, 3900000
419174203509, 466308, 3900000
419210657467, 429072, 3900000
419254054863, 202872, 3900000
419296450383, 204050, 3900000
419340162624, 454110, 3906000
419384623821, 456357, 3906000
419422801790, 434315, 3906000
419464341738, 529118, 3906000
419505319863, 509858, 3906000
419544792206, 427895, 3906000
419584663977, 481395, 3906000
419625171113, 457534, 3907000
419663362467, 429072, 3907000
419704547206, 469732, 3907000
419745400904, 434315, 3907000
419784823352, 568066, 3907000
419823127780, 472728, 3907000
419863441738, 390124, 3911000
419905573247, 492417, 3911000
419944977830, 601771, 3911000
419989255330, 552872, 3911000
420033357831, 345932, 3911000
420076097049, 432603, 3911000
420115124028, 412166, 3901000
420155185278, 510499, 3901000
420195562570, 551802, 3901000
420235164393, 461601, 3901000
420275706945, 509323, 3901000
420315629758, 433673, 3901000
420354348039, 432603, 3887000
420395149341, 457534, 3887000
420436004028, 427360, 3887000
420474959862, 451757, 3887000
420514437570, 426718, 3887000
420556695174, 429607, 3887000
420601478560, 330845, 3898000
420640515070, 431427, 3898000
420680263716, 480860, 3898000
420720434706, 408100, 3898000
420759848299, 458177, 3898000
420800127362, 419763, 3898000
420840423091, 507610, 3898000
420885774341, 449402, 3898000
420933984601, 405211, 3898000
420977025278, 535431, 3898000
421022366372, 413343, 3898000
421072124654, 355242, 3898000
421124756841, 406923, 3918000
421187812466, 312227, 3918000
421235631633, 473263, 3918000
421275935122, 457534, 3918000
421315681424, 448867, 3918000
421359148559, 714015, 3895000
421401240383, 444802, 3895000
421445996424, 532542, 3895000
421502745331, 377926, 3895000
421555540382, 517454, 3895000
421597399445, 477864, 3905000
421643324133, 380814, 3905000
421689778768, 461601, 3905000
421731937727, 464489, 3905000
421772535591, 448226, 3905000
421813872310, 472728, 3905000
421859046059, 364551, 3886000
421906375591, 374394, 3886000
421951319654, 412808, 3886000
421995985382, 401787, 3886000
422044240122, 388412, 3886000
422095342518, 365086, 3911000
422145202414, 363373, 3911000
422194793768, 361019, 3911000
422246621632, 380279, 3911000
422298579601, 352887, 3911000
422348386215, 491882, 3915000
422401450018, 367439, 3915000
422450495748, 374394, 3915000
422500550643, 371506, 3915000
422551127620, 391301, 3915000
422600506892, 388947, 3911000
422650546059, 384345, 3911000
422702295851, 376748, 3911000
422751622465, 381350, 3911000
422800942465, 438381, 3911000
422851704549, 379638, 3915000
422901715799, 374394, 3915000
422951676632, 374394, 3915000
423001742674, 373859, 3915000
423052008455, 386058, 3915000
423101631007, 370970, 3913000
423152061424, 386058, 3913000
423201931892, 362732, 3913000
423252749184, 442982, 3913000
423303049288, 418586, 3913000
423354380538, 482573, 3906000
423407948767, 376107, 3906000
423463118350, 380814, 3906000
423515747517, 429072, 3906000
423559459183, 191210, 3906000
423613722205, 383169, 3906000
423657843350, 452291, 3906000
423702862153, 437204, 3906000
423750529757, 440093, 3906000
423797271996, 423829, 3906000
423846415173, 501190, 3907000
423898474808, 416232, 3907000
423947196788, 398791, 3907000
424000777101, 420298, 3907000
424066541475, 326779, 3907000
424136082309, 262793, 3925000
424216848663, 268571, 3925000
424303323142, 308162, 3925000
424390139809, 254018, 3931000
424476072204, 323248, 3931000
424554893194, 261616, 3931000
424645463090, 285477, 3932000
424728386892, 247063, 3932000
424809945433, 263969, 3932000
424895714027, 252842, 3930000
424988539027, 251130, 3930000
425073563923, 268571, 3930000
425162036473, 237755, 3931000
425255086579, 236577, 3931000
425349209912, 236043, 3933000
425399026735, 485462, 3933000
425448032464, 479683, 3933000
425496820224, 411631, 3933000
425543985224, 429072, 3933000
425592804235, 445336, 3907000
425639854026, 469732, 3907000
425688178766, 426718, 3907000
425738129235, 428537, 3907000
425785552933, 455288, 3907000
425836570901, 444159, 3907000
425884925224, 465667, 3906000
425939408089, 390658, 3906000
425987537620, 423294, 3906000
426038531734, 470374, 3906000
426091637152, 480860, 3896000
426139661214, 480218, 3896000
426195493193, 419228, 3896000
426244748818, 426718, 3896000
426291954756, 440093, 3896000
426340130641, 491239, 3902000
426390089548, 391836, 3902000
426439046161, 423829, 3902000
426490542516, 500548, 3902000
426541757256, 438916, 3902000
426590118871, 561645, 3902000
426641212881, 491239, 3901000
426692070172, 463419, 3901000
426741116006, 494770, 3901000
426789675016, 487173, 3901000
426842070277, 445978, 3895000
426893184808, 476152, 3895000
426947297464, 426718, 3895000
427004867360, 386593, 3895000
427069073922, 509858, 3895000
427130654652, 427360, 3915000
427190951579, 507610, 3915000
427250404548, 382527, 3915000
427304621422, 429072, 3915000
427355600745, 436669, 3895000
427405517412, 438916, 3895000
427459241318, 512854, 3895000
427513018870, 441912, 3895000
427567147672, 505257, 3895000
427619285328, 445978, 3906000
427673044704, 430784, 3906000
427725509287, 394725, 3906000
427780187201, 410454, 3906000
427842442828, 399433, 3912000
427901139078, 404034, 3912000
427957440327, 418586, 3912000
428013110015, 392478, 3912000
428072217307, 437204, 3912000
428128808921, 422652, 3912000
428187119807, 401787, 3912000
428243826421, 403499, 3912000
428299191838, 508145, 3912000
428355637463, 427895, 3891000
428412692255, 430249, 3891000
428464546890, 426183, 3891000
428518211786, 442447, 3891000
428570524911, 480860, 3891000
428640192984, 388412, 3911000
428691631994, 397720, 3911000
428747589650, 398256, 3911000
428810686942, 442447, 3911000
428871532255, 401144, 3913000
428934231734, 359308, 3913000
428990997672, 414519, 3913000
429052590744, 401787, 3913000
429114283557, 404676, 3898000
429187839442, 252842, 3898000
429293526838, 315651, 3898000
429393617098, 258085, 3930000
429487489286, 265147, 3930000
429589376317, 291255, 3931000
429700523974, 315651, 3931000
429761957515, 521520, 3931000
429821086369, 437846, 3931000
429879465275, 422652, 3908000
429948372619, 343043, 3908000
430012010536, 447690, 3908000
430067572983, 323248, 3908000
430132659546, 454110, 3916000
430192490901, 445978, 3916000
430256206473, 441270, 3916000
430310683869, 534360, 3916000
430366120171, 438916, 3907000
430422814336, 437846, 3907000
430478547253, 438916, 3907000
430538575326, 572132, 3907000
430594624233, 549983, 3903000
430652284702, 442982, 3903000
430708367774, 470909, 3903000
430763031368, 474976, 3903000
430819325795, 398791, 3903000
430874866941, 444802, 3907000
430930633556, 462243, 3907000
430991556629, 437204, 3907000
431045854493, 437204, 3907000
431106081108, 442982, 3895000
431160958712, 536073, 3895000
431220261473, 423294, 3895000
431285355691, 429607, 3895000
431348978555, 430784, 3907000
431408089753, 431961, 3907000
431464998295, 494235, 3907000
431521897254, 489528, 3907000
431580717775, 437846, 3907000
431648839232, 576733, 3900000
431706854806, 527299, 3900000
431765978556, 586684, 3900000
431823329962, 486638, 3900000
431881059754, 450044, 3907000
431938632618, 448867, 3907000
431996851785, 423829, 3907000
432053171212, 445978, 3907000
432111615691, 461601, 3897000
432373037254, 600059, 3893000
432417344649, 631410, 3893000
432462081681, 599417, 3893000
432504346420, 447048, 3893000
432544606524, 487173, 3893000
432581736681, 438916, 3893000
432626779024, 461601, 3905000
432664656733, 536073, 3905000
432704813764, 454645, 3905000
432746276785, 463954, 3905000
432784388816, 439558, 3905000
432829011211, 356418, 3905000
432879335534, 428537, 3913000
432925107358, 440735, 3913000
432964999337, 449402, 3913000
433004798815, 510499, 3913000
433045038710, 542493, 3913000
433100724753, 494235, 3910000
433148213711, 331916, 3910000
433191167513, 344756, 3910000
433235004336, 444159, 3910000
433274923971, 408100, 3910000
433316451836, 427360, 3910000
433356062096, 527299, 3893000
433395615273, 431961, 3893000
433436416003, 399433, 3893000
433482223294, 470374, 3893000
433525365013, 528476, 3893000
433565677044, 527299, 3893000
433606258398, 427360, 3895000
433646092565, 496483, 3895000
433693248242, 306342, 3895000
433745781992, 337801, 3895000
433795350950, 403499, 3895000
433843204336, 391836, 3913000
433892228555, 380814, 3913000
433947574804, 377283, 3913000
434002592409, 341867, 3913000
434042975846, 456999, 3913000
434086774805, 372041, 3913000
434129447200, 428537, 3910000
434170981836, 618035, 3910000
434211319232, 466308, 3910000
434255049753, 409919, 3910000
434298140065, 404034, 3910000
434338825169, 450579, 3910000
434379302669, 442447, 3898000
434420456732, 419228, 3898000
434467171367, 427360, 3898000
434514450430, 386593, 3898000
434565847930, 380279, 3898000
434615255221, 382527, 3900000
434664951940, 412808, 3900000
434724080169, 378461, 3900000
434772105065, 379103, 3900000
434820493815, 373218, 3900000
434869180273, 363908, 3913000
434919090950, 490169, 3913000
434969655429, 367975, 3913000
435020099336, 386058, 3913000
435070658399, 466308, 3913000
435119401627, 382527, 3916000
435169619856, 375037, 3916000
435219604960, 445336, 3916000
435270651888, 354064, 3916000
435320289545, 370970, 3916000
435370918138, 372041, 3915000
435420613920, 405211, 3915000
435470422253, 375572, 3915000
435519623346, 486638, 3915000
435562526576, 196452, 3915000
435615472096, 450579, 3900000
435658836417, 435492, 3900000
435704284648, 383169, 3900000
435749556939, 429607, 3900000
435796547877, 429607, 3900000
435842219700, 238932, 3900000
435891198762, 412166, 3903000
435936366939, 486638, 3903000
435981640689, 454110, 3903000
436026086887, 436669, 3903000
436069660324, 447690, 3903000
436117049126, 465132, 3898000
436162565637, 625633, 3898000
436207423970, 393548, 3898000
436253322148, 429072, 3898000
436298676626, 495948, 3898000
436344667200, 445978, 3905000
436389121418, 428537, 3905000
436435681314, 433673, 3905000
436482386054, 394189, 3905000
436528574595, 501190, 3905000
436575210689, 436027, 3905000
436620142148, 441270, 3908000
436665145585, 431427, 3908000
436718069647, 329026, 3908000
436768086105, 438381, 3908000
436816328501, 439558, 3908000
436863539752, 434315, 3888000
436908165845, 560469, 3888000
436956123554, 434315, 3888000
437002741627, 419763, 3888000
437047984439, 472087, 3888000
437094829856, 418586, 3897000
437140893919, 431427, 3897000
437189035324, 497659, 3897000
437237032772, 423829, 3897000
437287432043, 478507, 3897000
437337411418, 435492, 3897000
437382464335, 497124, 3905000
437430870898, 421475, 3905000
437480303294, 405211, 3905000
437532147877, 383169, 3905000
437580990846, 396544, 3905000
437630571887, 401787, 3908000
437682720168, 391836, 3908000
437736287408, 401787, 3908000
437787034803, 398256, 3908000
437836756418, 397720, 3908000
437886327408, 404676, 3908000
437938999178, 432603, 3908000
437990068033, 398791, 3908000
438041304439, 383703, 3908000
438091711418, 436027, 3908000
438142420898, 394189, 3910000
438192491627, 438381, 3910000
438243605324, 402857, 3910000
438293318031, 399433, 3910000
438345824959, 427360, 3913000
438405789230, 368617, 3913000
438462643240, 445978, 3913000
438548849594, 362732, 3913000
438593672876, 380279, 3913000
438637270480, 376748, 3913000
438678221105, 434315, 3913000
438715423761, 425006, 3913000
438754490949, 425541, 3913000
438794073449, 437846, 3913000
438835217824, 594174, 3913000
438874951938, 441912, 3906000
438912228292, 434851, 3906000
438951826105, 438381, 3906000
438989139959, 422117, 3906000
439030108293, 374394, 3906000
439069238344, 422117, 3906000
439111653136, 344220, 3900000
439153530115, 456999, 3900000
439193839699, 440735, 3900000
439243147355, 583153, 3900000
439287681000, 545917, 3900000
439329515531, 349998, 3900000
439373499438, 481395, 3902000
439414869646, 397720, 3902000
439456420219, 501190, 3902000
439497474438, 442447, 3902000
439538565063, 497124, 3902000
439580273761, 384881, 3902000
439619660948, 450044, 3906000
439665472198, 331916, 3906000
439715943917, 592997, 3906000
439755868605, 486104, 3906000
439794492355, 433138, 3906000
439835271782, 465667, 3906000
439877664229, 458177, 3901000
439919562354, 419763, 3901000
439964241365, 196452, 3901000
440015699073, 461065, 3901000
440054510844, 425541, 3901000
440097055219, 394725, 3908000
440137530375, 458712, 3908000
440177556052, 436669, 3908000
440217294438, 488351, 3908000
440266875584, 334912, 3908000
440312761417, 438381, 3908000
440355614594, 536073, 3898000
440398489125, 331916, 3898000
440439996365, 472728, 3898000
440481055063, 451114, 3898000
440522170428, 455822, 3898000
440565880219, 508145, 3898000
440606175219, 534895, 3903000
440647596573, 434851, 3903000
440689672458, 597705, 3903000
440731969699, 655271, 3903000
440772700636, 420940, 3903000
440816343865, 448226, 3903000
440856747615, 443624, 3900000
440902518342, 399433, 3900000
440954779073, 320894, 3900000
441002447354, 397079, 3900000
441046943291, 446513, 3900000
441095886677, 453468, 3910000
441146337354, 448226, 3910000
441190592198, 470909, 3910000
441234828239, 423829, 3910000
441276455635, 462777, 3910000
441318061833, 433673, 3910000
441364284698, 402857, 3906000
441408132979, 495306, 3906000
441450822198, 440735, 3906000
441496916572, 448226, 3906000
441538779958, 442447, 3906000
441582193344, 440093, 3906000
441625031364, 438381, 3906000
441668817822, 438916, 3906000
441712634698, 429607, 3906000
441763480010, 352887, 3906000
441808233239, 548270, 3906000
441855027093, 435492, 3906000
441898817041, 442447, 3906000
441941389802, 614611, 3906000
441984519125, 454645, 3906000
442027514906, 447048, 3906000
442070407146, 424471, 3906000
442115855479, 433673, 3898000
442158959853, 440735, 3898000
442202358708, 445978, 3898000
442246698552, 470374, 3898000
442297946676, 377283, 3898000
442354477823, 358131, 3906000
442403457093, 425006, 3906000
442452118760, 427895, 3906000
442500071937, 396544, 3906000
442547723812, 402322, 3906000
442595835687, 405853, 3908000
442647470010, 385416, 3908000
442697852718, 513389, 3908000
442746460010, 393013, 3908000
442798769437, 381992, 3908000
442856139958, 382527, 3915000
442919946989, 306984, 3915000
442982239177, 340689, 3915000
443041381573, 338336, 3915000
443110348552, 324961, 3921000
443172299594, 369794, 3921000
443240127146, 316293, 3921000
443300463604, 338336, 3921000
443360872354, 436027, 3916000
443407715583, 495948, 3916000
443452889125, 448867, 3916000
443504540633, 377283, 3916000
443553597665, 468020, 3916000
443598743498, 483749, 3895000
443646000478, 459888, 3895000
443693132718, 400610, 3895000
443739435425, 484284, 3895000
443785174332, 440093, 3895000
443831083603, 446513, 3895000
443877173915, 462777, 3900000
443924708863, 447048, 3900000
443971161207, 429607, 3900000
444018402196, 445336, 3900000
444069971363, 376748, 3900000
444121068603, 406923, 3901000
444171785166, 484284, 3901000
444222626988, 401144, 3901000
444288291155, 397079, 3901000
444338685894, 419763, 3901000
444389842821, 523233, 3907000
444444073967, 444159, 3907000
444492624436, 455288, 3907000
444539633602, 470374, 3907000
444590775582, 400610, 3907000
444638556623, 443624, 3900000
444699310113, 582618, 3900000
444762371155, 515743, 3900000
444797321988, 463954, 3900000
444834895426, 463954, 3900000
444871783447, 330203, 3905000
444912999540, 463954, 3905000
444949634748, 455288, 3905000
444993478915, 351711, 3905000
445034606676, 483107, 3905000
445075067144, 426718, 3905000
445116455790, 565177, 3897000
445160203030, 461601, 3897000
445197035738, 441912, 3897000
445235207769, 563358, 3897000
445274813915, 461601, 3897000
445312507874, 197630, 3897000
445364687196, 454110, 3896000
445405699540, 503544, 3896000
445445085999, 578553, 3896000
445489934540, 451757, 3896000
445534665321, 480218, 3896000
445575032092, 461601, 3896000
445615358863, 529653, 3892000
445655370998, 512212, 3892000
445695144853, 570420, 3892000
445735273759, 508145, 3892000
445775104592, 567424, 3892000
445815643186, 505792, 3892000
445855306207, 578553, 3902000
445895643811, 536608, 3902000
445935354488, 482573, 3902000
445975349436, 547094, 3902000
446015619696, 533184, 3902000
446055813082, 534895, 3902000
446095431884, 591928, 3902000
446135893860, 466843, 3907000
446181072300, 487815, 3907000
446227572716, 555226, 3907000
446268806414, 491882, 3907000
446315836831, 480218, 3907000
446368979383, 201696, 3902000
446438162768, 269213, 3902000
446516213550, 474440, 3902000
446556997925, 487173, 3902000
446597643133, 464489, 3903000
446645539279, 548806, 3903000
446687100060, 505792, 3903000
446732190685, 327314, 3903000
446781405217, 433138, 3903000
446824396883, 436027, 3903000
446868738133, 422117, 3908000
446913558081, 438381, 3908000
446956456831, 533719, 3908000
446997157143, 498837, 3908000
447041303654, 412808, 3908000
447082748810, 450579, 3908000
447127430685, 440735, 3896000
447171252821, 409277, 3896000
447214268498, 452291, 3896000
447255357873, 411631, 3896000
447299371570, 454110, 3896000
447341984435, 431427, 3896000
447383601466, 473798, 3900000
447425992300, 531364, 3900000
447471989956, 386058, 3900000
447515102300, 477329, 3900000
447558988653, 457534, 3900000
447601175373, 497124, 3905000
447644317143, 429072, 3905000
447687436466, 498302, 3905000
447731940164, 405853, 3905000
447774862664, 436669, 3905000
447819101987, 593639, 3905000
447862855112, 445336, 3895000
447907780737, 527299, 3895000
447951814956, 411095, 3895000
447997701049, 453468, 3895000
448042931831, 474976, 3895000
448091193602, 401144, 3895000
448135214227, 444802, 3893000
448181717717, 481395, 3893000
448229001310, 411631, 3893000
448280742248, 361019, 3893000
448336520841, 317470, 3893000
448380617769, 423829, 3897000
448425703706, 432603, 3897000
448469109122, 440093, 3897000
448514675373, 198806, 3897000
448568374643, 441270, 3897000
448616755841, 399433, 3902000
448663958810, 476794, 3902000
448707925372, 495306, 3902000
448755558912, 400610, 3902000
448804900997, 407564, 3902000
448853541830, 406388, 3907000
448902986934, 408742, 3907000
448951939330, 469732, 3907000
448999706934, 397720, 3907000
449048423288, 419228, 3907000
449107833028, 367439, 3913000
449168154382, 316828, 3913000
449233733913, 311586, 3913000
449296998549, 337158, 3913000
449354085632, 355777, 3916000
449412504591, 448867, 3916000
449473709382, 355242, 3916000
449531957924, 489528, 3916000
449594756361, 363908, 3916000
449652835372, 358131, 3915000
449713097559, 383169, 3915000
449774228497, 608191, 3915000
449823704018, 437204, 3915000
449869500215, 640185, 3887000
449917069538, 476794, 3887000
449965682924, 466843, 3887000
450014443913, 393013, 3887000
450065048288, 431961, 3887000
450112316101, 411631, 3890000
450162028184, 405211, 3890000
450211863601, 452291, 3890000
450262363861, 405211, 3890000
450312297351, 402857, 3890000
450362361986, 450579, 3908000
450412859278, 461065, 3908000
450463146413, 404034, 3908000
450512789382, 388412, 3908000
450565381101, 405211, 3908000
450617981778, 403499, 3896000
450671047143, 384881, 3896000
450727822975, 393013, 3896000
450786221673, 559292, 3896000
450836576569, 605838, 3896000
450875497871, 469197, 3887000
450914337142, 497124, 3887000
450954430319, 486638, 3887000
450994398913, 494770, 3887000
451034416049, 491239, 3887000
451075005476, 438381, 3887000
451114579538, 472728, 3896000
451153396101, 450579, 3896000
451194305215, 488351, 3896000
451234446674, 493593, 3896000
451274567038, 438916, 3896000
451312764590, 440735, 3896000
451350630683, 427360, 3898000
451389518025, 529118, 3898000
451429234850, 387234, 3898000
451467731777, 468020, 3898000
451505366100, 565712, 3898000
451545071777, 423829, 3898000
451584813756, 516920, 3898000
451625196412, 430249, 3903000
451665125891, 555868, 3903000
451705314329, 492417, 3903000
451745022662, 549448, 3903000
451785132141, 490169, 3903000
451825108808, 438916, 3903000
451865157871, 432603, 3888000
451904825475, 385416, 3888000
451951371777, 373218, 3888000
451995795423, 486638, 3888000
452045924798, 333092, 3888000
452087333756, 483749, 3888000
452126085631, 473798, 3901000
452166848339, 440093, 3901000
452205687506, 527940, 3901000
452245707714, 525052, 3901000
452285568756, 585508, 3901000
452326360943, 420940, 3901000
452370601100, 327314, 3901000
452409650579, 440735, 3901000
452452349017, 422117, 3901000
452493640631, 455288, 3901000
452536917245, 461065, 3901000
452580543079, 382527, 3901000
452626986725, 320359, 3903000
452678672818, 508145, 3903000
452719410891, 447690, 3903000
452760916985, 527940, 3903000
452800189277, 557045, 3903000
452842246360, 197630, 3903000
452892407975, 452291, 3923000
452936263548, 471552, 3923000
452978243599, 461065, 3923000
453021920840, 446513, 3923000
453062804589, 436027, 3923000
453106957714, 618678, 3897000
453147394537, 436669, 3897000
453188590058, 504614, 3897000
453230465892, 433673, 3897000
453272776256, 449402, 3897000
453317173131, 434851, 3897000
453359427662, 448867, 3891000
453401866569, 431427, 3891000
453446929277, 537250, 3891000
453491956517, 457534, 3891000
453534318027, 455822, 3891000
453575045787, 458177, 3891000
453621885527, 395367, 3900000
453665055162, 438381, 3900000
453707382297, 489528, 3900000
453750514069, 450044, 3900000
453793720214, 434851, 3900000
453835936777, 523875, 3900000
453884212714, 436027, 3912000
453929576464, 501726, 3912000
453977616776, 425006, 3912000
454030210838, 370970, 3912000
454077860369, 372683, 3912000
454127905838, 369794, 3912000
454181796047, 366263, 3912000
454231217089, 379103, 3912000
454283503495, 372041, 3912000
454334614640, 413985, 3912000
454387126619, 363373, 3906000
454436828130, 373859, 3906000
454489254432, 401787, 3906000
454545800526, 348822, 3906000
454598572974, 422652, 3911000
454651499068, 372041, 3911000
454704092297, 311586, 3911000
454760902141, 322071, 3911000
454819179848, 431427, 3911000
454864601463, 461065, 3888000
454908354744, 488993, 3888000
454957999171, 430784, 3888000
455005964484, 414519, 3888000
455052530995, 484284, 3888000
455099108807, 524409, 3888000
455143437141, 195275, 3901000
455197184953, 433138, 3901000
455247850786, 441912, 3901000
455308867973, 317470, 3901000
455369983025, 369152, 3918000
455436634901, 303453, 3918000
455496372765, 387234, 3918000
455548844171, 492417, 3918000
455594562817, 441912, 3918000
455646887869, 391836, 3906000
455704351515, 375572, 3906000
455764442870, 337158, 3906000
455825287036, 331381, 3906000
455888929171, 323783, 3917000
455952439224, 375572, 3917000
455998897817, 477864, 3917000
456046796567, 419763, 3917000
456093678338, 231335, 3917000
456148313755, 505792, 3910000
456194759120, 452291, 3910000
456239767452, 441912, 3910000
456286814901, 447048, 3910000
456336194692, 431961, 3910000
456381759745, 424471, 3903000
456429842400, 479683, 3903000
456480558182, 373218, 3903000
456531910630, 440735, 3903000
456589128963, 383703, 3903000
456647250785, 359308, 3907000
456713102817, 323248, 3907000
456783096358, 330203, 3907000
456858333962, 312227, 3922000
456942478390, 254661, 3922000
457027814691, 245887, 3922000
457111123702, 260438, 3927000
457192948442, 293609, 3927000
457278369743, 248241, 3927000
457361189015, 276168, 3925000
457453906046, 245887, 3925000
457557725160, 229088, 3925000
457654049379, 252307, 3928000
457703187921, 527940, 3928000
457750400577, 504614, 3928000
457800729848, 478507, 3928000
457848849066, 534895, 3928000
457897190785, 445336, 3903000
457949968649, 490704, 3903000
457998882295, 484284, 3903000
458054385525, 457534, 3903000
458104000681, 522698, 3897000
458153792296, 433673, 3897000
458204212400, 441912, 3897000
458254764223, 472087, 3897000
458308660264, 480860, 3897000
458362118702, 466843, 3902000
458415375316, 390124, 3902000
458466176983, 434851, 3902000
458520358859, 406923, 3902000
458573056931, 456999, 3902000
458624522973, 376748, 3895000
458678893806, 427360, 3895000
458736067973, 420298, 3895000
458792629171, 407564, 3895000
458850572244, 622744, 3900000
458938726670, 575556, 3900000
