673574727230, -481100, 4072866
673623712427, -500800, 4076124
673666990316, -505300, 4065756
673708162298, -531800, 4097451
673754583784, -451200, 4085307
673801585157, -469000, 4074348
673846083860, -481800, 4099821
673887469485, -459800, 4082640
673931846108, -504800, 4095081
673981655355, -463300, 4096563
674034241956, -428700, 4082937
674082738828, -443100, 4078197
674132578596, -459800, 4076718
674179457887, -416100, 4100118
674246877391, -383800, 4086492
674283746000, -397600, 4106040
674327664815, -321100, 4105449
674378816960, -271600, 4107819
674427130709, -294100, 4102488
674471202127, -383300, 4107819
674516311236, -431700, 4107819
674559802768, -386200, 4109298
674607628191, -353400, 4102782
674659787507, -341300, 4107522
674708986348, -359100, 4100118
674760779420, -372400, 4109298
674808330159, -362000, 4099227
674853195108, -395900, 4107522
674901386775, -357400, 4107819
674942894481, -431000, 4089453
674998533120, -276800, 4107819
675039430419, -415600, 4107225
675079808872, -442600, 4106337
675119393795, -431000, 4106040
675158673514, -402800, 4087971
675202683891, -456400, 4109298
675262320698, -269900, 4093896
675307399288, -348700, 4098636
675352020072, -403500, 4091526
675407414549, -336600, 4108707
675486157109, -310700, 4102782
675535630633, -393100, 4095969
675589712732, -365500, 4108116
675638942093, -330400, 4093896
675690368921, -314200, 4095675
675743901654, -356800, 4096860
675803050135, -330900, 4108707
675857315357, -348200, 4084713
675905140780, -387300, 4109595
675953851295, -414900, 4106634
675996579815, -419000, 4091526
676046297503, -417300, 4105152
676114022209, -415600, 4087677
676165845801, -400000, 4107819
676210619187, -397600, 4106040
676252035333, -387900, 4106040
676295923628, -434500, 4099524
676338102784, -375800, 4101597
676385592482, -379800, 4107819
676427527473, -410400, 4108116
676479228985, -337800, 4105152
676529740201, -347500, 4105152
676572468722, -401700, 4093305
676620996113, -403500, 4090935
676671720972, -401100, 4101894
676724002371, -404000, 4101894
676781838475, -379300, 4075827
676826642384, -439600, 4099524
676876482152, -448300, 4099524
676924704340, -457600, 4090341
676969569286, -469000, 4075533
677009947738, -468500, 4098933
677054660084, -484000, 4087677
677096167790, -463300, 4097451
677136973530, -469000, 4098636
677176497412, -466700, 4094490
677228382044, -380400, 4106634
677280541360, -306200, 4107819
677340727535, -333800, 4111077
677418646045, -345800, 4110780
677471171607, -358500, 4106337
677523880290, -245700, 4110189
677579488407, -337300, 4095081
677629999623, -385500, 4105746
677677519843, -394200, 4095675
677726840765, -388500, 4093008
677775703883, -367700, 4094193
677828015800, -362000, 4106337
677876909436, -407500, 4094490
677928244702, -354500, 4109298
677980373499, -376400, 4090638
678062107055, -352200, 4090341
678106392116, -345800, 4109595
678150463533, -363100, 4108116
678197434386, -327500, 4103967
678245900737, -361400, 4104561
678299769195, -308400, 4109298
678349456361, -355600, 4102191
678398990926, -356800, 4099821
678460245313, -247400, 4087083
678503187476, -409700, 4105152
678547075772, -428200, 4109892
678594840154, -372900, 4100709
678639338859, -391900, 4104561
678688507178, -338400, 4098339
678740056086, -326900, 4108707
678788827642, -356200, 4098339
678841383722, -348200, 4107819
678899311389, -347000, 4108116
678951562267, -349300, 4096860
679000944229, -344100, 4108410
679059299182, -360300, 4091232
679099616593, -362000, 4109298
679146953690, -369500, 4097748
679199723415, -356800, 4109595
679259329702, -326900, 4091526
679301875100, -345800, 4090638
679356231884, -333800, 4108410
679400791628, -408600, 4107522
679451547006, -349300, 4085898
679507033043, -343000, 4108707
679567493901, -372900, 4108410
679617669393, -410900, 4093305
679670896923, -337800, 4108707
679719088591, -399400, 4106040
679768653675, -368900, 4107522
679820965594, -271600, 4108116
679870805362, -355100, 4108410
679919332753, -367700, 4109298
679972865487, -330900, 4093896
680049593702, -363700, 4089156
680090216318, -387900, 4106040
680132883799, -381600, 4100709
680187912030, -268200, 4102191
680239308337, -360800, 4104561
680290460482, -362000, 4108116
680338926833, -303300, 4101006
680389712732, -356800, 4099524
680438728451, -338400, 4109298
680489636431, -357900, 4107225
680541734706, -240500, 4109892
680603141697, -261300, 4101894
680652004812, -344100, 4105152
680702210824, -356800, 4107819
680744786744, -410900, 4096266
680799265608, -356200, 4109004
680849319020, -312400, 4109595
680902577069, -343000, 4108116
680951501227, -352700, 4099821
681002439728, -349300, 4097451
681053622392, -340100, 4095969
681096015188, -413800, 4095081
681150677176, -357900, 4106931
681198899364, -363100, 4095081
681249990467, -371700, 4108707
681295801546, -335400, 4095969
681347808261, -350500, 4106040
681400761106, -333800, 4107225
681445717616, -382100, 4108707
681500806887, -331500, 4106634
681549914166, -358500, 4106931
681615319325, -237600, 4094784
681669248822, -419000, 4107819
681716585919, -390700, 4093008
681769019920, -366500, 4106337
681817211587, -356800, 4094490
681869309862, -302100, 4106634
681946465364, -219300, 4094193
682028809328, -339500, 4089750
682065891582, -398300, 4103079
682115914472, -300400, 4104264
682160565776, -334900, 4104855
682208696403, -324500, 4102488
682252279495, -400000, 4107225
682295038537, -397100, 4101006
682342039909, -343500, 4100709
682399448731, -300400, 4109298
682442085691, -388500, 4100118
682499250348, -355600, 4092120
682536759886, -421800, 4100412
682583456056, -377600, 4098045
682628290482, -397100, 4107225
682679900432, -286000, 4110189
682729618119, -381000, 4098045
682787301622, -313600, 4099524
682839857703, -359600, 4097451
682890643603, -317100, 4105746
682937126130, -391900, 4105449
682990994588, -360300, 4107225
683038057002, -361400, 4109595
683080632921, -405700, 4070496
683127786896, -382100, 4097154
683176192206, -356200, 4102191
683228473605, -353900, 4091526
683278740658, -313100, 4097451
683352111633, -330900, 4106931
683401768278, -364800, 4107522
683454538002, -349900, 4108410
683523239361, -316500, 4110483
683577840307, -363100, 4094784
683650845038, -235300, 4109595
683696595075, -394800, 4093599
683750982379, -347500, 4091526
683798044793, -359100, 4092120
683853378229, -359100, 4095969
683912587751, -269300, 4094784
683966395167, -396600, 4106931
684039644060, -345300, 4091232
684090185797, -373500, 4105746
684134074092, -395900, 4109298
684176192207, -424100, 4106931
684218737606, -366500, 4091823
684269126740, -317100, 4106337
684316097593, -359600, 4100709
684369264082, -307300, 4107819
684419805818, -343500, 4106040
684468974139, -362500, 4106040
684519393794, -359100, 4107819
684569813448, -335400, 4104264
684618981769, -353400, 4106634
684670317035, -346500, 4106337
684719058069, -368900, 4106337
684769782928, -330400, 4107819
684818462923, -350500, 4106634
684870713799, -333200, 4109004
684920370446, -312400, 4108116
684970790100, -310700, 4108707
685021362357, -298600, 4106040
685080877085, -263500, 4107522
685142467195, -227900, 4109595
685202470247, -267000, 4095081
685250570354, -344100, 4102782
685310542886, -260600, 4107225
685354858466, -383800, 4107522
685399998098, -410900, 4107819
685451699608, -351000, 4108707
685503248516, -341800, 4106337
685552905162, -370600, 4096266
685599692892, -387300, 4104264
685647243633, -397100, 4094490
685699250348, -356200, 4108707
685751959031, -329700, 4093008
685802378686, -357900, 4103670
685849654742, -382100, 4107522
685897358085, -390200, 4093305
685972804445, -363100, 4086492
686020446746, -269900, 4105152
686068791015, -344700, 4102782
686118234019, -342500, 4106040
686164258740, -371200, 4109892
686210985432, -360800, 4105152
686251577527, -400600, 4092120
686297144442, -390200, 4102782
686341276900, -365500, 4098933
686390841984, -349300, 4109004
686450906079, -354500, 4090047
686493359917, -339500, 4109298
686551531745, -237100, 4109298
686599540291, -349300, 4108410
686648250805, -341800, 4099227
686703797882, -338900, 4108707
686751836951, -353400, 4098339
686811443237, -256100, 4108410
686855758817, -379300, 4105746
686905629105, -318300, 4109298
686956964371, -361400, 4098045
687010832828, -265300, 4102191
687060855721, -300400, 4109595
687124612778, -308400, 4109004
687208269117, -169200, 4107225
687256064021, -369500, 4097154
687312618270, -352700, 4108116
687356506567, -420600, 4107819
687406315814, -347000, 4107522
687457040672, -346500, 4107225
687506849920, -363100, 4108707
687557513737, -362000, 4103670
687614098509, -348700, 4097748
687679778351, -363100, 4106634
687728061580, -412100, 4106040
687772621323, -360300, 4092417
687823193579, -357400, 4087083
687866746152, -407500, 4085898
687914724177, -383300, 4105449
687989499088, -368900, 4090341
688038697929, -375800, 4106040
688089056543, -337800, 4102191
688137828098, -353400, 4105449
688189804292, -322300, 4108410
688235188085, -374100, 4106931
688281151766, -413200, 4092711
688325772551, -398800, 4100412
688373079128, -339500, 4098933
688429785981, -309600, 4101894
688479625748, -365500, 4109595
688527847936, -359100, 4099821
688577840307, -385500, 4099227
688628900889, -368300, 4099524
688678801697, -370000, 4098045
688729923322, -345800, 4108707
688775673360, -371700, 4098636
688821057153, -374100, 4106931
688868668934, -363100, 4107819
688917745692, -355600, 4098339
688962671682, -353900, 4095969
689016418057, -321700, 4098933
689074406764, -330400, 4106040
689129251874, -382100, 4108116
689177199378, -390700, 4096266
689229847020, -303300, 4105152
689277000997, -389000, 4094490
689328641466, -360800, 4091526
689398929883, -232400, 4093305
689446938429, -353400, 4107522
689488232493, -434500, 4103079
689532578593, -383800, 4106634
689579305284, -311900, 4107819
689631647723, -292400, 4093008
689683929120, -347000, 4094193
689740635973, -359100, 4088268
689799753933, -350500, 4106337
689849380058, -340100, 4107819
689919485355, -406900, 4088565
689960565775, -389000, 4103079
690003599500, -402300, 4097451
690048678090, -330900, 4095378
690092474824, -404600, 4105449
690136546242, -391900, 4106931
690189438047, -277400, 4107522
690237629716, -367700, 4101894
690289270185, -359100, 4098933
690339262556, -355100, 4108410
690392184881, -325200, 4090638
690454202277, -387900, 4107522
690507002523, -335400, 4107819
690549639482, -368900, 4104264
690599601331, -366000, 4107819
690649380059, -291700, 4108707
690698395776, -381000, 4095969
690752905162, -323500, 4099821
690797373343, -401700, 4098045
690846572185, -359600, 4097748
690898609419, -321100, 4094784
690958917676, -330400, 4109892
691011443236, -292900, 4105746
691058536170, -375800, 4106040
691108559061, -311900, 4107225
691158581951, -369500, 4093008
691208513280, -374600, 4108410
691258414088, -372400, 4090935
691308467499, -395900, 4106634
691359253399, -350500, 4107522
691410588665, -367200, 4095081
691464914929, -334400, 4092417
691520584087, -360800, 4105152
691569172520, -373500, 4105746
691620568827, -346500, 4106931
691668211128, -396600, 4091526
691717104765, -366000, 4105449
691767127655, -363700, 4105449
691818554483, -360800, 4107225
691891223489, -332600, 4084713
691938713188, -374600, 4101597
691985531441, -406900, 4104561
692028473604, -375200, 4099524
692076299027, -378100, 4107522
692124551736, -354500, 4103079
692181197546, -305500, 4106337
692226856024, -354500, 4107819
692270896920, -412100, 4092120
692315822910, -436800, 4097748
692360901499, -424100, 4090047
692406376853, -381600, 4098933
692455545174, -349300, 4107819
692498243174, -383800, 4106931
692548662829, -311900, 4099524
692599143526, -375200, 4109298
692651974290, -297500, 4110189
692712648790, -253200, 4109892
692768897836, -296400, 4095969
692811931562, -376400, 4094784
692857010151, -426500, 4095675
692911122773, -270400, 4108116
692957116973, -396600, 4104855
693010741267, -352200, 4107225
693059238139, -359600, 4108707
693109871436, -325200, 4106931
693158337787, -241700, 4106634
693206224251, -387900, 4105746
693259299180, -353400, 4108410
693310512364, -310200, 4092711
693364686025, -340600, 4092417
693420141541, -359600, 4087380
693472880745, -345300, 4091232
693522903635, -433400, 4089156
693566456207, -432200, 4089750
693611473756, -359100, 4106634
693661893411, -337300, 4106337
693709230508, -395400, 4107522
693790201056, -355100, 4087677
693828473602, -409200, 4097451
693869737147, -392500, 4106337
693918386620, -348200, 4105449
693973933698, -269900, 4108410
694020751949, -399400, 4103967
694064121398, -409200, 4107819
694109657793, -442000, 4107819
694159192359, -356800, 4101006
694207536628, -359100, 4101597
694262900583, -343500, 4110189
694313778044, -364300, 4104561
694356811768, -395900, 4106931
694410527625, -352700, 4103079
694459268659, -370600, 4109298
694509047387, -311900, 4096563
694557635819, -346500, 4099524
694613823824, -345800, 4109595
694664762325, -359600, 4105152
694709199989, -371200, 4106634
694758826114, -320500, 4105152
694811076991, -326300, 4107225
694860275831, -331500, 4106931
694915426144, -381600, 4096860
694984249583, -336100, 4093896
695035462769, -358500, 4106337
695083898599, -354500, 4093599
695137553414, -344100, 4105746
695188705558, -357400, 4093896
695242055169, -346500, 4094490
695298426298, -325200, 4092120
695347411495, -389600, 4103670
695398838321, -373500, 4106931
695448403405, -367200, 4094193
695503340078, -349300, 4107225
695554858466, -357900, 4107522
695611260113, -248500, 4107819
695661160921, -406300, 4103376
695707765530, -336600, 4091232
695788003589, -403500, 4090935
695826337178, -406300, 4106931
695880419277, -253200, 4108410
695926413478, -398800, 4108410
695968897836, -427700, 4101597
696018249278, -311400, 4099524
696066715629, -406900, 4108410
696120278885, -317100, 4106931
696188705559, -261800, 4108116
696239064172, -357400, 4103967
696290246836, -332100, 4105449
696342833438, -354500, 4109298
696393741418, -382700, 4101597
696437080349, -375800, 4098636
696487103239, -386200, 4106337
696534013051, -348700, 4096860
696589285444, -363700, 4105746
696640620711, -325700, 4105746
696689178623, -309000, 4096266
696739750881, -324000, 4107225
696789590649, -295200, 4106337
696836073175, -409700, 4107819
696878740656, -407500, 4086789
696927725853, -370000, 4106040
696980251414, -288900, 4094490
697032532813, -360300, 4106337
697081334888, -362000, 4105449
697131662981, -341300, 4106634
697181136505, -351000, 4106931
697231708763, -339500, 4105746
697280724481, -359100, 4106337
697331724022, -353900, 4104561
697381350148, -372400, 4107819
697432563333, -343500, 4097451
697482586223, -348200, 4098933
697541246379, -271000, 4102782
697589285444, -385500, 4088565
697635859533, -369500, 4108116
697707399285, -340100, 4085010
697759375480, -337800, 4108707
697808604840, -374600, 4103079
697854293839, -367700, 4093599
697895008015, -409700, 4108116
697943718529, -362000, 4105746
697991208228, -371200, 4107225
698036714104, -421800, 4102782
698090368918, -269300, 4107819
698136759883, -372400, 4096563
698189041282, -347500, 4105449
698240284987, -353900, 4105746
698288842899, -370600, 4099524
698340452850, -310200, 4107225
698388675038, -313600, 4098045
698439186253, -359600, 4109004
698487744167, -369500, 4095081
698537889138, -351600, 4098339
698597068139, -351600, 4106337
698650967118, -348700, 4103967
698703431637, -340100, 4107819
698752050590, -353900, 4099227
698793161532, -429900, 4105746
698837293990, -379300, 4094193
698882036856, -410400, 4103376
698925711508, -432200, 4093896
698978542274, -364300, 4093896
699029511295, -349900, 4093305
699079381583, -315900, 4109298
699128671986, -374600, 4091526
699177962387, -408000, 4091232
699228382041, -340600, 4103967
699278374412, -375200, 4105152
699328061578, -398800, 4092417
699403385857, -265300, 4093896
699457681598, -363100, 4090935
699512435147, -357400, 4102488
699562519077, -420600, 4105746
699609581493, -389000, 4106040
699676726311, -375800, 4087677
699715853430, -393600, 4105152
699756933850, -419600, 4101006
699806834659, -280300, 4091232
699859726463, -359600, 4106040
699909444150, -310200, 4101597
699959192357, -375800, 4109004
700008757441, -304500, 4101597
700057437436, -360300, 4101597
700112740351, -344700, 4110483
700160474213, -361400, 4097451
700207872351, -376900, 4105449
700259970628, -269900, 4096860
700301447813, -412100, 4098933
700350738214, -343500, 4105746
700413427060, -287200, 4098339
700457559518, -406900, 4096266
700508314897, -375800, 4097154
700559650162, -360800, 4108410
700609154206, -350500, 4103670
700659146577, -361400, 4107522
700707887611, -370600, 4105152
700764197699, -352200, 4096563
700823010456, -320500, 4079679
700879167941, -281300, 4096563
700931388298, -337300, 4103376
700979061120, -416100, 4106040
701029969100, -307300, 4090935
701082097897, -354500, 4094193
701138957350, -332100, 4108707
701203294295, -257200, 4092417
701249502138, -359100, 4106634
701297052879, -400600, 4093896
701349639480, -359600, 4105152
701399814973, -381000, 4090935
701451943769, -364300, 4103079
701501997180, -362500, 4105746
701556323442, -347000, 4106337
701656186100, -355100, 4093305
701702454985, -349900, 4092417
701751806427, -355600, 4106040
701790811463, -413800, 4106337
701828412562, -428200, 4089453
701879076379, -315400, 4105746
701930503207, -290600, 4102488
701978114988, -329700, 4101597
702028839847, -317600, 4105449
702079961470, -338400, 4098933
702129831759, -334900, 4108116
702177687702, -371200, 4099227
702228259959, -368300, 4099524
702279167940, -362500, 4096563
702329953841, -377600, 4106040
702378176028, -368900, 4095378
702429053490, -332600, 4107225
702478221809, -364800, 4096860
702529953841, -386700, 4105152
702577626662, -373500, 4097451
702628382041, -379800, 4106634
702679381583, -264700, 4106337
702755896157, -291700, 4107522
702814373189, -270400, 4108707
702881243326, -226700, 4106634
702940666491, -296400, 4107225
703015380362, -304500, 4100118
703084478485, -315900, 4093008
703134318254, -348700, 4104264
703182235239, -330900, 4105449
703231006793, -351000, 4106337
703276695791, -419600, 4093008
703324216010, -371700, 4092711
703380312455, -363100, 4104561
703428870366, -370000, 4108410
703501234170, -248000, 4083234
703552294752, -388500, 4106634
703602073480, -350500, 4091823
703661405084, -273400, 4086492
703727725852, -406300, 4085604
703767127655, -391900, 4084122
703808757442, -421300, 4094193
703859360219, -362000, 4099227
703901081568, -359600, 4104264
703940330766, -420100, 4098636
703988003588, -390700, 4097154
704040986954, -282500, 4108116
704089209144, -357400, 4100118
704134470855, -372900, 4106634
704176985734, -388500, 4093599
704220385703, -363700, 4105746
704269035176, -366000, 4097748
704318356098, -371200, 4107819
704366547766, -417300, 4097451
704412755611, -350500, 4106931
704471782010, -270400, 4089156
704521163973, -392500, 4107522
704568256907, -356200, 4108116
704620629866, -313600, 4104855
704679045860, -269900, 4109004
704735783232, -328000, 4095969
704786355488, -336100, 4104855
704830426905, -394800, 4105449
704875444457, -423000, 4105449
704929526556, -360300, 4106634
704976527929, -378100, 4094490
705029694417, -362500, 4107225
705097907449, -313100, 4108116
705164747064, -235900, 4093896
705216418056, -411500, 4104561
705267539679, -307300, 4106931
705311336413, -427000, 4106634
705356567604, -414400, 4107225
705412725091, -272700, 4091232
705458627731, -402800, 4090638
705505384941, -413200, 4107522
705559375479, -336100, 4105449
705626642380, -359600, 4087677
705681212805, -349300, 4105152
705738560586, -258300, 4088565
705779915690, -336100, 4106634
705836866704, -354500, 4100709
705889239663, -345800, 4106931
705934501375, -390200, 4105152
705978267589, -361400, 4103670
706027283308, -313100, 4099821
706072453459, -360800, 4096860
706132548071, -246300, 4109004
706190597819, -267000, 4107522
706234638716, -405200, 4104264
706281548529, -372400, 4106040
706334745539, -332600, 4098045
706389071802, -347000, 4106931
706434455595, -403500, 4104561
706480114072, -373500, 4106040
706530991532, -362500, 4095969
706581930035, -359100, 4096266
706638789488, -271000, 4107819
706682860906, -400000, 4105449
706732059746, -375800, 4104855
706781777433, -340100, 4103670
706830610028, -370600, 4105746
706889758509, -270400, 4105746
706934989702, -372900, 4094490
706993192052, -259500, 4093599
707040864873, -363700, 4103967
707086828555, -412100, 4093008
707138804748, -357900, 4093305
707190292616, -309000, 4104264
707237904397, -398800, 4090638
707290368916, -303300, 4092711
707342863957, -357400, 4095378
707401188389, -290600, 4104855
707446755305, -423000, 4106634
707498670458, -357400, 4104855
707550982377, -336600, 4085898
707632258128, -372900, 4087083
707668394248, -409200, 4101303
707707765530, -421800, 4092711
707749547919, -429900, 4104855
707798533116, -341800, 4100118
707846938426, -355600, 4097748
707899280865, -301000, 4101597
707948510226, -364300, 4100118
707997892189, -376900, 4098636
708054019153, -363100, 4098636
708103065393, -355600, 4096266
708155529912, -347000, 4101006
708204698231, -327500, 4107819
708252248973, -363100, 4099821
708310420802, -256100, 4097154
708355377310, -385500, 4103376
708405156037, -362000, 4106337
708460733635, -271000, 4106634
708509322068, -340100, 4106040
708553240883, -391900, 4105746
708601829317, -352200, 4104561
708647976119, -409200, 4103376
708692780026, -364800, 4106931
708741215858, -359600, 4102488
708792245920, -364300, 4091232
708841505800, -357900, 4104264
708892444303, -364300, 4106634
708949486878, -311400, 4087380
708997983749, -409200, 4090047
709048952771, -327500, 4094193
709100898445, -302700, 4106040
709151775905, -329200, 4107522
709202439725, -349300, 4092417
709259726463, -372900, 4104264
709306636275, -403500, 4105449
709358307266, -357900, 4106040
709414708914, -329700, 4105449
709472178775, -305500, 4098933
709544328935, -377600, 4081161
709583639174, -389600, 4101894
709627039143, -402300, 4105746
709673216467, -366000, 4104855
709721347095, -372400, 4098045
709767219214, -362500, 4106337
709811687398, -348200, 4105152
709861038839, -376900, 4106337
709906636275, -360800, 4099227
709959406000, -283100, 4098933
709999814972, -412100, 4104264
710039583017, -395900, 4105449
710078282849, -401100, 4088565
710127970016, -379300, 4102191
710187728904, -242300, 4095675
710238545324, -401100, 4093599
710287896766, -351600, 4093896
710339109951, -326900, 4092120
710392886847, -361400, 4096563
710449349537, -333800, 4103670
710492413782, -362500, 4097154
710541948345, -344100, 4095969
710594016101, -340100, 4094784
710649624219, -312400, 4104855
710699067223, -356800, 4106040
710753332444, -343500, 4106931
710802348163, -359100, 4100118
710848769648, -370600, 4106634
710898609417, -353400, 4107225
710951592783, -344700, 4090341
711009062645, -340600, 4106634
711061130400, -364300, 4102782
711110878607, -347500, 4105449
711158154663, -376900, 4106040
711208360676, -371700, 4105152
711260275829, -343500, 4104264
711310207159, -321700, 4106040
711362824280, -341800, 4096266
711419103847, -297500, 4106931
711485699299, -370600, 4086789
711535447506, -395900, 4077900
711585775600, -352200, 4106040
711639430415, -357400, 4101303
711690582559, -296400, 4106040
711738530064, -370000, 4098933
711786874333, -381600, 4098339
711839796659, -355600, 4106634
711888537693, -375200, 4099524
711938316422, -370600, 4098933
711988003587, -371700, 4101894
712039766139, -357900, 4106931
712088507173, -368300, 4095969
712138346942, -385000, 4097154
712188156189, -372900, 4097451
712239186252, -313600, 4098045
712289727988, -362500, 4107225
712338560585, -349300, 4086789
712389499085, -310200, 4105152
712438911568, -322800, 4093896
712489880590, -369500, 4096860
712542375631, -297500, 4098339
712599509768, -347000, 4105449
712652218451, -347000, 4106337
712722445827, -268700, 4101597
712779732566, -361400, 4104561
712831708762, -353400, 4108410
712892993668, -278500, 4093599
712939842439, -411500, 4105449
712990811462, -342500, 4105746
713041505800, -361400, 4105152
713090796201, -360800, 4105152
713140452848, -387300, 4103967
713187210058, -395400, 4089453
713241444759, -338900, 4094784
713289392264, -397100, 4106634
713336210515, -409700, 4088565
713388552955, -364800, 4106634
713457895240, -420100, 4077606
713510695484, -343500, 4105449
713559772242, -334900, 4106337
713610466581, -285400, 4109298
713659726462, -357900, 4102191
713703004351, -356800, 4106040
713750585611, -345800, 4104264
713790384176, -380400, 4103376
713829084009, -435600, 4088862
713877855563, -377600, 4106337
713924856937, -331500, 4107225
713994657029, -234200, 4107522
714048800169, -298100, 4104264
714090918282, -390200, 4106040
714131113612, -414400, 4087677
714178450712, -374100, 4088268
714244649399, -225500, 4106634
714288263011, -376900, 4095081
714338743706, -371700, 4093599
714388430872, -331500, 4096266
714438881047, -364300, 4094193
714495465820, -357400, 4104855
714549578439, -365500, 4103967
714599082482, -324500, 4093599
714652340532, -348200, 4095378
714706300550, -352200, 4093896
714761145659, -280800, 4094193
714818890205, -309600, 4089156
714866318863, -414900, 4105152
714918844423, -358500, 4103670
714971614147, -297500, 4106634
715018890204, -368300, 4107522
715070591714, -383800, 4105449
715120126280, -360800, 4106337
715166914011, -368900, 4104264
715218829163, -359600, 4104264
715270835877, -362500, 4087380
715319698994, -422500, 4106040
715370576454, -356200, 4103079
715442543493, -323500, 4086789
715491070884, -347500, 4101597
715538346941, -372400, 4106931
715587973066, -291200, 4105152
715628778804, -395900, 4100412
715674986647, -370600, 4100118
715719515872, -412100, 4103670
715759344959, -387300, 4106040
715798288953, -379800, 4089453
715842604533, -386700, 4097748
715884356403, -405200, 4105746
715923208837, -431700, 4104561
715967799100, -364800, 4104561
716007811310, -417300, 4094490
716058627729, -370000, 4104855
716111244850, -327500, 4102488
716160993057, -363700, 4103079
716211107508, -353400, 4106337
716259665421, -379800, 4103670
716308864262, -368300, 4095675
716358185183, -380400, 4103670
716407017780, -367700, 4093896
716458536168, -369500, 4092417
716510329239, -365500, 4103670
716559039754, -383800, 4106337
716609886694, -326900, 4092711
716667600717, -271000, 4106040
716718050894, -420100, 4101006
716764106136, -354500, 4106931
716819348009, -352200, 4107819
716874132077, -351600, 4093305
716927939494, -386700, 4092417
716985561956, -315400, 4107819
717035829011, -394200, 4088268
717091254007, -366000, 4104561
717140483367, -302100, 4092417
717193100490, -354500, 4092120
717262900580, -236500, 4104264
717326382956, -353900, 4081455
717364258738, -400000, 4104855
717406590494, -424100, 4106931
717452584694, -374100, 4101597
717497846407, -332100, 4103670
717558124142, -272700, 4085010
717600608500, -348200, 4107522
717659329698, -255400, 4099821
717701234168, -400000, 4100412
717747930337, -372900, 4097154
717797220740, -330400, 4104855
717850722952, -282500, 4104264
717900959484, -348200, 4098933
717960443691, -257200, 4104561
718010588662, -307900, 4096860
718072545017, -268700, 4107225
718119668473, -395400, 4106337
718165326950, -351600, 4106040
718218218755, -375200, 4096563
718268058524, -368300, 4095081
718318417138, -356200, 4102782
718379396841, -345800, 4102488
718440895393, -267000, 4107819
718515426141, -242300, 4099227
718605858005, -207700, 4092711
718670500153, -323500, 4089156
718710878606, -383300, 4093008
718756567603, -406900, 4092120
718807750268, -360300, 4103967
718859848543, -345300, 4106931
718910603922, -286000, 4103376
718960718375, -382700, 4090047
719007994431, -397100, 4105449
719059024493, -360300, 4101894
719110115597, -296900, 4091526
719164686022, -328600, 4094490
719223865024, -332100, 4105152
719278313368, -384500, 4104855
719327573249, -339500, 4103967
719398899359, -369500, 4085010
719433204259, -393600, 4086789
719473948955, -372900, 4106040
719520065237, -318300, 4104855
719566669846, -403500, 4101303
719611534793, -394800, 4091232
719655606211, -395400, 4100412
719708406455, -354500, 4098636
719758032581, -376900, 4097748
719819470090, -339500, 4090638
719859024493, -344100, 4099821
719911092248, -274400, 4096563
719956842286, -378600, 4104264
720010771784, -330400, 4093896
720073643752, -281300, 4106634
720126566077, -334400, 4105449
720175368153, -334900, 4095969
720227832672, -340600, 4106040
720279717305, -357400, 4103967
720331479856, -375200, 4088268
720381960553, -361400, 4102782
720429847017, -385500, 4103079
720478252328, -396600, 4102488
720525955669, -372900, 4105449
720578786434, -326900, 4089750
720639521974, -280800, 4103670
720699647109, -218100, 4106337
720756231879, -367700, 4090638
720809337327, -361400, 4105746
720859848542, -347000, 4099524
720911489013, -359600, 4106337
720958032580, -380400, 4089453
721008940562, -370000, 4106931
721061099878, -328000, 4105746
721119363269, -365500, 4087083
721169416679, -378600, 4106040
721223346177, -333200, 4107819
721277550359, -366500, 4102191
721360626812, -344700, 4089453
721402256601, -387300, 4104855
721448494964, -380400, 4081161
721486492827, -368900, 4105152
721534043569, -338900, 4103376
721582784603, -362000, 4106634
721641749962, -271600, 4088862
721685394094, -359100, 4096563
721731662979, -348200, 4102488
721781289104, -384500, 4094490
721840376546, -272200, 4106931
721886462308, -344700, 4096266
721941093774, -274400, 4097451
721986782771, -378100, 4104855
722034608195, -364800, 4106337
722084814207, -359100, 4103967
722140697010, -299800, 4106931
722187271098, -386200, 4096563
722238545322, -320000, 4096860
722287347398, -347500, 4107225
722331174652, -398300, 4086492
722379488402, -374100, 4093305
722427649549, -320000, 4093599
722478282848, -334400, 4093896
722528610941, -376900, 4090638
722579030597, -367700, 4092417
722641200595, -343500, 4085898
722690796200, -298100, 4105449
722734653975, -404000, 4093599
722787545781, -355600, 4101894
722837934915, -372400, 4106931
722887255837, -359100, 4103376
722938652144, -363700, 4105449
722993985579, -344700, 4107522
723050906074, -279100, 4105449
723101753014, -364800, 4091232
723153942850, -340100, 4106931
723209520449, -340600, 4105152
723262229131, -348200, 4091232
723334318253, -376900, 4083234
723381655350, -362500, 4105152
723427619030, -419600, 4105449
723470011826, -371700, 4105152
723509291545, -427000, 4091823
723551348621, -425800, 4104561
723605278118, -364800, 4102488
723659055013, -353400, 4101303
723707551884, -368300, 4105746
723759650159, -366500, 4104264
723808818479, -371700, 4104561
723858993973, -307900, 4096563
723908040212, -365500, 4096860
723957635816, -356200, 4096266
724013549137, -340600, 4104561
724062137570, -409700, 4106337
724106788875, -386200, 4093305
724157513734, -349900, 4106931
724208910042, -330400, 4095675
724263724630, -345300, 4108410
724312984511, -368900, 4093599
724356415000, -386200, 4103967
724409459407, -334400, 4102782
724458230962, -359600, 4092120
724510848086, -344100, 4108410
724558337785, -386200, 4102782
724607933389, -368300, 4091823
724658353044, -326300, 4104264
724703431635, -417800, 4106634
724753607126, -347500, 4103670
724802531283, -371200, 4099821
724849837860, -351000, 4105449
724910268197, -306700, 4102782
724955072104, -392500, 4105746
725006224248, -330400, 4103079
725051302838, -390200, 4104264
725102119258, -345300, 4101894
725154583779, -378100, 4105746
725246602701, -284800, 4083528
725285394093, -394200, 4090047
725342345108, -257800, 4106634
725386447047, -402800, 4105746
725432136044, -364800, 4104561
725478252328, -368300, 4106040
725527390127, -342500, 4100118
725575429192, -363700, 4106634
725628229437, -367200, 4098045
725692993667, -221000, 4106634
725737644971, -420100, 4106634
725779854647, -395900, 4102782
725827649550, -370000, 4095378
725890460475, -333800, 4108116
725939201510, -386700, 4102782
725988034105, -355600, 4104855
726039674576, -359100, 4103670
726087927285, -377600, 4095081
726138255379, -321100, 4094784
726186752250, -378600, 4106931
726230823669, -355600, 4090047
726278404929, -353900, 4094490
726332303906, -344700, 4107819
726392551122, -272200, 4103670
726440925912, -370000, 4093599
726504927132, -242300, 4093008
726556140317, -336600, 4104264
726600791621, -428200, 4104855
726651150236, -343000, 4104561
726702149778, -362500, 4106634
726770332290, -301500, 4092120
726815899206, -356200, 4105746
726862015490, -353400, 4104855
726911794216, -351000, 4089156
726960779413, -421800, 4105152
727007017779, -350500, 4105449
727060214787, -268700, 4107522
727114205325, -360800, 4087677
727168378986, -371700, 4103967
727250875554, -328600, 4086195
727289209141, -381600, 4102191
727338316419, -325700, 4107225
727384463224, -376900, 4104264
727426947581, -352700, 4091526
727479381580, -310200, 4103967
727527542727, -357900, 4100118
727589590646, -310200, 4086195
727627588509, -431700, 4105152
727681090721, -282000, 4105152
727727451167, -395400, 4106040
727778664352, -316500, 4105449
727828412558, -384500, 4097154
727875536014, -395900, 4095969
727923208835, -347500, 4106931
727979183198, -362500, 4080567
728030487945, -349300, 4102488
728078984816, -322800, 4095081
728129892796, -291200, 4106634
728177809782, -388500, 4096563
728228320998, -312400, 4095081
728279290019, -372400, 4106931
728334531893, -258300, 4095675
728403111170, -245200, 4093599
728446389057, -383800, 4102782
728498731497, -362500, 4103967
728551318098, -345800, 4091526
728611870517, -273400, 4091526
728658841370, -322800, 4104561
728702363421, -405200, 4102488
728751897985, -355600, 4104855
728799265604, -399400, 4103967
728844740958, -406900, 4104264
728898853578, -346500, 4098045
728945854951, -402800, 4090638
728999143521, -357400, 4104855
729052004806, -344700, 4087083
729102912787, -356800, 4106040
729183639172, -336100, 4095081
729235584846, -411500, 4105449
729291406607, -261300, 4101597
729335722188, -427700, 4100709
729376588966, -432200, 4087380
729419744773, -357900, 4104855
729468272165, -377600, 4106337
729518874942, -356200, 4103670
729570271249, -319400, 4104264
729620080496, -361400, 4106337
729669584540, -329700, 4104264
729729099267, -361400, 4099821
729785287272, -405200, 4095081
729838301159, -266400, 4095969
729888568212, -367200, 4095969
729942161985, -348200, 4095675
729999418205, -298600, 4105746
730042146726, -404000, 4095378
730100837402, -264700, 4093896
730153301921, -311400, 4093008
730206498931, -336100, 4105449
730251913244, -383800, 4103967
730302882267, -368900, 4104855
730347258888, -409200, 4093599
730400242255, -372900, 4106040
730450478787, -318300, 4103670
730502699145, -345800, 4103376
730556567601, -355100, 4106040
730621698077, -235900, 4106931
730675169768, -321700, 4106634
730729434991, -361400, 4101597
730779213717, -360300, 4106931
730832624369, -348700, 4108116
730885272012, -385500, 4089453
730939995040, -279100, 4106040
731003538454, -271600, 4108116
731064243475, -271000, 4090047
731123575079, -273400, 4089453
731185348312, -272200, 4089750
731290063710, -333200, 4090047
731327725850, -394200, 4087380
731368775750, -370600, 4089453
731412389363, -356200, 4104264
731459818021, -374600, 4103670
731504988172, -362500, 4106337
731549303753, -403500, 4104561
731597617502, -326300, 4091526
731651028154, -279600, 4106634
731697327558, -360800, 4099227
731746556919, -371700, 4101006
731788430870, -398300, 4097748
731838575843, -363700, 4096860
731887652601, -322800, 4096266
731944725698, -347500, 4108116
732001493589, -272200, 4106931
732044252631, -398800, 4103670
732100745840, -269300, 4106634
732141765222, -380400, 4084419
732189651685, -321100, 4106040
732239308331, -306200, 4103967
732288110406, -371200, 4105449
732336546237, -363700, 4103079
732385592475, -352200, 4106634
732437416068, -364300, 4103670
732488446131, -352200, 4105449
732538285898, -362500, 4105746
732589193880, -353900, 4103967
732644496794, -359100, 4107522
732700715321, -255400, 4105746
732751165496, -379800, 4088862
732797190216, -393600, 4091526
732848586525, -373500, 4103670
732901203646, -364300, 4103967
732947442010, -397600, 4088862
733001249426, -373500, 4103967
733062625895, -254400, 4085898
733111458490, -397600, 4096860
733175490234, -432700, 4080864
733215288799, -407500, 4081161
733256643903, -432200, 4105152
733298334731, -443100, 4104561
733348510222, -401100, 4095675
733392093315, -433900, 4098636
