2120605477861, 300000
2151546174828, 300000
2182356132994, 883200
2212585094649, 1267200
2242735429378, 1958400
2273306966657, 300000
2303901807010, 883200
2334122632884, 1267200
2364316070997, 1958400
2394766159319, 300000
2425369140401, 883200
2455569100389, 1267200
2485776513607, 1958400
2516438445939, 300000
2547202646657, 883200
2577478086645, 1267200
2607644792623, 1958400
2638093653862, 300000
2668715501767, 883200
2698969511651, 1267200
2729176052317, 1958400
2759824279544, 300000
2790533702919, 883200
2820805610980, 1267200
2850983597531, 1958400
2881564650540, 300000
2912188757559, 883200
2942407282027, 1267200
2972585739255, 1958400
3003088402473, 300000
3033938399700, 883200
3064188823907, 1267200
3094373416292, 1958400
3125123734353, 300000
3155746271789, 883200
3185972705528, 1267200
3216141872756, 1958400
3246850553787, 300000
3277424953618, 883200
3307624259023, 1267200
3337764036512, 1958400
3368406569573, 300000
3398921075760, 883200
3429177292674, 1267200
3459355063184, 1958400
3489861874475, 300000
3520486272796, 883200
3550713082473, 1267200
3580906555794, 1958400
3611577711667, 300000
3642432006552, 883200
3672691318207, 1267200
3702883848717, 1958400
3733434084069, 300000
3763977406140, 883200
3794234457796, 1267200
3824392736951, 1958400
3854813253919, 300000
3885339870000, 883200
3915615003895, 1267200
3945805272946, 1958400
3976253658299, 300000
4007107245996, 883200
4037390179422, 1267200
4067574953682, 1958400
4097989135596, 300000
4128537292355, 883200
4158887933803, 1267200
4189069370874, 1958400
4219668539246, 300000
4250296869757, 883200
4280564524798, 1267200
4310743577964, 1958400
4341305146597, 300000
4371977895908, 883200
4402208789595, 1267200
4432402469636, 1958400
4463099623218, 300000
4493920908936, 883200
4524206034965, 1267200
4554391596881, 1958400
4584994655307, 300000
4615630591545, 883200
4645910221065, 1267200
4676089162667, 1958400
4706631984167, 300000
4737204346030, 883200
4767461172217, 1267200
4797606961371, 1958400
4828253405162, 300000
4858907021400, 883200
4889123721597, 1267200
4919279042315, 1958400
4949727068605, 300000
4980401677135, 883200
5010661320666, 1267200
