13307946529875, 1958400
13338246915123, 300000
13368732654226, 883200
13398954666765, 1267200
13429110891026, 1958400
13459434639920, 300000
13490014249388, 883200
13520228392710, 1267200
13550364628949, 1958400
13580879074041, 300000
13611499440904, 883200
13641682490476, 1267200
13671844867183, 1958400
13702171731339, 300000
13732681172056, 883200
13762873873087, 1267200
13793008185991, 1958400
13823422767855, 300000
13854130999562, 883200
13884347978977, 1267200
13914492782352, 1958400
13945054862287, 300000
13975870403057, 883200
14006079977212, 1267200
14036205076523, 1958400
14066554043231, 300000
14097180619730, 883200
14127351541385, 1267200
14157504211217, 1958400
14187804219852, 300000
14218584530256, 883200
14248818615505, 1267200
14278957224296, 1958400
14309305379232, 300000
14339973695002, 883200
14370154781084, 1267200
14400272786281, 1958400
14430560795124, 300000
14461021709591, 883200
14491186203694, 1267200
14521323425765, 1958400
14551886482056, 300000
14582598367200, 883200
14612776435001, 1267200
14642926697855, 1958400
14673361933364, 300000
14703823716894, 883200
14734010648758, 1267200
14764140604580, 1958400
14794578761442, 300000
14825262997733, 883200
14855546648399, 1267200
14885688694584, 1958400
14916170515407, 300000
14946704589249, 883200
14976906553457, 1267200
15007047531049, 1958400
15037435237079, 300000
15068083719359, 883200
15098250582994, 1267200
15128375536940, 1958400
15158841053543, 300000
15189558260979, 883200
15219788632426, 1267200
15249920413092, 1958400
15280379129018, 300000
15310989599839, 883200
15341197555818, 1267200
15371325505285, 1958400
15401629405742, 300000
15432380830054, 883200
15462575115771, 1267200
15492764833416, 1958400
15523197570591, 300000
15553869799902, 883200
15584034316142, 1267200
15614182568942, 1958400
15644644206535, 300000
15675744606263, 883200
15705957114740, 1267200
15736076938479, 1958400
15766537166228, 300000
15797200485280, 883200
15827386709069, 1267200
15857500903121, 1958400
15888050895088, 300000
15918748479763, 883200
15948965386784, 1267200
15979094175157, 1958400
16009498317073, 300000
16039994856853, 883200
16070210868037, 1267200
16100342431466, 1958400
16130749356453, 300000
16161411477276, 883200
16191631083618, 1267200
16221794223399, 1958400
16252481349168, 300000
16283198132281, 883200
16313412303572, 1267200
16343548422674, 1958400
16374082842091, 300000
16404665738537, 883200
16434821218577, 1267200
16464935383930, 1958400
16495334589387, 300000
16525909865782, 883200
16556086967125, 1267200
16586223225812, 1958400
16616486848247, 300000
16647115490579, 883200
16677314941297, 1267200
16707445187119, 1958400
16737957527837, 300000
16768718427773, 883200
16798923332709, 1267200
16829084120094, 1958400
