13199754506719, 1958400
13230012688584, 300000
13260556095291, 883200
13290806012623, 1267200
13320963459643, 1958400
13351412449215, 300000
13382032884464, 883200
13412244754139, 1267200
13442436117565, 1958400
13473042969898, 300000
13503708970250, 883200
13533981981750, 1267200
13564135750123, 1958400
13594458087559, 300000
13625078875464, 883200
13655328357900, 1267200
13685498986639, 1958400
13716028481419, 300000
13746553473439, 883200
13776832494313, 1267200
13807006214926, 1958400
13837382600592, 300000
13868209708548, 883200
13898516846245, 1267200
13928724291703, 1958400
13959436558305, 300000
13990193164440, 883200
14020489559063, 1267200
14050659800198, 1958400
14081357972686, 300000
14111984624758, 883200
14142294141674, 1267200
14172456482443, 1958400
14202989464618, 300000
14233640939191, 883200
14263911072721, 1267200
14294089175157, 1958400
14324681829052, 300000
14355314975029, 883200
14385576942778, 1267200
14415774212663, 1958400
14446415487443, 300000
14476988027431, 883200
14507249677263, 1267200
14537438180168, 1958400
14568202439948, 300000
14598873303686, 883200
14629119113623, 1267200
14659292773820, 1958400
14689872969850, 300000
14720466627859, 883200
14750719081962, 1267200
14780909115075, 1958400
14811486817824, 300000
14842058822396, 883200
14872272329364, 1267200
14902443129196, 1958400
14933132037049, 300000
14963840721360, 883200
14994176714525, 1267200
15024337050920, 1958400
15054947944917, 300000
15085519990949, 883200
15115764171458, 1267200
15145945466447, 1958400
15176565685758, 300000
15207318764860, 883200
15237609067974, 1267200
15267795062129, 1958400
15298356147795, 300000
15329132531637, 883200
15359404901886, 1267200
15389660675833, 1958400
15420223006186, 300000
15450973123934, 883200
15481271826319, 1267200
15511442461255, 1958400
15542009566660, 300000
15572778323836, 883200
15603108313511, 1267200
15633273293084, 1958400
15663935660989, 300000
15694588749049, 883200
15724845560393, 1267200
15755047892516, 1958400
15786699337243, 300000
15817768973741, 883200
15848031666127, 1267200
15878206217469, 1958400
15908887913551, 300000
15939891405988, 883200
15970166381236, 1267200
16000358606121, 1958400
16031053114911, 300000
16061971781201, 883200
16092241279576, 1267200
16122403400397, 1958400
16153302415593, 300000
16184565732926, 883200
16214834332341, 1267200
16245024839100, 1958400
16275993548099, 300000
16306430513556, 883200
16336666142555, 1267200
16366900673065, 1958400
16397334784719, 300000
16427750901114, 883200
16458034302196, 1267200
16488234742966, 1958400
16519016918006, 300000
16549685921276, 883200
16579948861264, 1267200
16610163760836, 1958400
16640866472959, 300000
16671549073885, 883200
16701886404238, 1267200
16732062813550, 1958400
