12964574700093, 1958400
12994923995342, 300000
13025414123664, 883200
13055617915371, 1267200
13085813125151, 1958400
13116472043733, 300000
13147016902680, 883200
13177301177252, 1267200
13207504020261, 1958400
13237948313061, 300000
13268529354456, 883200
13298751387362, 1267200
13328933090058, 1958400
13359595384422, 300000
13390506292118, 883200
13420740640805, 1267200
13450947459230, 1267200
13481734991823, 300000
13512413162905, 883200
13542728891435, 1267200
13572937432309, 1958400
13603607081828, 300000
13634378357389, 883200
13664654740920, 1267200
13694864608617, 1958400
13725562271626, 300000
13756205568228, 883200
13786481958269, 1267200
13816687262007, 1958400
13847324003663, 300000
13878002368703, 883200
13908356572285, 1267200
13938555626440, 1958400
13969212975283, 300000
13999672123084, 883200
14029985773020, 1267200
14060177324675, 1958400
14090753807685, 300000
14121393143558, 883200
14151636297088, 1267200
14181820667754, 1958400
14212304169304, 300000
14243183143304, 883200
14273452862667, 1267200
14303620869114, 1958400
14334147950247, 300000
14365075095288, 883200
14395319381162, 1267200
14425518636931, 1958400
14455983609679, 300000
14486639987898, 883200
14516938296740, 1267200
14547133193656, 1958400
14577849380519, 300000
14608714039570, 883200
14638994714507, 1267200
14669149677463, 1958400
14699926086462, 300000
14730668397232, 883200
14760916030033, 1267200
14791065005490, 1958400
14821589063916, 300000
14852254828539, 883200
14882545524778, 1267200
14912757407683, 1958400
14943415268505, 300000
14974126136358, 883200
15004385854106, 1267200
15034569977480, 1958400
15065263382990, 300000
15095977272665, 883200
15126242910571, 1267200
15156420651236, 1958400
15187057193047, 300000
15217568411525, 883200
15247803080732, 1267200
15277999497491, 1958400
15308466655032, 300000
15339187304916, 883200
15369428308915, 1267200
15399620236040, 1958400
15430695970559, 300000
15461392325130, 883200
15491609176681, 1267200
15521747062242, 1958400
15552103088846, 300000
15582868224615, 883200
15613153462468, 1267200
15643360750686, 1958400
15673831696352, 300000
15704481584673, 883200
15734776225391, 1267200
15764945909337, 1958400
15795588202242, 300000
15826374700095, 883200
15856689937896, 1267200
15886882510125, 1958400
15917532705373, 300000
15948204893955, 883200
15978482184933, 1267200
16008683132369, 1958400
16039361484441, 300000
16070005996513, 883200
16100305950667, 1267200
16130515894979, 1958400
16161112870749, 300000
16191840772352, 883200
16222069448538, 1267200
16252274259620, 1958400
16282807026067, 300000
16313528330170, 883200
16343840626304, 1267200
16374016590563, 1958400
16404675553104, 300000
16435351552102, 883200
16465649845320, 1267200
16495839549839, 1958400
